G2/data_old/1600000Hz_/F0000CH1.CSV

Record Length,2.500000e+03,,  -0.000001250000,   1.12000,
Sample Interval,1.000000e-09,,  -0.000001249000,   1.20000,
Trigger Point,1.250000000000e+03,,  -0.000001248000,   1.28000,
,,,  -0.000001247000,   1.28000,
,,,  -0.000001246000,   1.44000,
,,,  -0.000001245000,   1.36000,
Source,CH1,,  -0.000001244000,   1.44000,
Vertical Units,V,,  -0.000001243000,   1.52000,
Vertical Scale,2.000000e+00,,  -0.000001242000,   1.52000,
Vertical Offset,-8.000000e-02,,  -0.000001241000,   1.60000,
Horizontal Units,s,,  -0.000001240000,   1.60000,
Horizontal Scale,2.500000e-07,,  -0.000001239000,   1.68000,
Pt Fmt,Y,,  -0.000001238000,   1.76000,
Yzero,0.000000e+00,,  -0.000001237000,   1.76000,
Probe Atten,1.000000e+00,,  -0.000001236000,   1.92000,
Model Number,TBS1052B-EDU,,  -0.000001235000,   1.84000,
Serial Number,C017065,,  -0.000001234000,   1.84000,
Firmware Version,FV:v3.25,,  -0.000001233000,   2.00000,
,,,-00.000001232000,   2.00000,
,,,-00.000001231000,   2.00000,
,,,-00.000001230000,   2.08000,
,,,-00.000001229000,   2.16000,
,,,-00.000001228000,   2.24000,
,,,-00.000001227000,   2.16000,
,,,-00.000001226000,   2.24000,
,,,-00.000001225000,   2.32000,
,,,-00.000001224000,   2.32000,
,,,-00.000001223000,   2.40000,
,,,-00.000001222000,   2.40000,
,,,-00.000001221000,   2.56000,
,,,-00.000001220000,   2.56000,
,,,-00.000001219000,   2.64000,
,,,-00.000001218000,   2.64000,
,,,-00.000001217000,   2.64000,
,,,-00.000001216000,   2.72000,
,,,-00.000001215000,   2.72000,
,,,-00.000001214000,   2.80000,
,,,-00.000001213000,   2.80000,
,,,-00.000001212000,   2.88000,
,,,-00.000001211000,   2.88000,
,,,-00.000001210000,   2.96000,
,,,-00.000001209000,   2.96000,
,,,-00.000001208000,   2.96000,
,,,-00.000001207000,   3.12000,
,,,-00.000001206000,   3.20000,
,,,-00.000001205000,   3.12000,
,,,-00.000001204000,   3.20000,
,,,-00.000001203000,   3.28000,
,,,-00.000001202000,   3.28000,
,,,-00.000001201000,   3.36000,
,,,-00.000001200000,   3.28000,
,,,-00.000001199000,   3.44000,
,,,-00.000001198000,   3.44000,
,,,-00.000001197000,   3.44000,
,,,-00.000001196000,   3.44000,
,,,-00.000001195000,   3.60000,
,,,-00.000001194000,   3.60000,
,,,-00.000001193000,   3.60000,
,,,-00.000001192000,   3.60000,
,,,-00.000001191000,   3.68000,
,,,-00.000001190000,   3.68000,
,,,-00.000001189000,   3.76000,
,,,-00.000001188000,   3.68000,
,,,-00.000001187000,   3.84000,
,,,-00.000001186000,   3.76000,
,,,-00.000001185000,   3.92000,
,,,-00.000001184000,   3.84000,
,,,-00.000001183000,   3.92000,
,,,-00.000001182000,   4.00000,
,,,-00.000001181000,   4.08000,
,,,-00.000001180000,   4.00000,
,,,-00.000001179000,   4.00000,
,,,-00.000001178000,   4.08000,
,,,-00.000001177000,   4.08000,
,,,-00.000001176000,   4.16000,
,,,-00.000001175000,   4.16000,
,,,-00.000001174000,   4.16000,
,,,-00.000001173000,   4.24000,
,,,-00.000001172000,   4.24000,
,,,-00.000001171000,   4.32000,
,,,-00.000001170000,   4.40000,
,,,-00.000001169000,   4.32000,
,,,-00.000001168000,   4.40000,
,,,-00.000001167000,   4.40000,
,,,-00.000001166000,   4.32000,
,,,-00.000001165000,   4.40000,
,,,-00.000001164000,   4.40000,
,,,-00.000001163000,   4.40000,
,,,-00.000001162000,   4.48000,
,,,-00.000001161000,   4.48000,
,,,-00.000001160000,   4.48000,
,,,-00.000001159000,   4.48000,
,,,-00.000001158000,   4.64000,
,,,-00.000001157000,   4.64000,
,,,-00.000001156000,   4.64000,
,,,-00.000001155000,   4.64000,
,,,-00.000001154000,   4.56000,
,,,-00.000001153000,   4.64000,
,,,-00.000001152000,   4.72000,
,,,-00.000001151000,   4.80000,
,,,-00.000001150000,   4.72000,
,,,-00.000001149000,   4.80000,
,,,-00.000001148000,   4.80000,
,,,-00.000001147000,   4.80000,
,,,-00.000001146000,   4.72000,
,,,-00.000001145000,   4.80000,
,,,-00.000001144000,   4.80000,
,,,-00.000001143000,   4.72000,
,,,-00.000001142000,   4.72000,
,,,-00.000001141000,   4.80000,
,,,-00.000001140000,   4.80000,
,,,-00.000001139000,   4.80000,
,,,-00.000001138000,   4.80000,
,,,-00.000001137000,   4.96000,
,,,-00.000001136000,   4.88000,
,,,-00.000001135000,   4.88000,
,,,-00.000001134000,   4.88000,
,,,-00.000001133000,   4.88000,
,,,-00.000001132000,   4.88000,
,,,-00.000001131000,   4.96000,
,,,-00.000001130000,   4.96000,
,,,-00.000001129000,   4.96000,
,,,-00.000001128000,   5.04000,
,,,-00.000001127000,   4.96000,
,,,-00.000001126000,   4.96000,
,,,-00.000001125000,   5.04000,
,,,-00.000001124000,   4.96000,
,,,-00.000001123000,   4.96000,
,,,-00.000001122000,   5.04000,
,,,-00.000001121000,   4.96000,
,,,-00.000001120000,   4.96000,
,,,-00.000001119000,   4.96000,
,,,-00.000001118000,   4.96000,
,,,-00.000001117000,   5.04000,
,,,-00.000001116000,   4.96000,
,,,-00.000001115000,   4.96000,
,,,-00.000001114000,   5.04000,
,,,-00.000001113000,   4.96000,
,,,-00.000001112000,   4.96000,
,,,-00.000001111000,   4.88000,
,,,-00.000001110000,   4.96000,
,,,-00.000001109000,   4.96000,
,,,-00.000001108000,   4.88000,
,,,-00.000001107000,   4.96000,
,,,-00.000001106000,   4.96000,
,,,-00.000001105000,   4.88000,
,,,-00.000001104000,   5.04000,
,,,-00.000001103000,   4.96000,
,,,-00.000001102000,   5.04000,
,,,-00.000001101000,   4.88000,
,,,-00.000001100000,   4.96000,
,,,-00.000001099000,   4.88000,
,,,-00.000001098000,   4.80000,
,,,-00.000001097000,   4.80000,
,,,-00.000001096000,   4.88000,
,,,-00.000001095000,   4.88000,
,,,-00.000001094000,   4.88000,
,,,-00.000001093000,   4.80000,
,,,-00.000001092000,   4.72000,
,,,-00.000001091000,   4.72000,
,,,-00.000001090000,   4.72000,
,,,-00.000001089000,   4.72000,
,,,-00.000001088000,   4.72000,
,,,-00.000001087000,   4.72000,
,,,-00.000001086000,   4.64000,
,,,-00.000001085000,   4.64000,
,,,-00.000001084000,   4.64000,
,,,-00.000001083000,   4.56000,
,,,-00.000001082000,   4.56000,
,,,-00.000001081000,   4.64000,
,,,-00.000001080000,   4.56000,
,,,-00.000001079000,   4.56000,
,,,-00.000001078000,   4.48000,
,,,-00.000001077000,   4.48000,
,,,-00.000001076000,   4.56000,
,,,-00.000001075000,   4.48000,
,,,-00.000001074000,   4.56000,
,,,-00.000001073000,   4.56000,
,,,-00.000001072000,   4.48000,
,,,-00.000001071000,   4.48000,
,,,-00.000001070000,   4.48000,
,,,-00.000001069000,   4.40000,
,,,-00.000001068000,   4.48000,
,,,-00.000001067000,   4.32000,
,,,-00.000001066000,   4.32000,
,,,-00.000001065000,   4.32000,
,,,-00.000001064000,   4.24000,
,,,-00.000001063000,   4.16000,
,,,-00.000001062000,   4.24000,
,,,-00.000001061000,   4.24000,
,,,-00.000001060000,   4.16000,
,,,-00.000001059000,   4.08000,
,,,-00.000001058000,   4.08000,
,,,-00.000001057000,   4.00000,
,,,-00.000001056000,   4.00000,
,,,-00.000001055000,   4.00000,
,,,-00.000001054000,   3.92000,
,,,-00.000001053000,   3.92000,
,,,-00.000001052000,   3.92000,
,,,-00.000001051000,   3.84000,
,,,-00.000001050000,   3.84000,
,,,-00.000001049000,   3.92000,
,,,-00.000001048000,   3.84000,
,,,-00.000001047000,   3.84000,
,,,-00.000001046000,   3.76000,
,,,-00.000001045000,   3.68000,
,,,-00.000001044000,   3.60000,
,,,-00.000001043000,   3.60000,
,,,-00.000001042000,   3.68000,
,,,-00.000001041000,   3.52000,
,,,-00.000001040000,   3.52000,
,,,-00.000001039000,   3.52000,
,,,-00.000001038000,   3.44000,
,,,-00.000001037000,   3.44000,
,,,-00.000001036000,   3.36000,
,,,-00.000001035000,   3.36000,
,,,-00.000001034000,   3.28000,
,,,-00.000001033000,   3.20000,
,,,-00.000001032000,   3.12000,
,,,-00.000001031000,   3.12000,
,,,-00.000001030000,   3.12000,
,,,-00.000001029000,   3.12000,
,,,-00.000001028000,   3.04000,
,,,-00.000001027000,   3.04000,
,,,-00.000001026000,   3.04000,
,,,-00.000001025000,   3.04000,
,,,-00.000001024000,   2.88000,
,,,-00.000001023000,   2.96000,
,,,-00.000001022000,   2.88000,
,,,-00.000001021000,   2.80000,
,,,-00.000001020000,   2.88000,
,,,-00.000001019000,   2.72000,
,,,-00.000001018000,   2.72000,
,,,-00.000001017000,   2.72000,
,,,-00.000001016000,   2.64000,
,,,-00.000001015000,   2.56000,
,,,-00.000001014000,   2.56000,
,,,-00.000001013000,   2.40000,
,,,-00.000001012000,   2.40000,
,,,-00.000001011000,   2.32000,
,,,-00.000001010000,   2.32000,
,,,-00.000001009000,   2.24000,
,,,-00.000001008000,   2.24000,
,,,-00.000001007000,   2.24000,
,,,-00.000001006000,   2.08000,
,,,-00.000001005000,   2.16000,
,,,-00.000001004000,   2.00000,
,,,-00.000001003000,   2.08000,
,,,-00.000001002000,   2.00000,
,,,-00.000001001000,   1.92000,
,,,-00.000001000000,   1.92000,
,,,-00.000000999000,   1.76000,
,,,-00.000000998000,   1.76000,
,,,-00.000000997000,   1.84000,
,,,-00.000000996000,   1.68000,
,,,-00.000000995000,   1.68000,
,,,-00.000000994000,   1.68000,
,,,-00.000000993000,   1.52000,
,,,-00.000000992000,   1.44000,
,,,-00.000000991000,   1.44000,
,,,-00.000000990000,   1.44000,
,,,-00.000000989000,   1.36000,
,,,-00.000000988000,   1.28000,
,,,-00.000000987000,   1.20000,
,,,-00.000000986000,   1.20000,
,,,-00.000000985000,   1.12000,
,,,-00.000000984000,   1.12000,
,,,-00.000000983000,   1.04000,
,,,-00.000000982000,   1.04000,
,,,-00.000000981000,   0.96000,
,,,-00.000000980000,   0.96000,
,,,-00.000000979000,   0.80000,
,,,-00.000000978000,   0.72000,
,,,-00.000000977000,   0.80000,
,,,-00.000000976000,   0.80000,
,,,-00.000000975000,   0.64000,
,,,-00.000000974000,   0.64000,
,,,-00.000000973000,   0.56000,
,,,-00.000000972000,   0.56000,
,,,-00.000000971000,   0.48000,
,,,-00.000000970000,   0.40000,
,,,-00.000000969000,   0.48000,
,,,-00.000000968000,   0.24000,
,,,-00.000000967000,   0.24000,
,,,-00.000000966000,   0.16000,
,,,-00.000000965000,   0.16000,
,,,-00.000000964000,   0.00000,
,,,-00.000000963000,   0.08000,
,,,-00.000000962000,   0.00000,
,,,-00.000000961000,   0.00000,
,,,-00.000000960000,  -0.08000,
,,,-00.000000959000,  -0.16000,
,,,-00.000000958000,  -0.16000,
,,,-00.000000957000,  -0.24000,
,,,-00.000000956000,  -0.32000,
,,,-00.000000955000,  -0.32000,
,,,-00.000000954000,  -0.40000,
,,,-00.000000953000,  -0.40000,
,,,-00.000000952000,  -0.48000,
,,,-00.000000951000,  -0.48000,
,,,-00.000000950000,  -0.64000,
,,,-00.000000949000,  -0.64000,
,,,-00.000000948000,  -0.64000,
,,,-00.000000947000,  -0.80000,
,,,-00.000000946000,  -0.72000,
,,,-00.000000945000,  -0.88000,
,,,-00.000000944000,  -0.96000,
,,,-00.000000943000,  -0.96000,
,,,-00.000000942000,  -1.04000,
,,,-00.000000941000,  -1.04000,
,,,-00.000000940000,  -1.04000,
,,,-00.000000939000,  -1.04000,
,,,-00.000000938000,  -1.20000,
,,,-00.000000937000,  -1.20000,
,,,-00.000000936000,  -1.28000,
,,,-00.000000935000,  -1.20000,
,,,-00.000000934000,  -1.44000,
,,,-00.000000933000,  -1.36000,
,,,-00.000000932000,  -1.44000,
,,,-00.000000931000,  -1.44000,
,,,-00.000000930000,  -1.52000,
,,,-00.000000929000,  -1.60000,
,,,-00.000000928000,  -1.68000,
,,,-00.000000927000,  -1.68000,
,,,-00.000000926000,  -1.68000,
,,,-00.000000925000,  -1.92000,
,,,-00.000000924000,  -1.84000,
,,,-00.000000923000,  -1.84000,
,,,-00.000000922000,  -2.00000,
,,,-00.000000921000,  -2.00000,
,,,-00.000000920000,  -2.08000,
,,,-00.000000919000,  -2.00000,
,,,-00.000000918000,  -2.16000,
,,,-00.000000917000,  -2.24000,
,,,-00.000000916000,  -2.24000,
,,,-00.000000915000,  -2.24000,
,,,-00.000000914000,  -2.24000,
,,,-00.000000913000,  -2.32000,
,,,-00.000000912000,  -2.40000,
,,,-00.000000911000,  -2.40000,
,,,-00.000000910000,  -2.48000,
,,,-00.000000909000,  -2.48000,
,,,-00.000000908000,  -2.48000,
,,,-00.000000907000,  -2.64000,
,,,-00.000000906000,  -2.56000,
,,,-00.000000905000,  -2.72000,
,,,-00.000000904000,  -2.64000,
,,,-00.000000903000,  -2.80000,
,,,-00.000000902000,  -2.80000,
,,,-00.000000901000,  -2.88000,
,,,-00.000000900000,  -2.88000,
,,,-00.000000899000,  -2.96000,
,,,-00.000000898000,  -2.96000,
,,,-00.000000897000,  -3.04000,
,,,-00.000000896000,  -3.12000,
,,,-00.000000895000,  -3.04000,
,,,-00.000000894000,  -3.20000,
,,,-00.000000893000,  -3.28000,
,,,-00.000000892000,  -3.28000,
,,,-00.000000891000,  -3.28000,
,,,-00.000000890000,  -3.36000,
,,,-00.000000889000,  -3.36000,
,,,-00.000000888000,  -3.36000,
,,,-00.000000887000,  -3.44000,
,,,-00.000000886000,  -3.44000,
,,,-00.000000885000,  -3.44000,
,,,-00.000000884000,  -3.52000,
,,,-00.000000883000,  -3.52000,
,,,-00.000000882000,  -3.60000,
,,,-00.000000881000,  -3.60000,
,,,-00.000000880000,  -3.68000,
,,,-00.000000879000,  -3.68000,
,,,-00.000000878000,  -3.68000,
,,,-00.000000877000,  -3.76000,
,,,-00.000000876000,  -3.76000,
,,,-00.000000875000,  -3.76000,
,,,-00.000000874000,  -3.84000,
,,,-00.000000873000,  -3.84000,
,,,-00.000000872000,  -3.84000,
,,,-00.000000871000,  -4.00000,
,,,-00.000000870000,  -4.00000,
,,,-00.000000869000,  -4.08000,
,,,-00.000000868000,  -4.08000,
,,,-00.000000867000,  -4.00000,
,,,-00.000000866000,  -4.16000,
,,,-00.000000865000,  -4.16000,
,,,-00.000000864000,  -4.16000,
,,,-00.000000863000,  -4.16000,
,,,-00.000000862000,  -4.16000,
,,,-00.000000861000,  -4.24000,
,,,-00.000000860000,  -4.24000,
,,,-00.000000859000,  -4.32000,
,,,-00.000000858000,  -4.32000,
,,,-00.000000857000,  -4.40000,
,,,-00.000000856000,  -4.40000,
,,,-00.000000855000,  -4.40000,
,,,-00.000000854000,  -4.48000,
,,,-00.000000853000,  -4.40000,
,,,-00.000000852000,  -4.40000,
,,,-00.000000851000,  -4.40000,
,,,-00.000000850000,  -4.48000,
,,,-00.000000849000,  -4.48000,
,,,-00.000000848000,  -4.56000,
,,,-00.000000847000,  -4.56000,
,,,-00.000000846000,  -4.48000,
,,,-00.000000845000,  -4.48000,
,,,-00.000000844000,  -4.56000,
,,,-00.000000843000,  -4.56000,
,,,-00.000000842000,  -4.72000,
,,,-00.000000841000,  -4.72000,
,,,-00.000000840000,  -4.56000,
,,,-00.000000839000,  -4.72000,
,,,-00.000000838000,  -4.80000,
,,,-00.000000837000,  -4.80000,
,,,-00.000000836000,  -4.72000,
,,,-00.000000835000,  -4.80000,
,,,-00.000000834000,  -4.80000,
,,,-00.000000833000,  -4.80000,
,,,-00.000000832000,  -4.80000,
,,,-00.000000831000,  -4.80000,
,,,-00.000000830000,  -4.88000,
,,,-00.000000829000,  -4.80000,
,,,-00.000000828000,  -4.80000,
,,,-00.000000827000,  -4.80000,
,,,-00.000000826000,  -4.88000,
,,,-00.000000825000,  -4.88000,
,,,-00.000000824000,  -4.88000,
,,,-00.000000823000,  -4.88000,
,,,-00.000000822000,  -4.88000,
,,,-00.000000821000,  -4.88000,
,,,-00.000000820000,  -4.88000,
,,,-00.000000819000,  -4.96000,
,,,-00.000000818000,  -4.88000,
,,,-00.000000817000,  -4.96000,
,,,-00.000000816000,  -4.96000,
,,,-00.000000815000,  -4.96000,
,,,-00.000000814000,  -5.04000,
,,,-00.000000813000,  -4.96000,
,,,-00.000000812000,  -5.04000,
,,,-00.000000811000,  -5.04000,
,,,-00.000000810000,  -4.96000,
,,,-00.000000809000,  -4.96000,
,,,-00.000000808000,  -5.04000,
,,,-00.000000807000,  -4.96000,
,,,-00.000000806000,  -5.04000,
,,,-00.000000805000,  -5.04000,
,,,-00.000000804000,  -4.96000,
,,,-00.000000803000,  -4.96000,
,,,-00.000000802000,  -4.96000,
,,,-00.000000801000,  -5.04000,
,,,-00.000000800000,  -4.96000,
,,,-00.000000799000,  -4.88000,
,,,-00.000000798000,  -5.04000,
,,,-00.000000797000,  -4.88000,
,,,-00.000000796000,  -4.88000,
,,,-00.000000795000,  -4.96000,
,,,-00.000000794000,  -4.96000,
,,,-00.000000793000,  -5.04000,
,,,-00.000000792000,  -4.96000,
,,,-00.000000791000,  -4.88000,
,,,-00.000000790000,  -4.96000,
,,,-00.000000789000,  -4.96000,
,,,-00.000000788000,  -4.88000,
,,,-00.000000787000,  -4.96000,
,,,-00.000000786000,  -4.88000,
,,,-00.000000785000,  -4.88000,
,,,-00.000000784000,  -4.88000,
,,,-00.000000783000,  -4.88000,
,,,-00.000000782000,  -4.88000,
,,,-00.000000781000,  -4.88000,
,,,-00.000000780000,  -4.88000,
,,,-00.000000779000,  -4.80000,
,,,-00.000000778000,  -4.72000,
,,,-00.000000777000,  -4.80000,
,,,-00.000000776000,  -4.72000,
,,,-00.000000775000,  -4.72000,
,,,-00.000000774000,  -4.80000,
,,,-00.000000773000,  -4.80000,
,,,-00.000000772000,  -4.64000,
,,,-00.000000771000,  -4.64000,
,,,-00.000000770000,  -4.72000,
,,,-00.000000769000,  -4.64000,
,,,-00.000000768000,  -4.64000,
,,,-00.000000767000,  -4.64000,
,,,-00.000000766000,  -4.64000,
,,,-00.000000765000,  -4.56000,
,,,-00.000000764000,  -4.56000,
,,,-00.000000763000,  -4.64000,
,,,-00.000000762000,  -4.56000,
,,,-00.000000761000,  -4.64000,
,,,-00.000000760000,  -4.56000,
,,,-00.000000759000,  -4.56000,
,,,-00.000000758000,  -4.56000,
,,,-00.000000757000,  -4.48000,
,,,-00.000000756000,  -4.48000,
,,,-00.000000755000,  -4.48000,
,,,-00.000000754000,  -4.40000,
,,,-00.000000753000,  -4.32000,
,,,-00.000000752000,  -4.24000,
,,,-00.000000751000,  -4.24000,
,,,-00.000000750000,  -4.24000,
,,,-00.000000749000,  -4.24000,
,,,-00.000000748000,  -4.16000,
,,,-00.000000747000,  -4.08000,
,,,-00.000000746000,  -4.16000,
,,,-00.000000745000,  -4.16000,
,,,-00.000000744000,  -4.16000,
,,,-00.000000743000,  -4.00000,
,,,-00.000000742000,  -4.08000,
,,,-00.000000741000,  -4.00000,
,,,-00.000000740000,  -3.92000,
,,,-00.000000739000,  -3.92000,
,,,-00.000000738000,  -3.84000,
,,,-00.000000737000,  -3.84000,
,,,-00.000000736000,  -3.92000,
,,,-00.000000735000,  -3.76000,
,,,-00.000000734000,  -3.76000,
,,,-00.000000733000,  -3.68000,
,,,-00.000000732000,  -3.76000,
,,,-00.000000731000,  -3.76000,
,,,-00.000000730000,  -3.68000,
,,,-00.000000729000,  -3.60000,
,,,-00.000000728000,  -3.60000,
,,,-00.000000727000,  -3.60000,
,,,-00.000000726000,  -3.52000,
,,,-00.000000725000,  -3.52000,
,,,-00.000000724000,  -3.44000,
,,,-00.000000723000,  -3.36000,
,,,-00.000000722000,  -3.28000,
,,,-00.000000721000,  -3.28000,
,,,-00.000000720000,  -3.36000,
,,,-00.000000719000,  -3.28000,
,,,-00.000000718000,  -3.20000,
,,,-00.000000717000,  -3.20000,
,,,-00.000000716000,  -3.12000,
,,,-00.000000715000,  -3.12000,
,,,-00.000000714000,  -3.12000,
,,,-00.000000713000,  -2.96000,
,,,-00.000000712000,  -2.96000,
,,,-00.000000711000,  -2.88000,
,,,-00.000000710000,  -2.96000,
,,,-00.000000709000,  -2.80000,
,,,-00.000000708000,  -2.72000,
,,,-00.000000707000,  -2.80000,
,,,-00.000000706000,  -2.72000,
,,,-00.000000705000,  -2.72000,
,,,-00.000000704000,  -2.56000,
,,,-00.000000703000,  -2.64000,
,,,-00.000000702000,  -2.56000,
,,,-00.000000701000,  -2.48000,
,,,-00.000000700000,  -2.48000,
,,,-00.000000699000,  -2.48000,
,,,-00.000000698000,  -2.40000,
,,,-00.000000697000,  -2.24000,
,,,-00.000000696000,  -2.24000,
,,,-00.000000695000,  -2.32000,
,,,-00.000000694000,  -2.24000,
,,,-00.000000693000,  -2.24000,
,,,-00.000000692000,  -2.00000,
,,,-00.000000691000,  -2.16000,
,,,-00.000000690000,  -2.00000,
,,,-00.000000689000,  -2.00000,
,,,-00.000000688000,  -1.92000,
,,,-00.000000687000,  -1.92000,
,,,-00.000000686000,  -1.84000,
,,,-00.000000685000,  -1.84000,
,,,-00.000000684000,  -1.76000,
,,,-00.000000683000,  -1.76000,
,,,-00.000000682000,  -1.68000,
,,,-00.000000681000,  -1.60000,
,,,-00.000000680000,  -1.60000,
,,,-00.000000679000,  -1.52000,
,,,-00.000000678000,  -1.44000,
,,,-00.000000677000,  -1.36000,
,,,-00.000000676000,  -1.28000,
,,,-00.000000675000,  -1.36000,
,,,-00.000000674000,  -1.28000,
,,,-00.000000673000,  -1.20000,
,,,-00.000000672000,  -1.12000,
,,,-00.000000671000,  -1.12000,
,,,-00.000000670000,  -1.04000,
,,,-00.000000669000,  -1.04000,
,,,-00.000000668000,  -0.96000,
,,,-00.000000667000,  -0.96000,
,,,-00.000000666000,  -0.88000,
,,,-00.000000665000,  -0.88000,
,,,-00.000000664000,  -0.80000,
,,,-00.000000663000,  -0.72000,
,,,-00.000000662000,  -0.64000,
,,,-00.000000661000,  -0.64000,
,,,-00.000000660000,  -0.64000,
,,,-00.000000659000,  -0.56000,
,,,-00.000000658000,  -0.48000,
,,,-00.000000657000,  -0.40000,
,,,-00.000000656000,  -0.32000,
,,,-00.000000655000,  -0.24000,
,,,-00.000000654000,  -0.24000,
,,,-00.000000653000,  -0.16000,
,,,-00.000000652000,  -0.16000,
,,,-00.000000651000,  -0.08000,
,,,-00.000000650000,  -0.08000,
,,,-00.000000649000,  -0.08000,
,,,-00.000000648000,   0.08000,
,,,-00.000000647000,   0.08000,
,,,-00.000000646000,   0.08000,
,,,-00.000000645000,   0.24000,
,,,-00.000000644000,   0.24000,
,,,-00.000000643000,   0.24000,
,,,-00.000000642000,   0.32000,
,,,-00.000000641000,   0.32000,
,,,-00.000000640000,   0.40000,
,,,-00.000000639000,   0.48000,
,,,-00.000000638000,   0.48000,
,,,-00.000000637000,   0.56000,
