G4/analisis/data/rc/ALL0001/F0001CH1.CSV

Record Length,2.500000e+03,,  -0.294000000000,   0.00000,
Sample Interval,2.000000e-04,,  -0.293800000000,   0.00000,
Trigger Point,1.470000000000e+03,,  -0.293600000000,   0.00000,
,,,  -0.293400000000,   0.00000,
,,,  -0.293200000000,   0.00000,
,,,  -0.293000000000,   0.00000,
Source,CH1,,  -0.292800000000,   0.00000,
Vertical Units,V,,  -0.292600000000,   0.00000,
Vertical Scale,5.000000e+00,,  -0.292400000000,   0.00000,
Vertical Offset,0.000000e+00,,  -0.292200000000,   0.00000,
Horizontal Units,s,,  -0.292000000000,   0.00000,
Horizontal Scale,5.000000e-02,,  -0.291800000000,   0.00000,
Pt Fmt,Y,,  -0.291600000000,   0.00000,
Yzero,0.000000e+00,,  -0.291400000000,   0.00000,
Probe Atten,1.000000e+00,,  -0.291200000000,   0.00000,
Model Number,TBS1052B-EDU,,  -0.291000000000,   0.00000,
Serial Number,C017060,,  -0.290800000000,   0.00000,
Firmware Version,FV:v3.25,,  -0.290600000000,   0.20000,
,,,-00.290400000000,   0.00000,
,,,-00.290200000000,   0.00000,
,,,-00.290000000000,   0.00000,
,,,-00.289800000000,   0.00000,
,,,-00.289600000000,   0.00000,
,,,-00.289400000000,   0.00000,
,,,-00.289200000000,   0.00000,
,,,-00.289000000000,   0.00000,
,,,-00.288800000000,   0.00000,
,,,-00.288600000000,   0.00000,
,,,-00.288400000000,   0.00000,
,,,-00.288200000000,   0.00000,
,,,-00.288000000000,   0.00000,
,,,-00.287800000000,   0.00000,
,,,-00.287600000000,   0.20000,
,,,-00.287400000000,   0.00000,
,,,-00.287200000000,   0.00000,
,,,-00.287000000000,   0.00000,
,,,-00.286800000000,   0.00000,
,,,-00.286600000000,   0.00000,
,,,-00.286400000000,   0.00000,
,,,-00.286200000000,   0.00000,
,,,-00.286000000000,   0.00000,
,,,-00.285800000000,   0.00000,
,,,-00.285600000000,   0.00000,
,,,-00.285400000000,   0.00000,
,,,-00.285200000000,   0.00000,
,,,-00.285000000000,   0.00000,
,,,-00.284800000000,   0.00000,
,,,-00.284600000000,   0.00000,
,,,-00.284400000000,   0.00000,
,,,-00.284200000000,   0.00000,
,,,-00.284000000000,   0.00000,
,,,-00.283800000000,   0.00000,
,,,-00.283600000000,   0.00000,
,,,-00.283400000000,   0.00000,
,,,-00.283200000000,   0.00000,
,,,-00.283000000000,   0.00000,
,,,-00.282800000000,   0.00000,
,,,-00.282600000000,   0.00000,
,,,-00.282400000000,   0.00000,
,,,-00.282200000000,   0.00000,
,,,-00.282000000000,   0.00000,
,,,-00.281800000000,   0.00000,
,,,-00.281600000000,   0.00000,
,,,-00.281400000000,   0.00000,
,,,-00.281200000000,   0.20000,
,,,-00.281000000000,   0.00000,
,,,-00.280800000000,   0.00000,
,,,-00.280600000000,   0.00000,
,,,-00.280400000000,   0.00000,
,,,-00.280200000000,   0.00000,
,,,-00.280000000000,   0.00000,
,,,-00.279800000000,   0.00000,
,,,-00.279600000000,   0.00000,
,,,-00.279400000000,   0.00000,
,,,-00.279200000000,   0.00000,
,,,-00.279000000000,   0.00000,
,,,-00.278800000000,   0.00000,
,,,-00.278600000000,   0.00000,
,,,-00.278400000000,   0.00000,
,,,-00.278200000000,   0.00000,
,,,-00.278000000000,   0.00000,
,,,-00.277800000000,   0.00000,
,,,-00.277600000000,   0.00000,
,,,-00.277400000000,   0.00000,
,,,-00.277200000000,   0.00000,
,,,-00.277000000000,   0.00000,
,,,-00.276800000000,   0.00000,
,,,-00.276600000000,   0.00000,
,,,-00.276400000000,   0.00000,
,,,-00.276200000000,   0.00000,
,,,-00.276000000000,   0.00000,
,,,-00.275800000000,   0.00000,
,,,-00.275600000000,   0.00000,
,,,-00.275400000000,   0.00000,
,,,-00.275200000000,   0.00000,
,,,-00.275000000000,   0.00000,
,,,-00.274800000000,   0.00000,
,,,-00.274600000000,   0.00000,
,,,-00.274400000000,   0.00000,
,,,-00.274200000000,   0.00000,
,,,-00.274000000000,   0.00000,
,,,-00.273800000000,   0.00000,
,,,-00.273600000000,   0.00000,
,,,-00.273400000000,   0.00000,
,,,-00.273200000000,   0.00000,
,,,-00.273000000000,   0.00000,
,,,-00.272800000000,   0.00000,
,,,-00.272600000000,   0.00000,
,,,-00.272400000000,   0.00000,
,,,-00.272200000000,   0.00000,
,,,-00.272000000000,   0.00000,
,,,-00.271800000000,   0.00000,
,,,-00.271600000000,   0.00000,
,,,-00.271400000000,   0.00000,
,,,-00.271200000000,   0.00000,
,,,-00.271000000000,   0.00000,
,,,-00.270800000000,   0.00000,
,,,-00.270600000000,   0.00000,
,,,-00.270400000000,   0.00000,
,,,-00.270200000000,   0.00000,
,,,-00.270000000000,   0.00000,
,,,-00.269800000000,   0.00000,
,,,-00.269600000000,   0.00000,
,,,-00.269400000000,   0.00000,
,,,-00.269200000000,   0.00000,
,,,-00.269000000000,   0.20000,
,,,-00.268800000000,   0.00000,
,,,-00.268600000000,   0.00000,
,,,-00.268400000000,   0.00000,
,,,-00.268200000000,   0.00000,
,,,-00.268000000000,   0.00000,
,,,-00.267800000000,   0.00000,
,,,-00.267600000000,   0.00000,
,,,-00.267400000000,   0.00000,
,,,-00.267200000000,   0.00000,
,,,-00.267000000000,   0.00000,
,,,-00.266800000000,   0.00000,
,,,-00.266600000000,   0.00000,
,,,-00.266400000000,   0.00000,
,,,-00.266200000000,   0.00000,
,,,-00.266000000000,   0.00000,
,,,-00.265800000000,   0.00000,
,,,-00.265600000000,   0.00000,
,,,-00.265400000000,   0.00000,
,,,-00.265200000000,   0.00000,
,,,-00.265000000000,   0.00000,
,,,-00.264800000000,   0.00000,
,,,-00.264600000000,   0.00000,
,,,-00.264400000000,   0.00000,
,,,-00.264200000000,   0.00000,
,,,-00.264000000000,   0.00000,
,,,-00.263800000000,   0.00000,
,,,-00.263600000000,   0.00000,
,,,-00.263400000000,   0.00000,
,,,-00.263200000000,   0.00000,
,,,-00.263000000000,   0.00000,
,,,-00.262800000000,   0.00000,
,,,-00.262600000000,   0.00000,
,,,-00.262400000000,   0.00000,
,,,-00.262200000000,   0.00000,
,,,-00.262000000000,   0.00000,
,,,-00.261800000000,   0.00000,
,,,-00.261600000000,   0.00000,
,,,-00.261400000000,   0.00000,
,,,-00.261200000000,   0.00000,
,,,-00.261000000000,   0.00000,
,,,-00.260800000000,   0.00000,
,,,-00.260600000000,   0.00000,
,,,-00.260400000000,   0.00000,
,,,-00.260200000000,   0.00000,
,,,-00.260000000000,   0.00000,
,,,-00.259800000000,   0.00000,
,,,-00.259600000000,   0.00000,
,,,-00.259400000000,   0.00000,
,,,-00.259200000000,   0.00000,
,,,-00.259000000000,   0.00000,
,,,-00.258800000000,   0.00000,
,,,-00.258600000000,   0.00000,
,,,-00.258400000000,   0.00000,
,,,-00.258200000000,   0.20000,
,,,-00.258000000000,   0.20000,
,,,-00.257800000000,   0.00000,
,,,-00.257600000000,   0.00000,
,,,-00.257400000000,   0.00000,
,,,-00.257200000000,   0.00000,
,,,-00.257000000000,   0.00000,
,,,-00.256800000000,   0.00000,
,,,-00.256600000000,   0.00000,
,,,-00.256400000000,   0.00000,
,,,-00.256200000000,   0.00000,
,,,-00.256000000000,   0.00000,
,,,-00.255800000000,   0.00000,
,,,-00.255600000000,   0.00000,
,,,-00.255400000000,   0.00000,
,,,-00.255200000000,   0.00000,
,,,-00.255000000000,   0.00000,
,,,-00.254800000000,   0.00000,
,,,-00.254600000000,   0.00000,
,,,-00.254400000000,   0.00000,
,,,-00.254200000000,   0.00000,
,,,-00.254000000000,   0.00000,
,,,-00.253800000000,   0.00000,
,,,-00.253600000000,   0.00000,
,,,-00.253400000000,   0.00000,
,,,-00.253200000000,   0.00000,
,,,-00.253000000000,   0.00000,
,,,-00.252800000000,   0.00000,
,,,-00.252600000000,   0.00000,
,,,-00.252400000000,   0.00000,
,,,-00.252200000000,   0.00000,
,,,-00.252000000000,   0.00000,
,,,-00.251800000000,   0.00000,
,,,-00.251600000000,   0.00000,
,,,-00.251400000000,   0.00000,
,,,-00.251200000000,   0.00000,
,,,-00.251000000000,   0.00000,
,,,-00.250800000000,   0.00000,
,,,-00.250600000000,   0.00000,
,,,-00.250400000000,   0.00000,
,,,-00.250200000000,   0.00000,
,,,-00.250000000000,   0.00000,
,,,-00.249800000000,   0.00000,
,,,-00.249600000000,   0.00000,
,,,-00.249400000000,   0.00000,
,,,-00.249200000000,   0.00000,
,,,-00.249000000000,   0.00000,
,,,-00.248800000000,   0.00000,
,,,-00.248600000000,   0.00000,
,,,-00.248400000000,   0.00000,
,,,-00.248200000000,   0.00000,
,,,-00.248000000000,   0.00000,
,,,-00.247800000000,   0.20000,
,,,-00.247600000000,   0.00000,
,,,-00.247400000000,   0.00000,
,,,-00.247200000000,   0.00000,
,,,-00.247000000000,   0.00000,
,,,-00.246800000000,   0.00000,
,,,-00.246600000000,   0.00000,
,,,-00.246400000000,   0.00000,
,,,-00.246200000000,   0.00000,
,,,-00.246000000000,   0.00000,
,,,-00.245800000000,   0.00000,
,,,-00.245600000000,   0.00000,
,,,-00.245400000000,   0.00000,
,,,-00.245200000000,   0.00000,
,,,-00.245000000000,   0.00000,
,,,-00.244800000000,   0.00000,
,,,-00.244600000000,   0.00000,
,,,-00.244400000000,   0.00000,
,,,-00.244200000000,   0.00000,
,,,-00.244000000000,   0.00000,
,,,-00.243800000000,   0.00000,
,,,-00.243600000000,   0.00000,
,,,-00.243400000000,   0.00000,
,,,-00.243200000000,   0.00000,
,,,-00.243000000000,   0.00000,
,,,-00.242800000000,   0.00000,
,,,-00.242600000000,   0.00000,
,,,-00.242400000000,   0.00000,
,,,-00.242200000000,   0.00000,
,,,-00.242000000000,   0.00000,
,,,-00.241800000000,   0.00000,
,,,-00.241600000000,   0.00000,
,,,-00.241400000000,   0.00000,
,,,-00.241200000000,   0.00000,
,,,-00.241000000000,   0.00000,
,,,-00.240800000000,   0.00000,
,,,-00.240600000000,   0.00000,
,,,-00.240400000000,   0.00000,
,,,-00.240200000000,   0.00000,
,,,-00.240000000000,   0.00000,
,,,-00.239800000000,   0.00000,
,,,-00.239600000000,   0.00000,
,,,-00.239400000000,   0.00000,
,,,-00.239200000000,   0.00000,
,,,-00.239000000000,   0.00000,
,,,-00.238800000000,   0.00000,
,,,-00.238600000000,   0.00000,
,,,-00.238400000000,   0.00000,
,,,-00.238200000000,   0.00000,
,,,-00.238000000000,   0.00000,
,,,-00.237800000000,   0.00000,
,,,-00.237600000000,   0.00000,
,,,-00.237400000000,   0.00000,
,,,-00.237200000000,   0.00000,
,,,-00.237000000000,   0.00000,
,,,-00.236800000000,   0.00000,
,,,-00.236600000000,   0.00000,
,,,-00.236400000000,   0.00000,
,,,-00.236200000000,   0.00000,
,,,-00.236000000000,   0.00000,
,,,-00.235800000000,   0.00000,
,,,-00.235600000000,   0.00000,
,,,-00.235400000000,   0.00000,
,,,-00.235200000000,   0.00000,
,,,-00.235000000000,   0.00000,
,,,-00.234800000000,   0.00000,
,,,-00.234600000000,   0.00000,
,,,-00.234400000000,   0.00000,
,,,-00.234200000000,   0.00000,
,,,-00.234000000000,   0.00000,
,,,-00.233800000000,   0.00000,
,,,-00.233600000000,   0.00000,
,,,-00.233400000000,   0.00000,
,,,-00.233200000000,   0.00000,
,,,-00.233000000000,   0.00000,
,,,-00.232800000000,   0.00000,
,,,-00.232600000000,   0.00000,
,,,-00.232400000000,   0.00000,
,,,-00.232200000000,   0.00000,
,,,-00.232000000000,   0.00000,
,,,-00.231800000000,   0.00000,
,,,-00.231600000000,   0.00000,
,,,-00.231400000000,   0.00000,
,,,-00.231200000000,   0.00000,
,,,-00.231000000000,   0.00000,
,,,-00.230800000000,   0.00000,
,,,-00.230600000000,   0.20000,
,,,-00.230400000000,   0.00000,
,,,-00.230200000000,   0.00000,
,,,-00.230000000000,   0.00000,
,,,-00.229800000000,   0.00000,
,,,-00.229600000000,   0.00000,
,,,-00.229400000000,   0.00000,
,,,-00.229200000000,   0.00000,
,,,-00.229000000000,   0.00000,
,,,-00.228800000000,   0.00000,
,,,-00.228600000000,   0.00000,
,,,-00.228400000000,   0.00000,
,,,-00.228200000000,   0.00000,
,,,-00.228000000000,   0.00000,
,,,-00.227800000000,   0.00000,
,,,-00.227600000000,   0.00000,
,,,-00.227400000000,   0.00000,
,,,-00.227200000000,   0.00000,
,,,-00.227000000000,   0.00000,
,,,-00.226800000000,   0.00000,
,,,-00.226600000000,   0.00000,
,,,-00.226400000000,   0.00000,
,,,-00.226200000000,   0.00000,
,,,-00.226000000000,   0.00000,
,,,-00.225800000000,   0.00000,
,,,-00.225600000000,   0.00000,
,,,-00.225400000000,   0.00000,
,,,-00.225200000000,   0.00000,
,,,-00.225000000000,   0.00000,
,,,-00.224800000000,   0.00000,
,,,-00.224600000000,   0.00000,
,,,-00.224400000000,   0.00000,
,,,-00.224200000000,   0.00000,
,,,-00.224000000000,   0.00000,
,,,-00.223800000000,   0.00000,
,,,-00.223600000000,   0.00000,
,,,-00.223400000000,   0.00000,
,,,-00.223200000000,   0.00000,
,,,-00.223000000000,   0.00000,
,,,-00.222800000000,   0.00000,
,,,-00.222600000000,   0.00000,
,,,-00.222400000000,   0.00000,
,,,-00.222200000000,   0.00000,
,,,-00.222000000000,   0.00000,
,,,-00.221800000000,   0.00000,
,,,-00.221600000000,   0.00000,
,,,-00.221400000000,   0.00000,
,,,-00.221200000000,   0.00000,
,,,-00.221000000000,   0.00000,
,,,-00.220800000000,   0.00000,
,,,-00.220600000000,   0.00000,
,,,-00.220400000000,   0.00000,
,,,-00.220200000000,   0.00000,
,,,-00.220000000000,   0.00000,
,,,-00.219800000000,   0.00000,
,,,-00.219600000000,   0.00000,
,,,-00.219400000000,   0.00000,
,,,-00.219200000000,   0.00000,
,,,-00.219000000000,   0.00000,
,,,-00.218800000000,   0.00000,
,,,-00.218600000000,   0.00000,
,,,-00.218400000000,   0.00000,
,,,-00.218200000000,   0.00000,
,,,-00.218000000000,   0.00000,
,,,-00.217800000000,   0.00000,
,,,-00.217600000000,   0.00000,
,,,-00.217400000000,   0.00000,
,,,-00.217200000000,   0.00000,
,,,-00.217000000000,   0.00000,
,,,-00.216800000000,   0.00000,
,,,-00.216600000000,   0.00000,
,,,-00.216400000000,   0.00000,
,,,-00.216200000000,   0.00000,
,,,-00.216000000000,   0.00000,
,,,-00.215800000000,   0.00000,
,,,-00.215600000000,   0.00000,
,,,-00.215400000000,   0.00000,
,,,-00.215200000000,   0.00000,
,,,-00.215000000000,   0.00000,
,,,-00.214800000000,   0.00000,
,,,-00.214600000000,   0.00000,
,,,-00.214400000000,   0.00000,
,,,-00.214200000000,   0.00000,
,,,-00.214000000000,   0.00000,
,,,-00.213800000000,  10.00000,
,,,-00.213600000000,  10.00000,
,,,-00.213400000000,  10.00000,
,,,-00.213200000000,   9.80000,
,,,-00.213000000000,   9.80000,
,,,-00.212800000000,   9.80000,
,,,-00.212600000000,   9.80000,
,,,-00.212400000000,   9.80000,
,,,-00.212200000000,   9.80000,
,,,-00.212000000000,   9.60000,
,,,-00.211800000000,   9.60000,
,,,-00.211600000000,   9.60000,
,,,-00.211400000000,   9.60000,
,,,-00.211200000000,   9.60000,
,,,-00.211000000000,   9.60000,
,,,-00.210800000000,   9.60000,
,,,-00.210600000000,   9.40000,
,,,-00.210400000000,   9.40000,
,,,-00.210200000000,   9.40000,
,,,-00.210000000000,   9.40000,
,,,-00.209800000000,   9.20000,
,,,-00.209600000000,   9.40000,
,,,-00.209400000000,   9.20000,
,,,-00.209200000000,   9.20000,
,,,-00.209000000000,   9.20000,
,,,-00.208800000000,   9.20000,
,,,-00.208600000000,   9.20000,
,,,-00.208400000000,   9.20000,
,,,-00.208200000000,   9.00000,
,,,-00.208000000000,   9.20000,
,,,-00.207800000000,   9.00000,
,,,-00.207600000000,   9.00000,
,,,-00.207400000000,   9.00000,
,,,-00.207200000000,   9.00000,
,,,-00.207000000000,   9.00000,
,,,-00.206800000000,   8.80000,
,,,-00.206600000000,   8.80000,
,,,-00.206400000000,   8.80000,
,,,-00.206200000000,   8.80000,
,,,-00.206000000000,   8.80000,
,,,-00.205800000000,   8.60000,
,,,-00.205600000000,   8.60000,
,,,-00.205400000000,   8.60000,
,,,-00.205200000000,   8.60000,
,,,-00.205000000000,   8.60000,
,,,-00.204800000000,   8.60000,
,,,-00.204600000000,   8.60000,
,,,-00.204400000000,   8.40000,
,,,-00.204200000000,   8.60000,
,,,-00.204000000000,   8.40000,
,,,-00.203800000000,   8.40000,
,,,-00.203600000000,   8.40000,
,,,-00.203400000000,   8.20000,
,,,-00.203200000000,   8.40000,
,,,-00.203000000000,   8.40000,
,,,-00.202800000000,   8.40000,
,,,-00.202600000000,   8.20000,
,,,-00.202400000000,   8.20000,
,,,-00.202200000000,   8.20000,
,,,-00.202000000000,   8.20000,
,,,-00.201800000000,   8.20000,
,,,-00.201600000000,   8.20000,
,,,-00.201400000000,   8.20000,
,,,-00.201200000000,   8.00000,
,,,-00.201000000000,   8.00000,
,,,-00.200800000000,   8.00000,
,,,-00.200600000000,   8.00000,
,,,-00.200400000000,   8.00000,
,,,-00.200200000000,   8.00000,
,,,-00.200000000000,   8.00000,
,,,-00.199800000000,   7.80000,
,,,-00.199600000000,   7.80000,
,,,-00.199400000000,   7.80000,
,,,-00.199200000000,   7.80000,
,,,-00.199000000000,   7.80000,
,,,-00.198800000000,   7.80000,
,,,-00.198600000000,   7.60000,
,,,-00.198400000000,   7.80000,
,,,-00.198200000000,   7.60000,
,,,-00.198000000000,   7.60000,
,,,-00.197800000000,   7.60000,
,,,-00.197600000000,   7.60000,
,,,-00.197400000000,   7.40000,
,,,-00.197200000000,   7.60000,
,,,-00.197000000000,   7.40000,
,,,-00.196800000000,   7.40000,
,,,-00.196600000000,   7.40000,
,,,-00.196400000000,   7.40000,
,,,-00.196200000000,   7.40000,
,,,-00.196000000000,   7.40000,
,,,-00.195800000000,   7.40000,
,,,-00.195600000000,   7.40000,
,,,-00.195400000000,   7.40000,
,,,-00.195200000000,   7.40000,
,,,-00.195000000000,   7.20000,
,,,-00.194800000000,   7.20000,
,,,-00.194600000000,   7.20000,
,,,-00.194400000000,   7.20000,
,,,-00.194200000000,   7.20000,
,,,-00.194000000000,   7.20000,
,,,-00.193800000000,   7.20000,
,,,-00.193600000000,   7.00000,
,,,-00.193400000000,   7.00000,
,,,-00.193200000000,   7.00000,
,,,-00.193000000000,   7.00000,
,,,-00.192800000000,   7.00000,
,,,-00.192600000000,   7.00000,
,,,-00.192400000000,   6.80000,
,,,-00.192200000000,   7.00000,
,,,-00.192000000000,   7.00000,
,,,-00.191800000000,   6.80000,
,,,-00.191600000000,   6.80000,
,,,-00.191400000000,   6.80000,
,,,-00.191200000000,   6.80000,
,,,-00.191000000000,   6.80000,
,,,-00.190800000000,   6.80000,
,,,-00.190600000000,   6.80000,
,,,-00.190400000000,   6.60000,
,,,-00.190200000000,   6.60000,
,,,-00.190000000000,   6.60000,
,,,-00.189800000000,   6.60000,
,,,-00.189600000000,   6.60000,
,,,-00.189400000000,   6.60000,
,,,-00.189200000000,   6.60000,
,,,-00.189000000000,   6.60000,
,,,-00.188800000000,   6.60000,
,,,-00.188600000000,   6.60000,
,,,-00.188400000000,   6.60000,
,,,-00.188200000000,   6.60000,
,,,-00.188000000000,   6.60000,
,,,-00.187800000000,   6.40000,
,,,-00.187600000000,   6.40000,
,,,-00.187400000000,   6.40000,
,,,-00.187200000000,   6.40000,
,,,-00.187000000000,   6.40000,
,,,-00.186800000000,   6.40000,
,,,-00.186600000000,   6.40000,
,,,-00.186400000000,   6.40000,
,,,-00.186200000000,   6.40000,
,,,-00.186000000000,   6.40000,
,,,-00.185800000000,   6.20000,
,,,-00.185600000000,   6.20000,
,,,-00.185400000000,   6.20000,
,,,-00.185200000000,   6.40000,
,,,-00.185000000000,   6.20000,
,,,-00.184800000000,   6.40000,
,,,-00.184600000000,   6.20000,
,,,-00.184400000000,   6.20000,
,,,-00.184200000000,   6.20000,
,,,-00.184000000000,   6.20000,
,,,-00.183800000000,   6.00000,
,,,-00.183600000000,   6.20000,
,,,-00.183400000000,   6.00000,
,,,-00.183200000000,   6.00000,
,,,-00.183000000000,   6.00000,
,,,-00.182800000000,   6.00000,
,,,-00.182600000000,   6.00000,
,,,-00.182400000000,   6.00000,
,,,-00.182200000000,   6.00000,
,,,-00.182000000000,   6.00000,
,,,-00.181800000000,   6.00000,
,,,-00.181600000000,   5.80000,
,,,-00.181400000000,   5.80000,
,,,-00.181200000000,   6.00000,
,,,-00.181000000000,   5.80000,
,,,-00.180800000000,   5.80000,
,,,-00.180600000000,   5.80000,
,,,-00.180400000000,   5.80000,
,,,-00.180200000000,   5.80000,
,,,-00.180000000000,   5.80000,
,,,-00.179800000000,   5.80000,
,,,-00.179600000000,   5.60000,
,,,-00.179400000000,   5.80000,
,,,-00.179200000000,   5.60000,
,,,-00.179000000000,   5.60000,
,,,-00.178800000000,   5.60000,
,,,-00.178600000000,   5.60000,
,,,-00.178400000000,   5.60000,
,,,-00.178200000000,   5.60000,
,,,-00.178000000000,   5.60000,
,,,-00.177800000000,   5.40000,
,,,-00.177600000000,   5.40000,
,,,-00.177400000000,   5.60000,
,,,-00.177200000000,   5.40000,
,,,-00.177000000000,   5.40000,
,,,-00.176800000000,   5.40000,
,,,-00.176600000000,   5.40000,
,,,-00.176400000000,   5.40000,
,,,-00.176200000000,   5.40000,
,,,-00.176000000000,   5.40000,
,,,-00.175800000000,   5.40000,
,,,-00.175600000000,   5.20000,
,,,-00.175400000000,   5.20000,
,,,-00.175200000000,   5.20000,
,,,-00.175000000000,   5.40000,
,,,-00.174800000000,   5.20000,
,,,-00.174600000000,   5.20000,
,,,-00.174400000000,   5.20000,
,,,-00.174200000000,   5.20000,
,,,-00.174000000000,   5.20000,
,,,-00.173800000000,   5.00000,
,,,-00.173600000000,   5.20000,
,,,-00.173400000000,   5.00000,
,,,-00.173200000000,   5.00000,
,,,-00.173000000000,   5.00000,
,,,-00.172800000000,   5.00000,
,,,-00.172600000000,   5.00000,
,,,-00.172400000000,   5.00000,
,,,-00.172200000000,   5.00000,
,,,-00.172000000000,   5.00000,
,,,-00.171800000000,   5.00000,
,,,-00.171600000000,   5.00000,
,,,-00.171400000000,   4.80000,
