G3/data4/ALL0043/F0043CH2.CSV

Record Length,2.500000e+03,,   0.000035000000,   0.48000,
Sample Interval,1.000000e-07,,   0.000035100000,   0.64000,
Trigger Point,-3.500000000000e+02,,   0.000035200000,   0.72000,
,,,   0.000035300000,   0.72000,
,,,   0.000035400000,   0.80000,
,,,   0.000035500000,   0.88000,
Source,CH2,,   0.000035600000,   0.96000,
Vertical Units,V,,   0.000035700000,   1.12000,
Vertical Scale,2.000000e+00,,   0.000035800000,   1.12000,
Vertical Offset,0.000000e+00,,   0.000035900000,   1.20000,
Horizontal Units,s,,   0.000036000000,   1.28000,
Horizontal Scale,2.500000e-05,,   0.000036100000,   1.36000,
Pt Fmt,Y,,   0.000036200000,   1.44000,
Yzero,0.000000e+00,,   0.000036300000,   1.44000,
Probe Atten,1.000000e+00,,   0.000036400000,   1.52000,
Model Number,TBS1052B-EDU,,   0.000036500000,   1.60000,
Serial Number,C017060,,   0.000036600000,   1.68000,
Firmware Version,FV:v3.25,,   0.000036700000,   1.76000,
,,,0.000036800000,   1.76000,
,,,0.000036900000,   1.84000,
,,,0.000037000000,   1.92000,
,,,0.000037100000,   1.92000,
,,,0.000037200000,   2.00000,
,,,0.000037300000,   2.00000,
,,,0.000037400000,   2.08000,
,,,0.000037500000,   2.08000,
,,,0.000037600000,   2.16000,
,,,0.000037700000,   2.16000,
,,,0.000037800000,   2.24000,
,,,0.000037900000,   2.24000,
,,,0.000038000000,   2.32000,
,,,0.000038100000,   2.32000,
,,,0.000038200000,   2.32000,
,,,0.000038300000,   2.32000,
,,,0.000038400000,   2.32000,
,,,0.000038500000,   2.40000,
,,,0.000038600000,   2.40000,
,,,0.000038700000,   2.40000,
,,,0.000038800000,   2.40000,
,,,0.000038900000,   2.40000,
,,,0.000039000000,   2.40000,
,,,0.000039100000,   2.40000,
,,,0.000039200000,   2.40000,
,,,0.000039300000,   2.40000,
,,,0.000039400000,   2.40000,
,,,0.000039500000,   2.32000,
,,,0.000039600000,   2.32000,
,,,0.000039700000,   2.32000,
,,,0.000039800000,   2.32000,
,,,0.000039900000,   2.24000,
,,,0.000040000000,   2.24000,
,,,0.000040100000,   2.16000,
,,,0.000040200000,   2.16000,
,,,0.000040300000,   2.08000,
,,,0.000040400000,   2.08000,
,,,0.000040500000,   2.00000,
,,,0.000040600000,   2.00000,
,,,0.000040700000,   1.92000,
,,,0.000040800000,   1.92000,
,,,0.000040900000,   1.84000,
,,,0.000041000000,   1.84000,
,,,0.000041100000,   1.68000,
,,,0.000041200000,   1.68000,
,,,0.000041300000,   1.60000,
,,,0.000041400000,   1.60000,
,,,0.000041500000,   1.52000,
,,,0.000041600000,   1.44000,
,,,0.000041700000,   1.36000,
,,,0.000041800000,   1.28000,
,,,0.000041900000,   1.20000,
,,,0.000042000000,   1.12000,
,,,0.000042100000,   1.04000,
,,,0.000042200000,   0.96000,
,,,0.000042300000,   0.88000,
,,,0.000042400000,   0.80000,
,,,0.000042500000,   0.72000,
,,,0.000042600000,   0.64000,
,,,0.000042700000,   0.56000,
,,,0.000042800000,   0.56000,
,,,0.000042900000,   0.40000,
,,,0.000043000000,   0.32000,
,,,0.000043100000,   0.24000,
,,,0.000043200000,   0.16000,
,,,0.000043300000,   0.08000,
,,,0.000043400000,   0.00000,
,,,0.000043500000,  -0.08000,
,,,0.000043600000,  -0.16000,
,,,0.000043700000,  -0.24000,
,,,0.000043800000,  -0.32000,
,,,0.000043900000,  -0.40000,
,,,0.000044000000,  -0.48000,
,,,0.000044100000,  -0.56000,
,,,0.000044200000,  -0.64000,
,,,0.000044300000,  -0.72000,
,,,0.000044400000,  -0.80000,
,,,0.000044500000,  -0.88000,
,,,0.000044600000,  -0.96000,
,,,0.000044700000,  -1.04000,
,,,0.000044800000,  -1.12000,
,,,0.000044900000,  -1.20000,
,,,0.000045000000,  -1.20000,
,,,0.000045100000,  -1.28000,
,,,0.000045200000,  -1.36000,
,,,0.000045300000,  -1.44000,
,,,0.000045400000,  -1.44000,
,,,0.000045500000,  -1.60000,
,,,0.000045600000,  -1.60000,
,,,0.000045700000,  -1.68000,
,,,0.000045800000,  -1.68000,
,,,0.000045900000,  -1.76000,
,,,0.000046000000,  -1.84000,
,,,0.000046100000,  -1.84000,
,,,0.000046200000,  -1.92000,
,,,0.000046300000,  -2.00000,
,,,0.000046400000,  -2.00000,
,,,0.000046500000,  -2.08000,
,,,0.000046600000,  -2.08000,
,,,0.000046700000,  -2.16000,
,,,0.000046800000,  -2.08000,
,,,0.000046900000,  -2.16000,
,,,0.000047000000,  -2.24000,
,,,0.000047100000,  -2.24000,
,,,0.000047200000,  -2.24000,
,,,0.000047300000,  -2.24000,
,,,0.000047400000,  -2.24000,
,,,0.000047500000,  -2.24000,
,,,0.000047600000,  -2.32000,
,,,0.000047700000,  -2.32000,
,,,0.000047800000,  -2.24000,
,,,0.000047900000,  -2.32000,
,,,0.000048000000,  -2.32000,
,,,0.000048100000,  -2.24000,
,,,0.000048200000,  -2.24000,
,,,0.000048300000,  -2.24000,
,,,0.000048400000,  -2.24000,
,,,0.000048500000,  -2.24000,
,,,0.000048600000,  -2.24000,
,,,0.000048700000,  -2.16000,
,,,0.000048800000,  -2.16000,
,,,0.000048900000,  -2.08000,
,,,0.000049000000,  -2.08000,
,,,0.000049100000,  -2.08000,
,,,0.000049200000,  -2.00000,
,,,0.000049300000,  -2.00000,
,,,0.000049400000,  -1.92000,
,,,0.000049500000,  -1.84000,
,,,0.000049600000,  -1.84000,
,,,0.000049700000,  -1.76000,
,,,0.000049800000,  -1.68000,
,,,0.000049900000,  -1.68000,
,,,0.000050000000,  -1.60000,
,,,0.000050100000,  -1.60000,
,,,0.000050200000,  -1.44000,
,,,0.000050300000,  -1.44000,
,,,0.000050400000,  -1.36000,
,,,0.000050500000,  -1.28000,
,,,0.000050600000,  -1.28000,
,,,0.000050700000,  -1.20000,
,,,0.000050800000,  -1.12000,
,,,0.000050900000,  -1.04000,
,,,0.000051000000,  -0.96000,
,,,0.000051100000,  -0.88000,
,,,0.000051200000,  -0.80000,
,,,0.000051300000,  -0.72000,
,,,0.000051400000,  -0.64000,
,,,0.000051500000,  -0.56000,
,,,0.000051600000,  -0.48000,
,,,0.000051700000,  -0.40000,
,,,0.000051800000,  -0.32000,
,,,0.000051900000,  -0.24000,
,,,0.000052000000,  -0.16000,
,,,0.000052100000,  -0.08000,
,,,0.000052200000,   0.00000,
,,,0.000052300000,   0.08000,
,,,0.000052400000,   0.16000,
,,,0.000052500000,   0.24000,
,,,0.000052600000,   0.32000,
,,,0.000052700000,   0.40000,
,,,0.000052800000,   0.48000,
,,,0.000052900000,   0.56000,
,,,0.000053000000,   0.64000,
,,,0.000053100000,   0.72000,
,,,0.000053200000,   0.80000,
,,,0.000053300000,   0.96000,
,,,0.000053400000,   0.96000,
,,,0.000053500000,   1.04000,
,,,0.000053600000,   1.12000,
,,,0.000053700000,   1.20000,
,,,0.000053800000,   1.28000,
,,,0.000053900000,   1.36000,
,,,0.000054000000,   1.44000,
,,,0.000054100000,   1.44000,
,,,0.000054200000,   1.52000,
,,,0.000054300000,   1.60000,
,,,0.000054400000,   1.68000,
,,,0.000054500000,   1.76000,
,,,0.000054600000,   1.84000,
,,,0.000054700000,   1.84000,
,,,0.000054800000,   1.92000,
,,,0.000054900000,   1.92000,
,,,0.000055000000,   2.00000,
,,,0.000055100000,   2.08000,
,,,0.000055200000,   2.08000,
,,,0.000055300000,   2.16000,
,,,0.000055400000,   2.16000,
,,,0.000055500000,   2.16000,
,,,0.000055600000,   2.24000,
,,,0.000055700000,   2.24000,
,,,0.000055800000,   2.32000,
,,,0.000055900000,   2.24000,
,,,0.000056000000,   2.32000,
,,,0.000056100000,   2.32000,
,,,0.000056200000,   2.40000,
,,,0.000056300000,   2.40000,
,,,0.000056400000,   2.40000,
,,,0.000056500000,   2.32000,
,,,0.000056600000,   2.40000,
,,,0.000056700000,   2.40000,
,,,0.000056800000,   2.40000,
,,,0.000056900000,   2.40000,
,,,0.000057000000,   2.40000,
,,,0.000057100000,   2.32000,
,,,0.000057200000,   2.32000,
,,,0.000057300000,   2.32000,
,,,0.000057400000,   2.32000,
,,,0.000057500000,   2.32000,
,,,0.000057600000,   2.32000,
,,,0.000057700000,   2.24000,
,,,0.000057800000,   2.24000,
,,,0.000057900000,   2.16000,
,,,0.000058000000,   2.16000,
,,,0.000058100000,   2.08000,
,,,0.000058200000,   2.08000,
,,,0.000058300000,   2.08000,
,,,0.000058400000,   2.00000,
,,,0.000058500000,   1.92000,
,,,0.000058600000,   1.92000,
,,,0.000058700000,   1.84000,
,,,0.000058800000,   1.76000,
,,,0.000058900000,   1.68000,
,,,0.000059000000,   1.68000,
,,,0.000059100000,   1.60000,
,,,0.000059200000,   1.52000,
,,,0.000059300000,   1.44000,
,,,0.000059400000,   1.44000,
,,,0.000059500000,   1.36000,
,,,0.000059600000,   1.28000,
,,,0.000059700000,   1.20000,
,,,0.000059800000,   1.12000,
,,,0.000059900000,   1.04000,
,,,0.000060000000,   0.96000,
,,,0.000060100000,   0.88000,
,,,0.000060200000,   0.80000,
,,,0.000060300000,   0.72000,
,,,0.000060400000,   0.64000,
,,,0.000060500000,   0.56000,
,,,0.000060600000,   0.48000,
,,,0.000060700000,   0.40000,
,,,0.000060800000,   0.32000,
,,,0.000060900000,   0.24000,
,,,0.000061000000,   0.16000,
,,,0.000061100000,   0.08000,
,,,0.000061200000,   0.00000,
,,,0.000061300000,  -0.08000,
,,,0.000061400000,  -0.16000,
,,,0.000061500000,  -0.24000,
,,,0.000061600000,  -0.32000,
,,,0.000061700000,  -0.40000,
,,,0.000061800000,  -0.48000,
,,,0.000061900000,  -0.56000,
,,,0.000062000000,  -0.64000,
,,,0.000062100000,  -0.72000,
,,,0.000062200000,  -0.80000,
,,,0.000062300000,  -0.96000,
,,,0.000062400000,  -0.96000,
,,,0.000062500000,  -1.04000,
,,,0.000062600000,  -1.12000,
,,,0.000062700000,  -1.20000,
,,,0.000062800000,  -1.20000,
,,,0.000062900000,  -1.28000,
,,,0.000063000000,  -1.36000,
,,,0.000063100000,  -1.44000,
,,,0.000063200000,  -1.52000,
,,,0.000063300000,  -1.60000,
,,,0.000063400000,  -1.68000,
,,,0.000063500000,  -1.68000,
,,,0.000063600000,  -1.76000,
,,,0.000063700000,  -1.84000,
,,,0.000063800000,  -1.84000,
,,,0.000063900000,  -1.92000,
,,,0.000064000000,  -1.92000,
,,,0.000064100000,  -2.00000,
,,,0.000064200000,  -2.00000,
,,,0.000064300000,  -2.00000,
,,,0.000064400000,  -2.08000,
,,,0.000064500000,  -2.08000,
,,,0.000064600000,  -2.16000,
,,,0.000064700000,  -2.16000,
,,,0.000064800000,  -2.16000,
,,,0.000064900000,  -2.24000,
,,,0.000065000000,  -2.24000,
,,,0.000065100000,  -2.24000,
,,,0.000065200000,  -2.24000,
,,,0.000065300000,  -2.32000,
,,,0.000065400000,  -2.32000,
,,,0.000065500000,  -2.32000,
,,,0.000065600000,  -2.32000,
,,,0.000065700000,  -2.32000,
,,,0.000065800000,  -2.32000,
,,,0.000065900000,  -2.32000,
,,,0.000066000000,  -2.24000,
,,,0.000066100000,  -2.24000,
,,,0.000066200000,  -2.24000,
,,,0.000066300000,  -2.24000,
,,,0.000066400000,  -2.24000,
,,,0.000066500000,  -2.24000,
,,,0.000066600000,  -2.08000,
,,,0.000066700000,  -2.08000,
,,,0.000066800000,  -2.08000,
,,,0.000066900000,  -2.08000,
,,,0.000067000000,  -2.00000,
,,,0.000067100000,  -2.00000,
,,,0.000067200000,  -1.92000,
,,,0.000067300000,  -1.84000,
,,,0.000067400000,  -1.84000,
,,,0.000067500000,  -1.76000,
,,,0.000067600000,  -1.76000,
,,,0.000067700000,  -1.68000,
,,,0.000067800000,  -1.60000,
,,,0.000067900000,  -1.52000,
,,,0.000068000000,  -1.52000,
,,,0.000068100000,  -1.36000,
,,,0.000068200000,  -1.36000,
,,,0.000068300000,  -1.28000,
,,,0.000068400000,  -1.28000,
,,,0.000068500000,  -1.12000,
,,,0.000068600000,  -1.04000,
,,,0.000068700000,  -1.04000,
,,,0.000068800000,  -0.96000,
,,,0.000068900000,  -0.88000,
,,,0.000069000000,  -0.80000,
,,,0.000069100000,  -0.72000,
,,,0.000069200000,  -0.64000,
,,,0.000069300000,  -0.56000,
,,,0.000069400000,  -0.48000,
,,,0.000069500000,  -0.40000,
,,,0.000069600000,  -0.32000,
,,,0.000069700000,  -0.24000,
,,,0.000069800000,  -0.16000,
,,,0.000069900000,  -0.08000,
,,,0.000070000000,   0.00000,
,,,0.000070100000,   0.08000,
,,,0.000070200000,   0.24000,
,,,0.000070300000,   0.24000,
,,,0.000070400000,   0.32000,
,,,0.000070500000,   0.48000,
,,,0.000070600000,   0.48000,
,,,0.000070700000,   0.64000,
,,,0.000070800000,   0.72000,
,,,0.000070900000,   0.80000,
,,,0.000071000000,   0.80000,
,,,0.000071100000,   0.96000,
,,,0.000071200000,   0.96000,
,,,0.000071300000,   1.04000,
,,,0.000071400000,   1.12000,
,,,0.000071500000,   1.20000,
,,,0.000071600000,   1.28000,
,,,0.000071700000,   1.36000,
,,,0.000071800000,   1.44000,
,,,0.000071900000,   1.52000,
,,,0.000072000000,   1.52000,
,,,0.000072100000,   1.60000,
,,,0.000072200000,   1.68000,
,,,0.000072300000,   1.76000,
,,,0.000072400000,   1.84000,
,,,0.000072500000,   1.84000,
,,,0.000072600000,   1.92000,
,,,0.000072700000,   2.00000,
,,,0.000072800000,   2.00000,
,,,0.000072900000,   2.08000,
,,,0.000073000000,   2.16000,
,,,0.000073100000,   2.16000,
,,,0.000073200000,   2.16000,
,,,0.000073300000,   2.24000,
,,,0.000073400000,   2.24000,
,,,0.000073500000,   2.24000,
,,,0.000073600000,   2.32000,
,,,0.000073700000,   2.32000,
,,,0.000073800000,   2.32000,
,,,0.000073900000,   2.32000,
,,,0.000074000000,   2.40000,
,,,0.000074100000,   2.40000,
,,,0.000074200000,   2.40000,
,,,0.000074300000,   2.40000,
,,,0.000074400000,   2.40000,
,,,0.000074500000,   2.32000,
,,,0.000074600000,   2.40000,
,,,0.000074700000,   2.32000,
,,,0.000074800000,   2.40000,
,,,0.000074900000,   2.40000,
,,,0.000075000000,   2.32000,
,,,0.000075100000,   2.32000,
,,,0.000075200000,   2.32000,
,,,0.000075300000,   2.32000,
,,,0.000075400000,   2.24000,
,,,0.000075500000,   2.24000,
,,,0.000075600000,   2.24000,
,,,0.000075700000,   2.16000,
,,,0.000075800000,   2.16000,
,,,0.000075900000,   2.08000,
,,,0.000076000000,   2.08000,
,,,0.000076100000,   2.00000,
,,,0.000076200000,   2.00000,
,,,0.000076300000,   1.92000,
,,,0.000076400000,   1.92000,
,,,0.000076500000,   1.84000,
,,,0.000076600000,   1.76000,
,,,0.000076700000,   1.76000,
,,,0.000076800000,   1.60000,
,,,0.000076900000,   1.60000,
,,,0.000077000000,   1.52000,
,,,0.000077100000,   1.44000,
,,,0.000077200000,   1.44000,
,,,0.000077300000,   1.28000,
,,,0.000077400000,   1.28000,
,,,0.000077500000,   1.20000,
,,,0.000077600000,   1.12000,
,,,0.000077700000,   1.04000,
,,,0.000077800000,   0.96000,
,,,0.000077900000,   0.88000,
,,,0.000078000000,   0.80000,
,,,0.000078100000,   0.72000,
,,,0.000078200000,   0.64000,
,,,0.000078300000,   0.56000,
,,,0.000078400000,   0.48000,
,,,0.000078500000,   0.40000,
,,,0.000078600000,   0.32000,
,,,0.000078700000,   0.16000,
,,,0.000078800000,   0.16000,
,,,0.000078900000,   0.08000,
,,,0.000079000000,  -0.08000,
,,,0.000079100000,  -0.16000,
,,,0.000079200000,  -0.24000,
,,,0.000079300000,  -0.32000,
,,,0.000079400000,  -0.40000,
,,,0.000079500000,  -0.40000,
,,,0.000079600000,  -0.48000,
,,,0.000079700000,  -0.56000,
,,,0.000079800000,  -0.72000,
,,,0.000079900000,  -0.80000,
,,,0.000080000000,  -0.80000,
,,,0.000080100000,  -0.96000,
,,,0.000080200000,  -0.96000,
,,,0.000080300000,  -1.04000,
,,,0.000080400000,  -1.12000,
,,,0.000080500000,  -1.20000,
,,,0.000080600000,  -1.28000,
,,,0.000080700000,  -1.36000,
,,,0.000080800000,  -1.36000,
,,,0.000080900000,  -1.44000,
,,,0.000081000000,  -1.52000,
,,,0.000081100000,  -1.52000,
,,,0.000081200000,  -1.68000,
,,,0.000081300000,  -1.68000,
,,,0.000081400000,  -1.76000,
,,,0.000081500000,  -1.84000,
,,,0.000081600000,  -1.84000,
,,,0.000081700000,  -1.92000,
,,,0.000081800000,  -1.92000,
,,,0.000081900000,  -2.00000,
,,,0.000082000000,  -2.00000,
,,,0.000082100000,  -2.08000,
,,,0.000082200000,  -2.08000,
,,,0.000082300000,  -2.16000,
,,,0.000082400000,  -2.16000,
,,,0.000082500000,  -2.16000,
,,,0.000082600000,  -2.16000,
,,,0.000082700000,  -2.24000,
,,,0.000082800000,  -2.24000,
,,,0.000082900000,  -2.24000,
,,,0.000083000000,  -2.24000,
,,,0.000083100000,  -2.32000,
,,,0.000083200000,  -2.32000,
,,,0.000083300000,  -2.24000,
,,,0.000083400000,  -2.32000,
,,,0.000083500000,  -2.32000,
,,,0.000083600000,  -2.32000,
,,,0.000083700000,  -2.32000,
,,,0.000083800000,  -2.24000,
,,,0.000083900000,  -2.24000,
,,,0.000084000000,  -2.24000,
,,,0.000084100000,  -2.24000,
,,,0.000084200000,  -2.16000,
,,,0.000084300000,  -2.16000,
,,,0.000084400000,  -2.16000,
,,,0.000084500000,  -2.08000,
,,,0.000084600000,  -2.08000,
,,,0.000084700000,  -2.00000,
,,,0.000084800000,  -2.00000,
,,,0.000084900000,  -1.92000,
,,,0.000085000000,  -1.92000,
,,,0.000085100000,  -1.84000,
,,,0.000085200000,  -1.76000,
,,,0.000085300000,  -1.76000,
,,,0.000085400000,  -1.68000,
,,,0.000085500000,  -1.60000,
,,,0.000085600000,  -1.60000,
,,,0.000085700000,  -1.52000,
,,,0.000085800000,  -1.44000,
,,,0.000085900000,  -1.44000,
,,,0.000086000000,  -1.36000,
,,,0.000086100000,  -1.28000,
,,,0.000086200000,  -1.20000,
,,,0.000086300000,  -1.12000,
,,,0.000086400000,  -1.12000,
,,,0.000086500000,  -0.96000,
,,,0.000086600000,  -0.96000,
,,,0.000086700000,  -0.88000,
,,,0.000086800000,  -0.72000,
,,,0.000086900000,  -0.72000,
,,,0.000087000000,  -0.64000,
,,,0.000087100000,  -0.48000,
,,,0.000087200000,  -0.40000,
,,,0.000087300000,  -0.40000,
,,,0.000087400000,  -0.24000,
,,,0.000087500000,  -0.24000,
,,,0.000087600000,  -0.16000,
,,,0.000087700000,  -0.08000,
,,,0.000087800000,   0.00000,
,,,0.000087900000,   0.16000,
,,,0.000088000000,   0.24000,
,,,0.000088100000,   0.32000,
,,,0.000088200000,   0.40000,
,,,0.000088300000,   0.48000,
,,,0.000088400000,   0.56000,
,,,0.000088500000,   0.64000,
,,,0.000088600000,   0.72000,
,,,0.000088700000,   0.80000,
,,,0.000088800000,   0.80000,
,,,0.000088900000,   0.96000,
,,,0.000089000000,   1.04000,
,,,0.000089100000,   1.12000,
,,,0.000089200000,   1.20000,
,,,0.000089300000,   1.20000,
,,,0.000089400000,   1.36000,
,,,0.000089500000,   1.36000,
,,,0.000089600000,   1.44000,
,,,0.000089700000,   1.52000,
,,,0.000089800000,   1.60000,
,,,0.000089900000,   1.68000,
,,,0.000090000000,   1.68000,
,,,0.000090100000,   1.76000,
,,,0.000090200000,   1.84000,
,,,0.000090300000,   1.84000,
,,,0.000090400000,   1.92000,
,,,0.000090500000,   2.00000,
,,,0.000090600000,   2.00000,
,,,0.000090700000,   2.00000,
,,,0.000090800000,   2.08000,
,,,0.000090900000,   2.16000,
,,,0.000091000000,   2.16000,
,,,0.000091100000,   2.24000,
,,,0.000091200000,   2.24000,
,,,0.000091300000,   2.24000,
,,,0.000091400000,   2.24000,
,,,0.000091500000,   2.32000,
,,,0.000091600000,   2.32000,
,,,0.000091700000,   2.32000,
,,,0.000091800000,   2.32000,
,,,0.000091900000,   2.32000,
,,,0.000092000000,   2.40000,
,,,0.000092100000,   2.40000,
,,,0.000092200000,   2.40000,
,,,0.000092300000,   2.32000,
,,,0.000092400000,   2.40000,
,,,0.000092500000,   2.40000,
,,,0.000092600000,   2.40000,
,,,0.000092700000,   2.32000,
,,,0.000092800000,   2.40000,
,,,0.000092900000,   2.40000,
,,,0.000093000000,   2.24000,
,,,0.000093100000,   2.24000,
,,,0.000093200000,   2.32000,
,,,0.000093300000,   2.24000,
,,,0.000093400000,   2.16000,
,,,0.000093500000,   2.16000,
,,,0.000093600000,   2.16000,
,,,0.000093700000,   2.08000,
,,,0.000093800000,   2.08000,
,,,0.000093900000,   2.00000,
,,,0.000094000000,   1.92000,
,,,0.000094100000,   1.92000,
,,,0.000094200000,   1.84000,
,,,0.000094300000,   1.84000,
,,,0.000094400000,   1.76000,
,,,0.000094500000,   1.68000,
,,,0.000094600000,   1.60000,
,,,0.000094700000,   1.60000,
,,,0.000094800000,   1.52000,
,,,0.000094900000,   1.44000,
,,,0.000095000000,   1.36000,
,,,0.000095100000,   1.28000,
,,,0.000095200000,   1.20000,
,,,0.000095300000,   1.12000,
,,,0.000095400000,   1.12000,
,,,0.000095500000,   1.04000,
,,,0.000095600000,   0.96000,
,,,0.000095700000,   0.88000,
,,,0.000095800000,   0.80000,
,,,0.000095900000,   0.72000,
,,,0.000096000000,   0.64000,
,,,0.000096100000,   0.56000,
,,,0.000096200000,   0.48000,
,,,0.000096300000,   0.40000,
,,,0.000096400000,   0.32000,
,,,0.000096500000,   0.24000,
,,,0.000096600000,   0.08000,
,,,0.000096700000,   0.00000,
,,,0.000096800000,  -0.08000,
,,,0.000096900000,  -0.16000,
,,,0.000097000000,  -0.16000,
,,,0.000097100000,  -0.32000,
,,,0.000097200000,  -0.40000,
,,,0.000097300000,  -0.40000,
,,,0.000097400000,  -0.56000,
,,,0.000097500000,  -0.56000,
,,,0.000097600000,  -0.72000,
,,,0.000097700000,  -0.72000,
,,,0.000097800000,  -0.80000,
,,,0.000097900000,  -0.88000,
,,,0.000098000000,  -0.96000,
,,,0.000098100000,  -1.12000,
,,,0.000098200000,  -1.12000,
,,,0.000098300000,  -1.20000,
,,,0.000098400000,  -1.28000,
,,,0.000098500000,  -1.36000,
,,,0.000098600000,  -1.44000,
,,,0.000098700000,  -1.44000,
,,,0.000098800000,  -1.52000,
,,,0.000098900000,  -1.60000,
,,,0.000099000000,  -1.60000,
,,,0.000099100000,  -1.76000,
,,,0.000099200000,  -1.76000,
,,,0.000099300000,  -1.84000,
,,,0.000099400000,  -1.92000,
,,,0.000099500000,  -1.92000,
,,,0.000099600000,  -2.00000,
,,,0.000099700000,  -2.00000,
,,,0.000099800000,  -2.00000,
,,,0.000099900000,  -2.08000,
,,,0.000100000000,  -2.08000,
,,,0.000100100000,  -2.08000,
,,,0.000100200000,  -2.16000,
,,,0.000100300000,  -2.16000,
