G3/data4/ALL0047/F0047CH1.CSV

Record Length,2.500000e+03,,   0.000147500000,   0.36000,
Sample Interval,1.000000e-08,,   0.000147510000,   0.48000,
Trigger Point,-1.475000000000e+04,,   0.000147520000,   0.52000,
,,,   0.000147530000,   0.64000,
,,,   0.000147540000,   0.68000,
,,,   0.000147550000,   0.76000,
Source,CH1,,   0.000147560000,   0.84000,
Vertical Units,V,,   0.000147570000,   0.92000,
Vertical Scale,1.000000e+00,,   0.000147580000,   1.00000,
Vertical Offset,0.000000e+00,,   0.000147590000,   1.08000,
Horizontal Units,s,,   0.000147600000,   1.16000,
Horizontal Scale,2.500000e-06,,   0.000147610000,   1.24000,
Pt Fmt,Y,,   0.000147620000,   1.28000,
Yzero,0.000000e+00,,   0.000147630000,   1.36000,
Probe Atten,1.000000e+00,,   0.000147640000,   1.44000,
Model Number,TBS1052B-EDU,,   0.000147650000,   1.48000,
Serial Number,C017060,,   0.000147660000,   1.56000,
Firmware Version,FV:v3.25,,   0.000147670000,   1.60000,
,,,0.000147680000,   1.68000,
,,,0.000147690000,   1.72000,
,,,0.000147700000,   1.80000,
,,,0.000147710000,   1.84000,
,,,0.000147720000,   1.88000,
,,,0.000147730000,   1.92000,
,,,0.000147740000,   2.00000,
,,,0.000147750000,   2.04000,
,,,0.000147760000,   2.08000,
,,,0.000147770000,   2.12000,
,,,0.000147780000,   2.16000,
,,,0.000147790000,   2.20000,
,,,0.000147800000,   2.24000,
,,,0.000147810000,   2.24000,
,,,0.000147820000,   2.28000,
,,,0.000147830000,   2.28000,
,,,0.000147840000,   2.32000,
,,,0.000147850000,   2.36000,
,,,0.000147860000,   2.36000,
,,,0.000147870000,   2.36000,
,,,0.000147880000,   2.40000,
,,,0.000147890000,   2.36000,
,,,0.000147900000,   2.36000,
,,,0.000147910000,   2.36000,
,,,0.000147920000,   2.36000,
,,,0.000147930000,   2.36000,
,,,0.000147940000,   2.36000,
,,,0.000147950000,   2.36000,
,,,0.000147960000,   2.36000,
,,,0.000147970000,   2.32000,
,,,0.000147980000,   2.32000,
,,,0.000147990000,   2.28000,
,,,0.000148000000,   2.24000,
,,,0.000148010000,   2.20000,
,,,0.000148020000,   2.20000,
,,,0.000148030000,   2.16000,
,,,0.000148040000,   2.12000,
,,,0.000148050000,   2.08000,
,,,0.000148060000,   2.04000,
,,,0.000148070000,   2.00000,
,,,0.000148080000,   1.96000,
,,,0.000148090000,   1.88000,
,,,0.000148100000,   1.84000,
,,,0.000148110000,   1.80000,
,,,0.000148120000,   1.76000,
,,,0.000148130000,   1.68000,
,,,0.000148140000,   1.60000,
,,,0.000148150000,   1.56000,
,,,0.000148160000,   1.48000,
,,,0.000148170000,   1.44000,
,,,0.000148180000,   1.36000,
,,,0.000148190000,   1.32000,
,,,0.000148200000,   1.20000,
,,,0.000148210000,   1.16000,
,,,0.000148220000,   1.08000,
,,,0.000148230000,   1.00000,
,,,0.000148240000,   0.92000,
,,,0.000148250000,   0.84000,
,,,0.000148260000,   0.76000,
,,,0.000148270000,   0.68000,
,,,0.000148280000,   0.60000,
,,,0.000148290000,   0.52000,
,,,0.000148300000,   0.44000,
,,,0.000148310000,   0.36000,
,,,0.000148320000,   0.28000,
,,,0.000148330000,   0.20000,
,,,0.000148340000,   0.12000,
,,,0.000148350000,   0.04000,
,,,0.000148360000,  -0.08000,
,,,0.000148370000,  -0.16000,
,,,0.000148380000,  -0.24000,
,,,0.000148390000,  -0.32000,
,,,0.000148400000,  -0.40000,
,,,0.000148410000,  -0.44000,
,,,0.000148420000,  -0.56000,
,,,0.000148430000,  -0.64000,
,,,0.000148440000,  -0.72000,
,,,0.000148450000,  -0.80000,
,,,0.000148460000,  -0.88000,
,,,0.000148470000,  -0.96000,
,,,0.000148480000,  -1.04000,
,,,0.000148490000,  -1.12000,
,,,0.000148500000,  -1.20000,
,,,0.000148510000,  -1.24000,
,,,0.000148520000,  -1.32000,
,,,0.000148530000,  -1.36000,
,,,0.000148540000,  -1.48000,
,,,0.000148550000,  -1.52000,
,,,0.000148560000,  -1.60000,
,,,0.000148570000,  -1.64000,
,,,0.000148580000,  -1.72000,
,,,0.000148590000,  -1.76000,
,,,0.000148600000,  -1.80000,
,,,0.000148610000,  -1.88000,
,,,0.000148620000,  -1.92000,
,,,0.000148630000,  -1.96000,
,,,0.000148640000,  -2.00000,
,,,0.000148650000,  -2.04000,
,,,0.000148660000,  -2.12000,
,,,0.000148670000,  -2.16000,
,,,0.000148680000,  -2.16000,
,,,0.000148690000,  -2.20000,
,,,0.000148700000,  -2.24000,
,,,0.000148710000,  -2.24000,
,,,0.000148720000,  -2.28000,
,,,0.000148730000,  -2.28000,
,,,0.000148740000,  -2.32000,
,,,0.000148750000,  -2.32000,
,,,0.000148760000,  -2.32000,
,,,0.000148770000,  -2.36000,
,,,0.000148780000,  -2.36000,
,,,0.000148790000,  -2.36000,
,,,0.000148800000,  -2.36000,
,,,0.000148810000,  -2.36000,
,,,0.000148820000,  -2.36000,
,,,0.000148830000,  -2.32000,
,,,0.000148840000,  -2.32000,
,,,0.000148850000,  -2.28000,
,,,0.000148860000,  -2.28000,
,,,0.000148870000,  -2.28000,
,,,0.000148880000,  -2.24000,
,,,0.000148890000,  -2.24000,
,,,0.000148900000,  -2.20000,
,,,0.000148910000,  -2.16000,
,,,0.000148920000,  -2.12000,
,,,0.000148930000,  -2.08000,
,,,0.000148940000,  -2.04000,
,,,0.000148950000,  -2.00000,
,,,0.000148960000,  -1.96000,
,,,0.000148970000,  -1.92000,
,,,0.000148980000,  -1.88000,
,,,0.000148990000,  -1.84000,
,,,0.000149000000,  -1.76000,
,,,0.000149010000,  -1.72000,
,,,0.000149020000,  -1.64000,
,,,0.000149030000,  -1.60000,
,,,0.000149040000,  -1.52000,
,,,0.000149050000,  -1.44000,
,,,0.000149060000,  -1.36000,
,,,0.000149070000,  -1.32000,
,,,0.000149080000,  -1.24000,
,,,0.000149090000,  -1.16000,
,,,0.000149100000,  -1.12000,
,,,0.000149110000,  -1.04000,
,,,0.000149120000,  -0.96000,
,,,0.000149130000,  -0.88000,
,,,0.000149140000,  -0.80000,
,,,0.000149150000,  -0.72000,
,,,0.000149160000,  -0.64000,
,,,0.000149170000,  -0.52000,
,,,0.000149180000,  -0.48000,
,,,0.000149190000,  -0.40000,
,,,0.000149200000,  -0.32000,
,,,0.000149210000,  -0.20000,
,,,0.000149220000,  -0.12000,
,,,0.000149230000,  -0.04000,
,,,0.000149240000,   0.04000,
,,,0.000149250000,   0.12000,
,,,0.000149260000,   0.20000,
,,,0.000149270000,   0.32000,
,,,0.000149280000,   0.36000,
,,,0.000149290000,   0.44000,
,,,0.000149300000,   0.52000,
,,,0.000149310000,   0.60000,
,,,0.000149320000,   0.68000,
,,,0.000149330000,   0.76000,
,,,0.000149340000,   0.84000,
,,,0.000149350000,   0.96000,
,,,0.000149360000,   1.00000,
,,,0.000149370000,   1.08000,
,,,0.000149380000,   1.16000,
,,,0.000149390000,   1.24000,
,,,0.000149400000,   1.32000,
,,,0.000149410000,   1.36000,
,,,0.000149420000,   1.44000,
,,,0.000149430000,   1.52000,
,,,0.000149440000,   1.56000,
,,,0.000149450000,   1.64000,
,,,0.000149460000,   1.68000,
,,,0.000149470000,   1.76000,
,,,0.000149480000,   1.80000,
,,,0.000149490000,   1.84000,
,,,0.000149500000,   1.88000,
,,,0.000149510000,   1.96000,
,,,0.000149520000,   2.00000,
,,,0.000149530000,   2.04000,
,,,0.000149540000,   2.08000,
,,,0.000149550000,   2.12000,
,,,0.000149560000,   2.16000,
,,,0.000149570000,   2.20000,
,,,0.000149580000,   2.24000,
,,,0.000149590000,   2.24000,
,,,0.000149600000,   2.28000,
,,,0.000149610000,   2.28000,
,,,0.000149620000,   2.32000,
,,,0.000149630000,   2.36000,
,,,0.000149640000,   2.36000,
,,,0.000149650000,   2.36000,
,,,0.000149660000,   2.40000,
,,,0.000149670000,   2.40000,
,,,0.000149680000,   2.40000,
,,,0.000149690000,   2.36000,
,,,0.000149700000,   2.36000,
,,,0.000149710000,   2.40000,
,,,0.000149720000,   2.36000,
,,,0.000149730000,   2.36000,
,,,0.000149740000,   2.32000,
,,,0.000149750000,   2.32000,
,,,0.000149760000,   2.32000,
,,,0.000149770000,   2.28000,
,,,0.000149780000,   2.24000,
,,,0.000149790000,   2.20000,
,,,0.000149800000,   2.20000,
,,,0.000149810000,   2.12000,
,,,0.000149820000,   2.08000,
,,,0.000149830000,   2.08000,
,,,0.000149840000,   2.04000,
,,,0.000149850000,   2.00000,
,,,0.000149860000,   1.96000,
,,,0.000149870000,   1.88000,
,,,0.000149880000,   1.84000,
,,,0.000149890000,   1.76000,
,,,0.000149900000,   1.72000,
,,,0.000149910000,   1.68000,
,,,0.000149920000,   1.60000,
,,,0.000149930000,   1.56000,
,,,0.000149940000,   1.48000,
,,,0.000149950000,   1.40000,
,,,0.000149960000,   1.36000,
,,,0.000149970000,   1.32000,
,,,0.000149980000,   1.20000,
,,,0.000149990000,   1.16000,
,,,0.000150000000,   1.08000,
,,,0.000150010000,   1.00000,
,,,0.000150020000,   0.92000,
,,,0.000150030000,   0.84000,
,,,0.000150040000,   0.76000,
,,,0.000150050000,   0.68000,
,,,0.000150060000,   0.60000,
,,,0.000150070000,   0.48000,
,,,0.000150080000,   0.44000,
,,,0.000150090000,   0.36000,
,,,0.000150100000,   0.28000,
,,,0.000150110000,   0.20000,
,,,0.000150120000,   0.08000,
,,,0.000150130000,   0.00000,
,,,0.000150140000,  -0.08000,
,,,0.000150150000,  -0.16000,
,,,0.000150160000,  -0.24000,
,,,0.000150170000,  -0.32000,
,,,0.000150180000,  -0.40000,
,,,0.000150190000,  -0.48000,
,,,0.000150200000,  -0.60000,
,,,0.000150210000,  -0.68000,
,,,0.000150220000,  -0.72000,
,,,0.000150230000,  -0.80000,
,,,0.000150240000,  -0.88000,
,,,0.000150250000,  -1.00000,
,,,0.000150260000,  -1.04000,
,,,0.000150270000,  -1.12000,
,,,0.000150280000,  -1.20000,
,,,0.000150290000,  -1.28000,
,,,0.000150300000,  -1.36000,
,,,0.000150310000,  -1.44000,
,,,0.000150320000,  -1.48000,
,,,0.000150330000,  -1.52000,
,,,0.000150340000,  -1.60000,
,,,0.000150350000,  -1.64000,
,,,0.000150360000,  -1.72000,
,,,0.000150370000,  -1.76000,
,,,0.000150380000,  -1.84000,
,,,0.000150390000,  -1.88000,
,,,0.000150400000,  -1.92000,
,,,0.000150410000,  -1.96000,
,,,0.000150420000,  -2.04000,
,,,0.000150430000,  -2.08000,
,,,0.000150440000,  -2.12000,
,,,0.000150450000,  -2.12000,
,,,0.000150460000,  -2.20000,
,,,0.000150470000,  -2.20000,
,,,0.000150480000,  -2.24000,
,,,0.000150490000,  -2.24000,
,,,0.000150500000,  -2.28000,
,,,0.000150510000,  -2.28000,
,,,0.000150520000,  -2.32000,
,,,0.000150530000,  -2.32000,
,,,0.000150540000,  -2.32000,
,,,0.000150550000,  -2.36000,
,,,0.000150560000,  -2.32000,
,,,0.000150570000,  -2.36000,
,,,0.000150580000,  -2.36000,
,,,0.000150590000,  -2.36000,
,,,0.000150600000,  -2.36000,
,,,0.000150610000,  -2.32000,
,,,0.000150620000,  -2.32000,
,,,0.000150630000,  -2.28000,
,,,0.000150640000,  -2.28000,
,,,0.000150650000,  -2.28000,
,,,0.000150660000,  -2.24000,
,,,0.000150670000,  -2.20000,
,,,0.000150680000,  -2.20000,
,,,0.000150690000,  -2.20000,
,,,0.000150700000,  -2.12000,
,,,0.000150710000,  -2.08000,
,,,0.000150720000,  -2.04000,
,,,0.000150730000,  -2.00000,
,,,0.000150740000,  -1.96000,
,,,0.000150750000,  -1.92000,
,,,0.000150760000,  -1.88000,
,,,0.000150770000,  -1.80000,
,,,0.000150780000,  -1.76000,
,,,0.000150790000,  -1.68000,
,,,0.000150800000,  -1.64000,
,,,0.000150810000,  -1.56000,
,,,0.000150820000,  -1.48000,
,,,0.000150830000,  -1.44000,
,,,0.000150840000,  -1.36000,
,,,0.000150850000,  -1.32000,
,,,0.000150860000,  -1.24000,
,,,0.000150870000,  -1.16000,
,,,0.000150880000,  -1.08000,
,,,0.000150890000,  -1.00000,
,,,0.000150900000,  -0.92000,
,,,0.000150910000,  -0.84000,
,,,0.000150920000,  -0.76000,
,,,0.000150930000,  -0.68000,
,,,0.000150940000,  -0.64000,
,,,0.000150950000,  -0.52000,
,,,0.000150960000,  -0.48000,
,,,0.000150970000,  -0.36000,
,,,0.000150980000,  -0.28000,
,,,0.000150990000,  -0.20000,
,,,0.000151000000,  -0.12000,
,,,0.000151010000,  -0.04000,
,,,0.000151020000,   0.04000,
,,,0.000151030000,   0.12000,
,,,0.000151040000,   0.20000,
,,,0.000151050000,   0.32000,
,,,0.000151060000,   0.40000,
,,,0.000151070000,   0.48000,
,,,0.000151080000,   0.56000,
,,,0.000151090000,   0.64000,
,,,0.000151100000,   0.72000,
,,,0.000151110000,   0.80000,
,,,0.000151120000,   0.88000,
,,,0.000151130000,   0.96000,
,,,0.000151140000,   1.00000,
,,,0.000151150000,   1.12000,
,,,0.000151160000,   1.20000,
,,,0.000151170000,   1.24000,
,,,0.000151180000,   1.32000,
,,,0.000151190000,   1.36000,
,,,0.000151200000,   1.44000,
,,,0.000151210000,   1.52000,
,,,0.000151220000,   1.56000,
,,,0.000151230000,   1.60000,
,,,0.000151240000,   1.72000,
,,,0.000151250000,   1.76000,
,,,0.000151260000,   1.80000,
,,,0.000151270000,   1.84000,
,,,0.000151280000,   1.92000,
,,,0.000151290000,   1.96000,
,,,0.000151300000,   2.00000,
,,,0.000151310000,   2.04000,
,,,0.000151320000,   2.12000,
,,,0.000151330000,   2.12000,
,,,0.000151340000,   2.16000,
,,,0.000151350000,   2.20000,
,,,0.000151360000,   2.20000,
,,,0.000151370000,   2.24000,
,,,0.000151380000,   2.28000,
,,,0.000151390000,   2.32000,
,,,0.000151400000,   2.32000,
,,,0.000151410000,   2.36000,
,,,0.000151420000,   2.36000,
,,,0.000151430000,   2.36000,
,,,0.000151440000,   2.36000,
,,,0.000151450000,   2.36000,
,,,0.000151460000,   2.40000,
,,,0.000151470000,   2.36000,
,,,0.000151480000,   2.36000,
,,,0.000151490000,   2.36000,
,,,0.000151500000,   2.36000,
,,,0.000151510000,   2.36000,
,,,0.000151520000,   2.32000,
,,,0.000151530000,   2.32000,
,,,0.000151540000,   2.28000,
,,,0.000151550000,   2.28000,
,,,0.000151560000,   2.24000,
,,,0.000151570000,   2.20000,
,,,0.000151580000,   2.16000,
,,,0.000151590000,   2.12000,
,,,0.000151600000,   2.12000,
,,,0.000151610000,   2.04000,
,,,0.000151620000,   2.00000,
,,,0.000151630000,   1.96000,
,,,0.000151640000,   1.92000,
,,,0.000151650000,   1.88000,
,,,0.000151660000,   1.84000,
,,,0.000151670000,   1.76000,
,,,0.000151680000,   1.72000,
,,,0.000151690000,   1.64000,
,,,0.000151700000,   1.60000,
,,,0.000151710000,   1.52000,
,,,0.000151720000,   1.48000,
,,,0.000151730000,   1.40000,
,,,0.000151740000,   1.36000,
,,,0.000151750000,   1.28000,
,,,0.000151760000,   1.20000,
,,,0.000151770000,   1.12000,
,,,0.000151780000,   1.04000,
,,,0.000151790000,   1.00000,
,,,0.000151800000,   0.88000,
,,,0.000151810000,   0.84000,
,,,0.000151820000,   0.76000,
,,,0.000151830000,   0.68000,
,,,0.000151840000,   0.56000,
,,,0.000151850000,   0.48000,
,,,0.000151860000,   0.40000,
,,,0.000151870000,   0.32000,
,,,0.000151880000,   0.24000,
,,,0.000151890000,   0.16000,
,,,0.000151900000,   0.08000,
,,,0.000151910000,   0.00000,
,,,0.000151920000,  -0.08000,
,,,0.000151930000,  -0.20000,
,,,0.000151940000,  -0.28000,
,,,0.000151950000,  -0.32000,
,,,0.000151960000,  -0.40000,
,,,0.000151970000,  -0.52000,
,,,0.000151980000,  -0.60000,
,,,0.000151990000,  -0.68000,
,,,0.000152000000,  -0.76000,
,,,0.000152010000,  -0.84000,
,,,0.000152020000,  -0.92000,
,,,0.000152030000,  -0.96000,
,,,0.000152040000,  -1.08000,
,,,0.000152050000,  -1.16000,
,,,0.000152060000,  -1.20000,
,,,0.000152070000,  -1.28000,
,,,0.000152080000,  -1.36000,
,,,0.000152090000,  -1.44000,
,,,0.000152100000,  -1.48000,
,,,0.000152110000,  -1.56000,
,,,0.000152120000,  -1.60000,
,,,0.000152130000,  -1.68000,
,,,0.000152140000,  -1.76000,
,,,0.000152150000,  -1.80000,
,,,0.000152160000,  -1.84000,
,,,0.000152170000,  -1.88000,
,,,0.000152180000,  -1.92000,
,,,0.000152190000,  -2.00000,
,,,0.000152200000,  -2.04000,
,,,0.000152210000,  -2.08000,
,,,0.000152220000,  -2.12000,
,,,0.000152230000,  -2.16000,
,,,0.000152240000,  -2.20000,
,,,0.000152250000,  -2.24000,
,,,0.000152260000,  -2.24000,
,,,0.000152270000,  -2.28000,
,,,0.000152280000,  -2.28000,
,,,0.000152290000,  -2.32000,
,,,0.000152300000,  -2.32000,
,,,0.000152310000,  -2.32000,
,,,0.000152320000,  -2.32000,
,,,0.000152330000,  -2.36000,
,,,0.000152340000,  -2.36000,
,,,0.000152350000,  -2.36000,
,,,0.000152360000,  -2.36000,
,,,0.000152370000,  -2.32000,
,,,0.000152380000,  -2.36000,
,,,0.000152390000,  -2.32000,
,,,0.000152400000,  -2.32000,
,,,0.000152410000,  -2.32000,
,,,0.000152420000,  -2.28000,
,,,0.000152430000,  -2.24000,
,,,0.000152440000,  -2.24000,
,,,0.000152450000,  -2.20000,
,,,0.000152460000,  -2.20000,
,,,0.000152470000,  -2.16000,
,,,0.000152480000,  -2.12000,
,,,0.000152490000,  -2.04000,
,,,0.000152500000,  -2.04000,
,,,0.000152510000,  -2.00000,
,,,0.000152520000,  -1.96000,
,,,0.000152530000,  -1.88000,
,,,0.000152540000,  -1.84000,
,,,0.000152550000,  -1.80000,
,,,0.000152560000,  -1.76000,
,,,0.000152570000,  -1.68000,
,,,0.000152580000,  -1.64000,
,,,0.000152590000,  -1.56000,
,,,0.000152600000,  -1.48000,
,,,0.000152610000,  -1.44000,
,,,0.000152620000,  -1.36000,
,,,0.000152630000,  -1.28000,
,,,0.000152640000,  -1.20000,
,,,0.000152650000,  -1.12000,
,,,0.000152660000,  -1.04000,
,,,0.000152670000,  -1.00000,
,,,0.000152680000,  -0.92000,
,,,0.000152690000,  -0.84000,
,,,0.000152700000,  -0.76000,
,,,0.000152710000,  -0.68000,
,,,0.000152720000,  -0.60000,
,,,0.000152730000,  -0.52000,
,,,0.000152740000,  -0.44000,
,,,0.000152750000,  -0.36000,
,,,0.000152760000,  -0.28000,
,,,0.000152770000,  -0.20000,
,,,0.000152780000,  -0.12000,
,,,0.000152790000,   0.00000,
,,,0.000152800000,   0.08000,
,,,0.000152810000,   0.16000,
,,,0.000152820000,   0.24000,
,,,0.000152830000,   0.32000,
,,,0.000152840000,   0.40000,
,,,0.000152850000,   0.48000,
,,,0.000152860000,   0.56000,
,,,0.000152870000,   0.64000,
,,,0.000152880000,   0.72000,
,,,0.000152890000,   0.84000,
,,,0.000152900000,   0.88000,
,,,0.000152910000,   0.96000,
,,,0.000152920000,   1.04000,
,,,0.000152930000,   1.12000,
,,,0.000152940000,   1.20000,
,,,0.000152950000,   1.28000,
,,,0.000152960000,   1.36000,
,,,0.000152970000,   1.40000,
,,,0.000152980000,   1.48000,
,,,0.000152990000,   1.52000,
,,,0.000153000000,   1.60000,
,,,0.000153010000,   1.68000,
,,,0.000153020000,   1.72000,
,,,0.000153030000,   1.76000,
,,,0.000153040000,   1.84000,
,,,0.000153050000,   1.88000,
,,,0.000153060000,   1.92000,
,,,0.000153070000,   2.00000,
,,,0.000153080000,   2.00000,
,,,0.000153090000,   2.08000,
,,,0.000153100000,   2.12000,
,,,0.000153110000,   2.12000,
,,,0.000153120000,   2.16000,
,,,0.000153130000,   2.20000,
,,,0.000153140000,   2.24000,
,,,0.000153150000,   2.28000,
,,,0.000153160000,   2.32000,
,,,0.000153170000,   2.32000,
,,,0.000153180000,   2.32000,
,,,0.000153190000,   2.32000,
,,,0.000153200000,   2.36000,
,,,0.000153210000,   2.36000,
,,,0.000153220000,   2.40000,
,,,0.000153230000,   2.36000,
,,,0.000153240000,   2.40000,
,,,0.000153250000,   2.36000,
,,,0.000153260000,   2.40000,
,,,0.000153270000,   2.36000,
,,,0.000153280000,   2.36000,
,,,0.000153290000,   2.32000,
,,,0.000153300000,   2.36000,
,,,0.000153310000,   2.32000,
,,,0.000153320000,   2.28000,
,,,0.000153330000,   2.28000,
,,,0.000153340000,   2.24000,
,,,0.000153350000,   2.20000,
,,,0.000153360000,   2.16000,
,,,0.000153370000,   2.12000,
,,,0.000153380000,   2.12000,
,,,0.000153390000,   2.04000,
,,,0.000153400000,   2.04000,
,,,0.000153410000,   1.96000,
,,,0.000153420000,   1.92000,
,,,0.000153430000,   1.88000,
,,,0.000153440000,   1.84000,
,,,0.000153450000,   1.76000,
,,,0.000153460000,   1.72000,
,,,0.000153470000,   1.64000,
,,,0.000153480000,   1.60000,
,,,0.000153490000,   1.52000,
,,,0.000153500000,   1.48000,
,,,0.000153510000,   1.40000,
,,,0.000153520000,   1.32000,
,,,0.000153530000,   1.24000,
,,,0.000153540000,   1.20000,
,,,0.000153550000,   1.12000,
,,,0.000153560000,   1.04000,
,,,0.000153570000,   0.96000,
,,,0.000153580000,   0.88000,
,,,0.000153590000,   0.80000,
,,,0.000153600000,   0.72000,
,,,0.000153610000,   0.64000,
,,,0.000153620000,   0.56000,
,,,0.000153630000,   0.48000,
,,,0.000153640000,   0.40000,
,,,0.000153650000,   0.32000,
,,,0.000153660000,   0.24000,
,,,0.000153670000,   0.16000,
,,,0.000153680000,   0.04000,
,,,0.000153690000,  -0.04000,
,,,0.000153700000,  -0.12000,
,,,0.000153710000,  -0.20000,
,,,0.000153720000,  -0.28000,
,,,0.000153730000,  -0.36000,
,,,0.000153740000,  -0.44000,
,,,0.000153750000,  -0.52000,
,,,0.000153760000,  -0.60000,
,,,0.000153770000,  -0.68000,
,,,0.000153780000,  -0.76000,
,,,0.000153790000,  -0.84000,
,,,0.000153800000,  -0.92000,
,,,0.000153810000,  -1.00000,
,,,0.000153820000,  -1.08000,
,,,0.000153830000,  -1.16000,
,,,0.000153840000,  -1.20000,
,,,0.000153850000,  -1.32000,
,,,0.000153860000,  -1.36000,
,,,0.000153870000,  -1.44000,
,,,0.000153880000,  -1.48000,
,,,0.000153890000,  -1.56000,
,,,0.000153900000,  -1.64000,
,,,0.000153910000,  -1.68000,
,,,0.000153920000,  -1.76000,
,,,0.000153930000,  -1.80000,
,,,0.000153940000,  -1.84000,
,,,0.000153950000,  -1.88000,
,,,0.000153960000,  -1.96000,
,,,0.000153970000,  -2.00000,
,,,0.000153980000,  -2.04000,
,,,0.000153990000,  -2.08000,
,,,0.000154000000,  -2.12000,
,,,0.000154010000,  -2.16000,
,,,0.000154020000,  -2.20000,
,,,0.000154030000,  -2.20000,
