G3/data4/ALL0048/F0048CH1.CSV

Record Length,2.500000e+03,,   0.000155000000,   1.36000,
Sample Interval,4.000000e-09,,   0.000155004000,   1.40000,
Trigger Point,-3.875000000000e+04,,   0.000155008000,   1.44000,
,,,   0.000155012000,   1.52000,
,,,   0.000155016000,   1.52000,
,,,   0.000155020000,   1.60000,
Source,CH1,,   0.000155024000,   1.60000,
Vertical Units,V,,   0.000155028000,   1.68000,
Vertical Scale,1.000000e+00,,   0.000155032000,   1.72000,
Vertical Offset,0.000000e+00,,   0.000155036000,   1.76000,
Horizontal Units,s,,   0.000155040000,   1.80000,
Horizontal Scale,1.000000e-06,,   0.000155044000,   1.84000,
Pt Fmt,Y,,   0.000155048000,   1.88000,
Yzero,0.000000e+00,,   0.000155052000,   1.88000,
Probe Atten,1.000000e+00,,   0.000155056000,   1.96000,
Model Number,TBS1052B-EDU,,   0.000155060000,   2.00000,
Serial Number,C017060,,   0.000155064000,   2.00000,
Firmware Version,FV:v3.25,,   0.000155068000,   2.04000,
,,,0.000155072000,   2.08000,
,,,0.000155076000,   2.12000,
,,,0.000155080000,   2.12000,
,,,0.000155084000,   2.16000,
,,,0.000155088000,   2.20000,
,,,0.000155092000,   2.20000,
,,,0.000155096000,   2.24000,
,,,0.000155100000,   2.24000,
,,,0.000155104000,   2.28000,
,,,0.000155108000,   2.28000,
,,,0.000155112000,   2.28000,
,,,0.000155116000,   2.32000,
,,,0.000155120000,   2.32000,
,,,0.000155124000,   2.32000,
,,,0.000155128000,   2.36000,
,,,0.000155132000,   2.36000,
,,,0.000155136000,   2.36000,
,,,0.000155140000,   2.40000,
,,,0.000155144000,   2.40000,
,,,0.000155148000,   2.40000,
,,,0.000155152000,   2.36000,
,,,0.000155156000,   2.40000,
,,,0.000155160000,   2.40000,
,,,0.000155164000,   2.40000,
,,,0.000155168000,   2.40000,
,,,0.000155172000,   2.40000,
,,,0.000155176000,   2.36000,
,,,0.000155180000,   2.36000,
,,,0.000155184000,   2.36000,
,,,0.000155188000,   2.36000,
,,,0.000155192000,   2.32000,
,,,0.000155196000,   2.32000,
,,,0.000155200000,   2.32000,
,,,0.000155204000,   2.28000,
,,,0.000155208000,   2.28000,
,,,0.000155212000,   2.24000,
,,,0.000155216000,   2.24000,
,,,0.000155220000,   2.20000,
,,,0.000155224000,   2.20000,
,,,0.000155228000,   2.16000,
,,,0.000155232000,   2.12000,
,,,0.000155236000,   2.12000,
,,,0.000155240000,   2.08000,
,,,0.000155244000,   2.04000,
,,,0.000155248000,   2.00000,
,,,0.000155252000,   1.96000,
,,,0.000155256000,   1.96000,
,,,0.000155260000,   1.92000,
,,,0.000155264000,   1.88000,
,,,0.000155268000,   1.84000,
,,,0.000155272000,   1.80000,
,,,0.000155276000,   1.76000,
,,,0.000155280000,   1.72000,
,,,0.000155284000,   1.68000,
,,,0.000155288000,   1.64000,
,,,0.000155292000,   1.56000,
,,,0.000155296000,   1.56000,
,,,0.000155300000,   1.52000,
,,,0.000155304000,   1.44000,
,,,0.000155308000,   1.40000,
,,,0.000155312000,   1.36000,
,,,0.000155316000,   1.28000,
,,,0.000155320000,   1.24000,
,,,0.000155324000,   1.20000,
,,,0.000155328000,   1.16000,
,,,0.000155332000,   1.12000,
,,,0.000155336000,   1.04000,
,,,0.000155340000,   1.00000,
,,,0.000155344000,   0.96000,
,,,0.000155348000,   0.88000,
,,,0.000155352000,   0.80000,
,,,0.000155356000,   0.76000,
,,,0.000155360000,   0.72000,
,,,0.000155364000,   0.64000,
,,,0.000155368000,   0.60000,
,,,0.000155372000,   0.56000,
,,,0.000155376000,   0.48000,
,,,0.000155380000,   0.40000,
,,,0.000155384000,   0.36000,
,,,0.000155388000,   0.28000,
,,,0.000155392000,   0.28000,
,,,0.000155396000,   0.16000,
,,,0.000155400000,   0.12000,
,,,0.000155404000,   0.08000,
,,,0.000155408000,   0.00000,
,,,0.000155412000,  -0.08000,
,,,0.000155416000,  -0.12000,
,,,0.000155420000,  -0.20000,
,,,0.000155424000,  -0.24000,
,,,0.000155428000,  -0.32000,
,,,0.000155432000,  -0.36000,
,,,0.000155436000,  -0.40000,
,,,0.000155440000,  -0.48000,
,,,0.000155444000,  -0.56000,
,,,0.000155448000,  -0.60000,
,,,0.000155452000,  -0.68000,
,,,0.000155456000,  -0.72000,
,,,0.000155460000,  -0.76000,
,,,0.000155464000,  -0.84000,
,,,0.000155468000,  -0.88000,
,,,0.000155472000,  -0.92000,
,,,0.000155476000,  -1.00000,
,,,0.000155480000,  -1.04000,
,,,0.000155484000,  -1.12000,
,,,0.000155488000,  -1.16000,
,,,0.000155492000,  -1.20000,
,,,0.000155496000,  -1.24000,
,,,0.000155500000,  -1.32000,
,,,0.000155504000,  -1.36000,
,,,0.000155508000,  -1.44000,
,,,0.000155512000,  -1.44000,
,,,0.000155516000,  -1.52000,
,,,0.000155520000,  -1.56000,
,,,0.000155524000,  -1.64000,
,,,0.000155528000,  -1.64000,
,,,0.000155532000,  -1.68000,
,,,0.000155536000,  -1.72000,
,,,0.000155540000,  -1.76000,
,,,0.000155544000,  -1.80000,
,,,0.000155548000,  -1.88000,
,,,0.000155552000,  -1.88000,
,,,0.000155556000,  -1.92000,
,,,0.000155560000,  -1.96000,
,,,0.000155564000,  -2.00000,
,,,0.000155568000,  -2.04000,
,,,0.000155572000,  -2.04000,
,,,0.000155576000,  -2.08000,
,,,0.000155580000,  -2.12000,
,,,0.000155584000,  -2.16000,
,,,0.000155588000,  -2.16000,
,,,0.000155592000,  -2.16000,
,,,0.000155596000,  -2.20000,
,,,0.000155600000,  -2.24000,
,,,0.000155604000,  -2.28000,
,,,0.000155608000,  -2.28000,
,,,0.000155612000,  -2.28000,
,,,0.000155616000,  -2.28000,
,,,0.000155620000,  -2.32000,
,,,0.000155624000,  -2.32000,
,,,0.000155628000,  -2.36000,
,,,0.000155632000,  -2.36000,
,,,0.000155636000,  -2.36000,
,,,0.000155640000,  -2.36000,
,,,0.000155644000,  -2.40000,
,,,0.000155648000,  -2.36000,
,,,0.000155652000,  -2.40000,
,,,0.000155656000,  -2.40000,
,,,0.000155660000,  -2.40000,
,,,0.000155664000,  -2.36000,
,,,0.000155668000,  -2.40000,
,,,0.000155672000,  -2.36000,
,,,0.000155676000,  -2.40000,
,,,0.000155680000,  -2.36000,
,,,0.000155684000,  -2.36000,
,,,0.000155688000,  -2.32000,
,,,0.000155692000,  -2.32000,
,,,0.000155696000,  -2.32000,
,,,0.000155700000,  -2.28000,
,,,0.000155704000,  -2.28000,
,,,0.000155708000,  -2.28000,
,,,0.000155712000,  -2.24000,
,,,0.000155716000,  -2.24000,
,,,0.000155720000,  -2.20000,
,,,0.000155724000,  -2.16000,
,,,0.000155728000,  -2.16000,
,,,0.000155732000,  -2.12000,
,,,0.000155736000,  -2.08000,
,,,0.000155740000,  -2.08000,
,,,0.000155744000,  -2.00000,
,,,0.000155748000,  -2.00000,
,,,0.000155752000,  -1.96000,
,,,0.000155756000,  -1.92000,
,,,0.000155760000,  -1.88000,
,,,0.000155764000,  -1.84000,
,,,0.000155768000,  -1.80000,
,,,0.000155772000,  -1.80000,
,,,0.000155776000,  -1.76000,
,,,0.000155780000,  -1.68000,
,,,0.000155784000,  -1.64000,
,,,0.000155788000,  -1.60000,
,,,0.000155792000,  -1.60000,
,,,0.000155796000,  -1.48000,
,,,0.000155800000,  -1.44000,
,,,0.000155804000,  -1.44000,
,,,0.000155808000,  -1.36000,
,,,0.000155812000,  -1.32000,
,,,0.000155816000,  -1.28000,
,,,0.000155820000,  -1.20000,
,,,0.000155824000,  -1.16000,
,,,0.000155828000,  -1.12000,
,,,0.000155832000,  -1.08000,
,,,0.000155836000,  -1.00000,
,,,0.000155840000,  -0.96000,
,,,0.000155844000,  -0.88000,
,,,0.000155848000,  -0.84000,
,,,0.000155852000,  -0.80000,
,,,0.000155856000,  -0.76000,
,,,0.000155860000,  -0.68000,
,,,0.000155864000,  -0.60000,
,,,0.000155868000,  -0.56000,
,,,0.000155872000,  -0.48000,
,,,0.000155876000,  -0.44000,
,,,0.000155880000,  -0.36000,
,,,0.000155884000,  -0.32000,
,,,0.000155888000,  -0.28000,
,,,0.000155892000,  -0.20000,
,,,0.000155896000,  -0.12000,
,,,0.000155900000,  -0.08000,
,,,0.000155904000,  -0.04000,
,,,0.000155908000,   0.04000,
,,,0.000155912000,   0.08000,
,,,0.000155916000,   0.16000,
,,,0.000155920000,   0.20000,
,,,0.000155924000,   0.28000,
,,,0.000155928000,   0.32000,
,,,0.000155932000,   0.40000,
,,,0.000155936000,   0.48000,
,,,0.000155940000,   0.52000,
,,,0.000155944000,   0.60000,
,,,0.000155948000,   0.64000,
,,,0.000155952000,   0.72000,
,,,0.000155956000,   0.76000,
,,,0.000155960000,   0.80000,
,,,0.000155964000,   0.88000,
,,,0.000155968000,   0.92000,
,,,0.000155972000,   1.00000,
,,,0.000155976000,   1.04000,
,,,0.000155980000,   1.12000,
,,,0.000155984000,   1.16000,
,,,0.000155988000,   1.20000,
,,,0.000155992000,   1.24000,
,,,0.000155996000,   1.32000,
,,,0.000156000000,   1.36000,
,,,0.000156004000,   1.40000,
,,,0.000156008000,   1.44000,
,,,0.000156012000,   1.48000,
,,,0.000156016000,   1.56000,
,,,0.000156020000,   1.60000,
,,,0.000156024000,   1.64000,
,,,0.000156028000,   1.64000,
,,,0.000156032000,   1.72000,
,,,0.000156036000,   1.76000,
,,,0.000156040000,   1.80000,
,,,0.000156044000,   1.84000,
,,,0.000156048000,   1.88000,
,,,0.000156052000,   1.92000,
,,,0.000156056000,   1.96000,
,,,0.000156060000,   1.96000,
,,,0.000156064000,   2.00000,
,,,0.000156068000,   2.04000,
,,,0.000156072000,   2.08000,
,,,0.000156076000,   2.08000,
,,,0.000156080000,   2.12000,
,,,0.000156084000,   2.12000,
,,,0.000156088000,   2.16000,
,,,0.000156092000,   2.20000,
,,,0.000156096000,   2.20000,
,,,0.000156100000,   2.24000,
,,,0.000156104000,   2.24000,
,,,0.000156108000,   2.28000,
,,,0.000156112000,   2.32000,
,,,0.000156116000,   2.32000,
,,,0.000156120000,   2.32000,
,,,0.000156124000,   2.36000,
,,,0.000156128000,   2.36000,
,,,0.000156132000,   2.36000,
,,,0.000156136000,   2.36000,
,,,0.000156140000,   2.36000,
,,,0.000156144000,   2.36000,
,,,0.000156148000,   2.40000,
,,,0.000156152000,   2.40000,
,,,0.000156156000,   2.40000,
,,,0.000156160000,   2.40000,
,,,0.000156164000,   2.36000,
,,,0.000156168000,   2.40000,
,,,0.000156172000,   2.40000,
,,,0.000156176000,   2.36000,
,,,0.000156180000,   2.36000,
,,,0.000156184000,   2.36000,
,,,0.000156188000,   2.32000,
,,,0.000156192000,   2.36000,
,,,0.000156196000,   2.32000,
,,,0.000156200000,   2.32000,
,,,0.000156204000,   2.28000,
,,,0.000156208000,   2.28000,
,,,0.000156212000,   2.24000,
,,,0.000156216000,   2.24000,
,,,0.000156220000,   2.20000,
,,,0.000156224000,   2.16000,
,,,0.000156228000,   2.16000,
,,,0.000156232000,   2.16000,
,,,0.000156236000,   2.12000,
,,,0.000156240000,   2.08000,
,,,0.000156244000,   2.04000,
,,,0.000156248000,   2.00000,
,,,0.000156252000,   2.00000,
,,,0.000156256000,   1.92000,
,,,0.000156260000,   1.92000,
,,,0.000156264000,   1.88000,
,,,0.000156268000,   1.84000,
,,,0.000156272000,   1.80000,
,,,0.000156276000,   1.76000,
,,,0.000156280000,   1.72000,
,,,0.000156284000,   1.68000,
,,,0.000156288000,   1.64000,
,,,0.000156292000,   1.60000,
,,,0.000156296000,   1.56000,
,,,0.000156300000,   1.48000,
,,,0.000156304000,   1.44000,
,,,0.000156308000,   1.40000,
,,,0.000156312000,   1.36000,
,,,0.000156316000,   1.28000,
,,,0.000156320000,   1.28000,
,,,0.000156324000,   1.20000,
,,,0.000156328000,   1.16000,
,,,0.000156332000,   1.08000,
,,,0.000156336000,   1.04000,
,,,0.000156340000,   1.00000,
,,,0.000156344000,   0.92000,
,,,0.000156348000,   0.88000,
,,,0.000156352000,   0.84000,
,,,0.000156356000,   0.76000,
,,,0.000156360000,   0.72000,
,,,0.000156364000,   0.64000,
,,,0.000156368000,   0.60000,
,,,0.000156372000,   0.52000,
,,,0.000156376000,   0.48000,
,,,0.000156380000,   0.44000,
,,,0.000156384000,   0.36000,
,,,0.000156388000,   0.32000,
,,,0.000156392000,   0.24000,
,,,0.000156396000,   0.16000,
,,,0.000156400000,   0.12000,
,,,0.000156404000,   0.04000,
,,,0.000156408000,   0.00000,
,,,0.000156412000,  -0.08000,
,,,0.000156416000,  -0.16000,
,,,0.000156420000,  -0.20000,
,,,0.000156424000,  -0.24000,
,,,0.000156428000,  -0.32000,
,,,0.000156432000,  -0.36000,
,,,0.000156436000,  -0.44000,
,,,0.000156440000,  -0.48000,
,,,0.000156444000,  -0.56000,
,,,0.000156448000,  -0.60000,
,,,0.000156452000,  -0.68000,
,,,0.000156456000,  -0.72000,
,,,0.000156460000,  -0.76000,
,,,0.000156464000,  -0.80000,
,,,0.000156468000,  -0.88000,
,,,0.000156472000,  -0.96000,
,,,0.000156476000,  -1.00000,
,,,0.000156480000,  -1.04000,
,,,0.000156484000,  -1.12000,
,,,0.000156488000,  -1.16000,
,,,0.000156492000,  -1.24000,
,,,0.000156496000,  -1.28000,
,,,0.000156500000,  -1.32000,
,,,0.000156504000,  -1.40000,
,,,0.000156508000,  -1.40000,
,,,0.000156512000,  -1.48000,
,,,0.000156516000,  -1.48000,
,,,0.000156520000,  -1.56000,
,,,0.000156524000,  -1.64000,
,,,0.000156528000,  -1.64000,
,,,0.000156532000,  -1.68000,
,,,0.000156536000,  -1.72000,
,,,0.000156540000,  -1.76000,
,,,0.000156544000,  -1.80000,
,,,0.000156548000,  -1.84000,
,,,0.000156552000,  -1.88000,
,,,0.000156556000,  -1.92000,
,,,0.000156560000,  -1.96000,
,,,0.000156564000,  -2.00000,
,,,0.000156568000,  -2.00000,
,,,0.000156572000,  -2.04000,
,,,0.000156576000,  -2.08000,
,,,0.000156580000,  -2.12000,
,,,0.000156584000,  -2.16000,
,,,0.000156588000,  -2.16000,
,,,0.000156592000,  -2.20000,
,,,0.000156596000,  -2.20000,
,,,0.000156600000,  -2.24000,
,,,0.000156604000,  -2.24000,
,,,0.000156608000,  -2.28000,
,,,0.000156612000,  -2.28000,
,,,0.000156616000,  -2.32000,
,,,0.000156620000,  -2.36000,
,,,0.000156624000,  -2.36000,
,,,0.000156628000,  -2.36000,
,,,0.000156632000,  -2.36000,
,,,0.000156636000,  -2.36000,
,,,0.000156640000,  -2.36000,
,,,0.000156644000,  -2.40000,
,,,0.000156648000,  -2.36000,
,,,0.000156652000,  -2.36000,
,,,0.000156656000,  -2.36000,
,,,0.000156660000,  -2.36000,
,,,0.000156664000,  -2.36000,
,,,0.000156668000,  -2.36000,
,,,0.000156672000,  -2.36000,
,,,0.000156676000,  -2.36000,
,,,0.000156680000,  -2.36000,
,,,0.000156684000,  -2.36000,
,,,0.000156688000,  -2.32000,
,,,0.000156692000,  -2.32000,
,,,0.000156696000,  -2.32000,
,,,0.000156700000,  -2.28000,
,,,0.000156704000,  -2.28000,
,,,0.000156708000,  -2.28000,
,,,0.000156712000,  -2.24000,
,,,0.000156716000,  -2.24000,
,,,0.000156720000,  -2.20000,
,,,0.000156724000,  -2.16000,
,,,0.000156728000,  -2.16000,
,,,0.000156732000,  -2.12000,
,,,0.000156736000,  -2.08000,
,,,0.000156740000,  -2.04000,
,,,0.000156744000,  -2.04000,
,,,0.000156748000,  -2.00000,
,,,0.000156752000,  -2.00000,
,,,0.000156756000,  -1.92000,
,,,0.000156760000,  -1.88000,
,,,0.000156764000,  -1.88000,
,,,0.000156768000,  -1.84000,
,,,0.000156772000,  -1.80000,
,,,0.000156776000,  -1.72000,
,,,0.000156780000,  -1.68000,
,,,0.000156784000,  -1.64000,
,,,0.000156788000,  -1.60000,
,,,0.000156792000,  -1.56000,
,,,0.000156796000,  -1.52000,
,,,0.000156800000,  -1.48000,
,,,0.000156804000,  -1.40000,
,,,0.000156808000,  -1.40000,
,,,0.000156812000,  -1.36000,
,,,0.000156816000,  -1.28000,
,,,0.000156820000,  -1.24000,
,,,0.000156824000,  -1.16000,
,,,0.000156828000,  -1.12000,
,,,0.000156832000,  -1.08000,
,,,0.000156836000,  -1.04000,
,,,0.000156840000,  -0.96000,
,,,0.000156844000,  -0.92000,
,,,0.000156848000,  -0.84000,
,,,0.000156852000,  -0.80000,
,,,0.000156856000,  -0.72000,
,,,0.000156860000,  -0.68000,
,,,0.000156864000,  -0.64000,
,,,0.000156868000,  -0.56000,
,,,0.000156872000,  -0.52000,
,,,0.000156876000,  -0.44000,
,,,0.000156880000,  -0.36000,
,,,0.000156884000,  -0.32000,
,,,0.000156888000,  -0.24000,
,,,0.000156892000,  -0.20000,
,,,0.000156896000,  -0.12000,
,,,0.000156900000,  -0.08000,
,,,0.000156904000,   0.00000,
,,,0.000156908000,   0.04000,
,,,0.000156912000,   0.12000,
,,,0.000156916000,   0.16000,
,,,0.000156920000,   0.20000,
,,,0.000156924000,   0.28000,
,,,0.000156928000,   0.36000,
,,,0.000156932000,   0.40000,
,,,0.000156936000,   0.48000,
,,,0.000156940000,   0.52000,
,,,0.000156944000,   0.60000,
,,,0.000156948000,   0.64000,
,,,0.000156952000,   0.72000,
,,,0.000156956000,   0.76000,
,,,0.000156960000,   0.80000,
,,,0.000156964000,   0.84000,
,,,0.000156968000,   0.92000,
,,,0.000156972000,   0.96000,
,,,0.000156976000,   1.04000,
,,,0.000156980000,   1.08000,
,,,0.000156984000,   1.16000,
,,,0.000156988000,   1.20000,
,,,0.000156992000,   1.24000,
,,,0.000156996000,   1.32000,
,,,0.000157000000,   1.36000,
,,,0.000157004000,   1.40000,
,,,0.000157008000,   1.44000,
,,,0.000157012000,   1.48000,
,,,0.000157016000,   1.56000,
,,,0.000157020000,   1.56000,
,,,0.000157024000,   1.64000,
,,,0.000157028000,   1.68000,
,,,0.000157032000,   1.72000,
,,,0.000157036000,   1.76000,
,,,0.000157040000,   1.80000,
,,,0.000157044000,   1.80000,
,,,0.000157048000,   1.88000,
,,,0.000157052000,   1.92000,
,,,0.000157056000,   1.92000,
,,,0.000157060000,   2.00000,
,,,0.000157064000,   2.00000,
,,,0.000157068000,   2.04000,
,,,0.000157072000,   2.08000,
,,,0.000157076000,   2.08000,
,,,0.000157080000,   2.12000,
,,,0.000157084000,   2.16000,
,,,0.000157088000,   2.16000,
,,,0.000157092000,   2.20000,
,,,0.000157096000,   2.24000,
,,,0.000157100000,   2.24000,
,,,0.000157104000,   2.28000,
,,,0.000157108000,   2.28000,
,,,0.000157112000,   2.32000,
,,,0.000157116000,   2.32000,
,,,0.000157120000,   2.32000,
,,,0.000157124000,   2.32000,
,,,0.000157128000,   2.36000,
,,,0.000157132000,   2.36000,
,,,0.000157136000,   2.40000,
,,,0.000157140000,   2.40000,
,,,0.000157144000,   2.40000,
,,,0.000157148000,   2.40000,
,,,0.000157152000,   2.40000,
,,,0.000157156000,   2.40000,
,,,0.000157160000,   2.40000,
,,,0.000157164000,   2.40000,
,,,0.000157168000,   2.40000,
,,,0.000157172000,   2.36000,
,,,0.000157176000,   2.40000,
,,,0.000157180000,   2.36000,
,,,0.000157184000,   2.36000,
,,,0.000157188000,   2.36000,
,,,0.000157192000,   2.36000,
,,,0.000157196000,   2.32000,
,,,0.000157200000,   2.32000,
,,,0.000157204000,   2.28000,
,,,0.000157208000,   2.28000,
,,,0.000157212000,   2.24000,
,,,0.000157216000,   2.24000,
,,,0.000157220000,   2.24000,
,,,0.000157224000,   2.20000,
,,,0.000157228000,   2.16000,
,,,0.000157232000,   2.16000,
,,,0.000157236000,   2.08000,
,,,0.000157240000,   2.08000,
,,,0.000157244000,   2.04000,
,,,0.000157248000,   2.00000,
,,,0.000157252000,   2.00000,
,,,0.000157256000,   1.96000,
,,,0.000157260000,   1.92000,
,,,0.000157264000,   1.88000,
,,,0.000157268000,   1.84000,
,,,0.000157272000,   1.80000,
,,,0.000157276000,   1.76000,
,,,0.000157280000,   1.72000,
,,,0.000157284000,   1.68000,
,,,0.000157288000,   1.64000,
,,,0.000157292000,   1.60000,
,,,0.000157296000,   1.52000,
,,,0.000157300000,   1.52000,
,,,0.000157304000,   1.44000,
,,,0.000157308000,   1.40000,
,,,0.000157312000,   1.36000,
,,,0.000157316000,   1.32000,
,,,0.000157320000,   1.24000,
,,,0.000157324000,   1.20000,
,,,0.000157328000,   1.12000,
,,,0.000157332000,   1.08000,
,,,0.000157336000,   1.04000,
,,,0.000157340000,   1.00000,
,,,0.000157344000,   0.92000,
,,,0.000157348000,   0.88000,
,,,0.000157352000,   0.84000,
,,,0.000157356000,   0.76000,
,,,0.000157360000,   0.72000,
,,,0.000157364000,   0.64000,
,,,0.000157368000,   0.60000,
,,,0.000157372000,   0.52000,
,,,0.000157376000,   0.48000,
,,,0.000157380000,   0.44000,
,,,0.000157384000,   0.36000,
,,,0.000157388000,   0.32000,
,,,0.000157392000,   0.24000,
,,,0.000157396000,   0.16000,
,,,0.000157400000,   0.12000,
,,,0.000157404000,   0.04000,
,,,0.000157408000,  -0.04000,
,,,0.000157412000,  -0.08000,
,,,0.000157416000,  -0.12000,
,,,0.000157420000,  -0.16000,
,,,0.000157424000,  -0.24000,
,,,0.000157428000,  -0.32000,
,,,0.000157432000,  -0.36000,
,,,0.000157436000,  -0.40000,
,,,0.000157440000,  -0.48000,
,,,0.000157444000,  -0.56000,
,,,0.000157448000,  -0.60000,
,,,0.000157452000,  -0.64000,
,,,0.000157456000,  -0.72000,
,,,0.000157460000,  -0.76000,
,,,0.000157464000,  -0.84000,
,,,0.000157468000,  -0.88000,
,,,0.000157472000,  -0.96000,
,,,0.000157476000,  -1.00000,
,,,0.000157480000,  -1.04000,
,,,0.000157484000,  -1.12000,
,,,0.000157488000,  -1.16000,
,,,0.000157492000,  -1.24000,
,,,0.000157496000,  -1.28000,
,,,0.000157500000,  -1.32000,
,,,0.000157504000,  -1.36000,
,,,0.000157508000,  -1.40000,
,,,0.000157512000,  -1.44000,
,,,0.000157516000,  -1.52000,
,,,0.000157520000,  -1.56000,
,,,0.000157524000,  -1.60000,
,,,0.000157528000,  -1.64000,
,,,0.000157532000,  -1.72000,
,,,0.000157536000,  -1.76000,
,,,0.000157540000,  -1.80000,
,,,0.000157544000,  -1.80000,
,,,0.000157548000,  -1.84000,
,,,0.000157552000,  -1.88000,
,,,0.000157556000,  -1.92000,
,,,0.000157560000,  -1.96000,
,,,0.000157564000,  -2.00000,
,,,0.000157568000,  -2.04000,
,,,0.000157572000,  -2.04000,
,,,0.000157576000,  -2.08000,
,,,0.000157580000,  -2.12000,
,,,0.000157584000,  -2.12000,
,,,0.000157588000,  -2.16000,
,,,0.000157592000,  -2.20000,
,,,0.000157596000,  -2.24000,
,,,0.000157600000,  -2.24000,
,,,0.000157604000,  -2.24000,
,,,0.000157608000,  -2.28000,
,,,0.000157612000,  -2.28000,
