G3/data5/ALL0073/F0073CH2.CSV

Record Length,2.500000e+03,,   0.000030000000,   0.16000,
Sample Interval,4.000000e-08,,   0.000030040000,   0.24000,
Trigger Point,-7.500000000000e+02,,   0.000030080000,   0.32000,
,,,   0.000030120000,   0.32000,
,,,   0.000030160000,   0.40000,
,,,   0.000030200000,   0.48000,
Source,CH2,,   0.000030240000,   0.56000,
Vertical Units,V,,   0.000030280000,   0.64000,
Vertical Scale,2.000000e+00,,   0.000030320000,   0.64000,
Vertical Offset,0.000000e+00,,   0.000030360000,   0.72000,
Horizontal Units,s,,   0.000030400000,   0.80000,
Horizontal Scale,1.000000e-05,,   0.000030440000,   0.80000,
Pt Fmt,Y,,   0.000030480000,   0.88000,
Yzero,0.000000e+00,,   0.000030520000,   0.96000,
Probe Atten,1.000000e+00,,   0.000030560000,   0.96000,
Model Number,TBS1052B-EDU,,   0.000030600000,   1.04000,
Serial Number,C017060,,   0.000030640000,   1.12000,
Firmware Version,FV:v3.25,,   0.000030680000,   1.12000,
,,,0.000030720000,   1.20000,
,,,0.000030760000,   1.28000,
,,,0.000030800000,   1.28000,
,,,0.000030840000,   1.36000,
,,,0.000030880000,   1.36000,
,,,0.000030920000,   1.44000,
,,,0.000030960000,   1.52000,
,,,0.000031000000,   1.52000,
,,,0.000031040000,   1.60000,
,,,0.000031080000,   1.60000,
,,,0.000031120000,   1.68000,
,,,0.000031160000,   1.68000,
,,,0.000031200000,   1.76000,
,,,0.000031240000,   1.76000,
,,,0.000031280000,   1.84000,
,,,0.000031320000,   1.84000,
,,,0.000031360000,   1.92000,
,,,0.000031400000,   1.92000,
,,,0.000031440000,   2.00000,
,,,0.000031480000,   2.00000,
,,,0.000031520000,   2.08000,
,,,0.000031560000,   2.08000,
,,,0.000031600000,   2.08000,
,,,0.000031640000,   2.16000,
,,,0.000031680000,   2.16000,
,,,0.000031720000,   2.16000,
,,,0.000031760000,   2.24000,
,,,0.000031800000,   2.24000,
,,,0.000031840000,   2.24000,
,,,0.000031880000,   2.24000,
,,,0.000031920000,   2.24000,
,,,0.000031960000,   2.32000,
,,,0.000032000000,   2.32000,
,,,0.000032040000,   2.32000,
,,,0.000032080000,   2.32000,
,,,0.000032120000,   2.32000,
,,,0.000032160000,   2.40000,
,,,0.000032200000,   2.40000,
,,,0.000032240000,   2.32000,
,,,0.000032280000,   2.40000,
,,,0.000032320000,   2.40000,
,,,0.000032360000,   2.40000,
,,,0.000032400000,   2.40000,
,,,0.000032440000,   2.40000,
,,,0.000032480000,   2.40000,
,,,0.000032520000,   2.40000,
,,,0.000032560000,   2.40000,
,,,0.000032600000,   2.40000,
,,,0.000032640000,   2.40000,
,,,0.000032680000,   2.32000,
,,,0.000032720000,   2.32000,
,,,0.000032760000,   2.32000,
,,,0.000032800000,   2.32000,
,,,0.000032840000,   2.32000,
,,,0.000032880000,   2.32000,
,,,0.000032920000,   2.24000,
,,,0.000032960000,   2.24000,
,,,0.000033000000,   2.24000,
,,,0.000033040000,   2.24000,
,,,0.000033080000,   2.16000,
,,,0.000033120000,   2.16000,
,,,0.000033160000,   2.16000,
,,,0.000033200000,   2.08000,
,,,0.000033240000,   2.08000,
,,,0.000033280000,   2.00000,
,,,0.000033320000,   2.00000,
,,,0.000033360000,   2.00000,
,,,0.000033400000,   1.92000,
,,,0.000033440000,   1.92000,
,,,0.000033480000,   1.84000,
,,,0.000033520000,   1.84000,
,,,0.000033560000,   1.76000,
,,,0.000033600000,   1.76000,
,,,0.000033640000,   1.68000,
,,,0.000033680000,   1.68000,
,,,0.000033720000,   1.60000,
,,,0.000033760000,   1.60000,
,,,0.000033800000,   1.52000,
,,,0.000033840000,   1.52000,
,,,0.000033880000,   1.44000,
,,,0.000033920000,   1.44000,
,,,0.000033960000,   1.36000,
,,,0.000034000000,   1.28000,
,,,0.000034040000,   1.28000,
,,,0.000034080000,   1.20000,
,,,0.000034120000,   1.12000,
,,,0.000034160000,   1.12000,
,,,0.000034200000,   1.04000,
,,,0.000034240000,   0.96000,
,,,0.000034280000,   0.96000,
,,,0.000034320000,   0.88000,
,,,0.000034360000,   0.80000,
,,,0.000034400000,   0.80000,
,,,0.000034440000,   0.72000,
,,,0.000034480000,   0.64000,
,,,0.000034520000,   0.64000,
,,,0.000034560000,   0.56000,
,,,0.000034600000,   0.48000,
,,,0.000034640000,   0.40000,
,,,0.000034680000,   0.40000,
,,,0.000034720000,   0.32000,
,,,0.000034760000,   0.24000,
,,,0.000034800000,   0.24000,
,,,0.000034840000,   0.16000,
,,,0.000034880000,   0.08000,
,,,0.000034920000,   0.00000,
,,,0.000034960000,  -0.08000,
,,,0.000035000000,  -0.08000,
,,,0.000035040000,  -0.16000,
,,,0.000035080000,  -0.24000,
,,,0.000035120000,  -0.24000,
,,,0.000035160000,  -0.32000,
,,,0.000035200000,  -0.40000,
,,,0.000035240000,  -0.48000,
,,,0.000035280000,  -0.48000,
,,,0.000035320000,  -0.56000,
,,,0.000035360000,  -0.64000,
,,,0.000035400000,  -0.72000,
,,,0.000035440000,  -0.72000,
,,,0.000035480000,  -0.80000,
,,,0.000035520000,  -0.80000,
,,,0.000035560000,  -0.88000,
,,,0.000035600000,  -0.96000,
,,,0.000035640000,  -1.04000,
,,,0.000035680000,  -1.04000,
,,,0.000035720000,  -1.12000,
,,,0.000035760000,  -1.20000,
,,,0.000035800000,  -1.20000,
,,,0.000035840000,  -1.28000,
,,,0.000035880000,  -1.28000,
,,,0.000035920000,  -1.36000,
,,,0.000035960000,  -1.44000,
,,,0.000036000000,  -1.44000,
,,,0.000036040000,  -1.52000,
,,,0.000036080000,  -1.52000,
,,,0.000036120000,  -1.60000,
,,,0.000036160000,  -1.60000,
,,,0.000036200000,  -1.68000,
,,,0.000036240000,  -1.68000,
,,,0.000036280000,  -1.76000,
,,,0.000036320000,  -1.76000,
,,,0.000036360000,  -1.84000,
,,,0.000036400000,  -1.84000,
,,,0.000036440000,  -1.84000,
,,,0.000036480000,  -1.92000,
,,,0.000036520000,  -1.92000,
,,,0.000036560000,  -2.00000,
,,,0.000036600000,  -2.00000,
,,,0.000036640000,  -2.00000,
,,,0.000036680000,  -2.08000,
,,,0.000036720000,  -2.08000,
,,,0.000036760000,  -2.08000,
,,,0.000036800000,  -2.16000,
,,,0.000036840000,  -2.16000,
,,,0.000036880000,  -2.16000,
,,,0.000036920000,  -2.16000,
,,,0.000036960000,  -2.24000,
,,,0.000037000000,  -2.24000,
,,,0.000037040000,  -2.24000,
,,,0.000037080000,  -2.24000,
,,,0.000037120000,  -2.24000,
,,,0.000037160000,  -2.24000,
,,,0.000037200000,  -2.32000,
,,,0.000037240000,  -2.24000,
,,,0.000037280000,  -2.32000,
,,,0.000037320000,  -2.32000,
,,,0.000037360000,  -2.32000,
,,,0.000037400000,  -2.24000,
,,,0.000037440000,  -2.24000,
,,,0.000037480000,  -2.24000,
,,,0.000037520000,  -2.24000,
,,,0.000037560000,  -2.32000,
,,,0.000037600000,  -2.24000,
,,,0.000037640000,  -2.24000,
,,,0.000037680000,  -2.24000,
,,,0.000037720000,  -2.24000,
,,,0.000037760000,  -2.24000,
,,,0.000037800000,  -2.16000,
,,,0.000037840000,  -2.16000,
,,,0.000037880000,  -2.16000,
,,,0.000037920000,  -2.16000,
,,,0.000037960000,  -2.16000,
,,,0.000038000000,  -2.16000,
,,,0.000038040000,  -2.08000,
,,,0.000038080000,  -2.08000,
,,,0.000038120000,  -2.08000,
,,,0.000038160000,  -2.00000,
,,,0.000038200000,  -2.00000,
,,,0.000038240000,  -2.00000,
,,,0.000038280000,  -1.92000,
,,,0.000038320000,  -1.92000,
,,,0.000038360000,  -1.92000,
,,,0.000038400000,  -1.84000,
,,,0.000038440000,  -1.84000,
,,,0.000038480000,  -1.76000,
,,,0.000038520000,  -1.76000,
,,,0.000038560000,  -1.68000,
,,,0.000038600000,  -1.68000,
,,,0.000038640000,  -1.60000,
,,,0.000038680000,  -1.60000,
,,,0.000038720000,  -1.52000,
,,,0.000038760000,  -1.52000,
,,,0.000038800000,  -1.44000,
,,,0.000038840000,  -1.44000,
,,,0.000038880000,  -1.36000,
,,,0.000038920000,  -1.28000,
,,,0.000038960000,  -1.28000,
,,,0.000039000000,  -1.20000,
,,,0.000039040000,  -1.12000,
,,,0.000039080000,  -1.12000,
,,,0.000039120000,  -1.04000,
,,,0.000039160000,  -1.04000,
,,,0.000039200000,  -0.96000,
,,,0.000039240000,  -0.88000,
,,,0.000039280000,  -0.88000,
,,,0.000039320000,  -0.80000,
,,,0.000039360000,  -0.72000,
,,,0.000039400000,  -0.72000,
,,,0.000039440000,  -0.64000,
,,,0.000039480000,  -0.56000,
,,,0.000039520000,  -0.56000,
,,,0.000039560000,  -0.48000,
,,,0.000039600000,  -0.40000,
,,,0.000039640000,  -0.32000,
,,,0.000039680000,  -0.32000,
,,,0.000039720000,  -0.24000,
,,,0.000039760000,  -0.16000,
,,,0.000039800000,  -0.08000,
,,,0.000039840000,  -0.08000,
,,,0.000039880000,   0.00000,
,,,0.000039920000,   0.08000,
,,,0.000039960000,   0.16000,
,,,0.000040000000,   0.16000,
,,,0.000040040000,   0.24000,
,,,0.000040080000,   0.32000,
,,,0.000040120000,   0.40000,
,,,0.000040160000,   0.40000,
,,,0.000040200000,   0.48000,
,,,0.000040240000,   0.56000,
,,,0.000040280000,   0.56000,
,,,0.000040320000,   0.64000,
,,,0.000040360000,   0.72000,
,,,0.000040400000,   0.80000,
,,,0.000040440000,   0.80000,
,,,0.000040480000,   0.88000,
,,,0.000040520000,   0.96000,
,,,0.000040560000,   0.96000,
,,,0.000040600000,   1.04000,
,,,0.000040640000,   1.12000,
,,,0.000040680000,   1.12000,
,,,0.000040720000,   1.20000,
,,,0.000040760000,   1.28000,
,,,0.000040800000,   1.28000,
,,,0.000040840000,   1.36000,
,,,0.000040880000,   1.36000,
,,,0.000040920000,   1.44000,
,,,0.000040960000,   1.52000,
,,,0.000041000000,   1.52000,
,,,0.000041040000,   1.60000,
,,,0.000041080000,   1.60000,
,,,0.000041120000,   1.68000,
,,,0.000041160000,   1.68000,
,,,0.000041200000,   1.76000,
,,,0.000041240000,   1.76000,
,,,0.000041280000,   1.84000,
,,,0.000041320000,   1.84000,
,,,0.000041360000,   1.92000,
,,,0.000041400000,   1.92000,
,,,0.000041440000,   2.00000,
,,,0.000041480000,   2.00000,
,,,0.000041520000,   2.08000,
,,,0.000041560000,   2.08000,
,,,0.000041600000,   2.08000,
,,,0.000041640000,   2.08000,
,,,0.000041680000,   2.16000,
,,,0.000041720000,   2.16000,
,,,0.000041760000,   2.16000,
,,,0.000041800000,   2.24000,
,,,0.000041840000,   2.24000,
,,,0.000041880000,   2.24000,
,,,0.000041920000,   2.24000,
,,,0.000041960000,   2.32000,
,,,0.000042000000,   2.32000,
,,,0.000042040000,   2.32000,
,,,0.000042080000,   2.32000,
,,,0.000042120000,   2.32000,
,,,0.000042160000,   2.32000,
,,,0.000042200000,   2.40000,
,,,0.000042240000,   2.40000,
,,,0.000042280000,   2.40000,
,,,0.000042320000,   2.40000,
,,,0.000042360000,   2.40000,
,,,0.000042400000,   2.40000,
,,,0.000042440000,   2.40000,
,,,0.000042480000,   2.40000,
,,,0.000042520000,   2.40000,
,,,0.000042560000,   2.40000,
,,,0.000042600000,   2.40000,
,,,0.000042640000,   2.40000,
,,,0.000042680000,   2.32000,
,,,0.000042720000,   2.32000,
,,,0.000042760000,   2.32000,
,,,0.000042800000,   2.32000,
,,,0.000042840000,   2.32000,
,,,0.000042880000,   2.32000,
,,,0.000042920000,   2.24000,
,,,0.000042960000,   2.24000,
,,,0.000043000000,   2.24000,
,,,0.000043040000,   2.16000,
,,,0.000043080000,   2.16000,
,,,0.000043120000,   2.16000,
,,,0.000043160000,   2.08000,
,,,0.000043200000,   2.08000,
,,,0.000043240000,   2.08000,
,,,0.000043280000,   2.00000,
,,,0.000043320000,   2.00000,
,,,0.000043360000,   2.00000,
,,,0.000043400000,   1.92000,
,,,0.000043440000,   1.92000,
,,,0.000043480000,   1.84000,
,,,0.000043520000,   1.84000,
,,,0.000043560000,   1.76000,
,,,0.000043600000,   1.76000,
,,,0.000043640000,   1.68000,
,,,0.000043680000,   1.68000,
,,,0.000043720000,   1.60000,
,,,0.000043760000,   1.60000,
,,,0.000043800000,   1.52000,
,,,0.000043840000,   1.52000,
,,,0.000043880000,   1.44000,
,,,0.000043920000,   1.44000,
,,,0.000043960000,   1.36000,
,,,0.000044000000,   1.28000,
,,,0.000044040000,   1.28000,
,,,0.000044080000,   1.20000,
,,,0.000044120000,   1.12000,
,,,0.000044160000,   1.12000,
,,,0.000044200000,   1.04000,
,,,0.000044240000,   1.04000,
,,,0.000044280000,   0.96000,
,,,0.000044320000,   0.88000,
,,,0.000044360000,   0.80000,
,,,0.000044400000,   0.80000,
,,,0.000044440000,   0.72000,
,,,0.000044480000,   0.64000,
,,,0.000044520000,   0.64000,
,,,0.000044560000,   0.56000,
,,,0.000044600000,   0.48000,
,,,0.000044640000,   0.40000,
,,,0.000044680000,   0.40000,
,,,0.000044720000,   0.32000,
,,,0.000044760000,   0.24000,
,,,0.000044800000,   0.16000,
,,,0.000044840000,   0.08000,
,,,0.000044880000,   0.08000,
,,,0.000044920000,   0.00000,
,,,0.000044960000,  -0.08000,
,,,0.000045000000,  -0.08000,
,,,0.000045040000,  -0.16000,
,,,0.000045080000,  -0.24000,
,,,0.000045120000,  -0.32000,
,,,0.000045160000,  -0.32000,
,,,0.000045200000,  -0.40000,
,,,0.000045240000,  -0.48000,
,,,0.000045280000,  -0.48000,
,,,0.000045320000,  -0.56000,
,,,0.000045360000,  -0.64000,
,,,0.000045400000,  -0.64000,
,,,0.000045440000,  -0.72000,
,,,0.000045480000,  -0.80000,
,,,0.000045520000,  -0.80000,
,,,0.000045560000,  -0.88000,
,,,0.000045600000,  -0.96000,
,,,0.000045640000,  -1.04000,
,,,0.000045680000,  -1.04000,
,,,0.000045720000,  -1.12000,
,,,0.000045760000,  -1.20000,
,,,0.000045800000,  -1.20000,
,,,0.000045840000,  -1.28000,
,,,0.000045880000,  -1.28000,
,,,0.000045920000,  -1.36000,
,,,0.000045960000,  -1.36000,
,,,0.000046000000,  -1.44000,
,,,0.000046040000,  -1.52000,
,,,0.000046080000,  -1.52000,
,,,0.000046120000,  -1.60000,
,,,0.000046160000,  -1.60000,
,,,0.000046200000,  -1.68000,
,,,0.000046240000,  -1.68000,
,,,0.000046280000,  -1.76000,
,,,0.000046320000,  -1.76000,
,,,0.000046360000,  -1.76000,
,,,0.000046400000,  -1.84000,
,,,0.000046440000,  -1.84000,
,,,0.000046480000,  -1.92000,
,,,0.000046520000,  -1.92000,
,,,0.000046560000,  -2.00000,
,,,0.000046600000,  -2.00000,
,,,0.000046640000,  -2.08000,
,,,0.000046680000,  -2.08000,
,,,0.000046720000,  -2.08000,
,,,0.000046760000,  -2.08000,
,,,0.000046800000,  -2.08000,
,,,0.000046840000,  -2.16000,
,,,0.000046880000,  -2.16000,
,,,0.000046920000,  -2.16000,
,,,0.000046960000,  -2.24000,
,,,0.000047000000,  -2.24000,
,,,0.000047040000,  -2.24000,
,,,0.000047080000,  -2.24000,
,,,0.000047120000,  -2.24000,
,,,0.000047160000,  -2.24000,
,,,0.000047200000,  -2.24000,
,,,0.000047240000,  -2.32000,
,,,0.000047280000,  -2.32000,
,,,0.000047320000,  -2.32000,
,,,0.000047360000,  -2.32000,
,,,0.000047400000,  -2.24000,
,,,0.000047440000,  -2.32000,
,,,0.000047480000,  -2.32000,
,,,0.000047520000,  -2.32000,
,,,0.000047560000,  -2.32000,
,,,0.000047600000,  -2.24000,
,,,0.000047640000,  -2.24000,
,,,0.000047680000,  -2.24000,
,,,0.000047720000,  -2.24000,
,,,0.000047760000,  -2.24000,
,,,0.000047800000,  -2.24000,
,,,0.000047840000,  -2.24000,
,,,0.000047880000,  -2.16000,
,,,0.000047920000,  -2.16000,
,,,0.000047960000,  -2.16000,
,,,0.000048000000,  -2.16000,
,,,0.000048040000,  -2.08000,
,,,0.000048080000,  -2.08000,
,,,0.000048120000,  -2.08000,
,,,0.000048160000,  -2.08000,
,,,0.000048200000,  -2.00000,
,,,0.000048240000,  -2.00000,
,,,0.000048280000,  -1.92000,
,,,0.000048320000,  -1.92000,
,,,0.000048360000,  -1.92000,
,,,0.000048400000,  -1.84000,
,,,0.000048440000,  -1.84000,
,,,0.000048480000,  -1.76000,
,,,0.000048520000,  -1.76000,
,,,0.000048560000,  -1.68000,
,,,0.000048600000,  -1.68000,
,,,0.000048640000,  -1.60000,
,,,0.000048680000,  -1.60000,
,,,0.000048720000,  -1.52000,
,,,0.000048760000,  -1.52000,
,,,0.000048800000,  -1.44000,
,,,0.000048840000,  -1.44000,
,,,0.000048880000,  -1.36000,
,,,0.000048920000,  -1.28000,
,,,0.000048960000,  -1.28000,
,,,0.000049000000,  -1.20000,
,,,0.000049040000,  -1.20000,
,,,0.000049080000,  -1.12000,
,,,0.000049120000,  -1.04000,
,,,0.000049160000,  -1.04000,
,,,0.000049200000,  -0.96000,
,,,0.000049240000,  -0.88000,
,,,0.000049280000,  -0.88000,
,,,0.000049320000,  -0.80000,
,,,0.000049360000,  -0.72000,
,,,0.000049400000,  -0.72000,
,,,0.000049440000,  -0.64000,
,,,0.000049480000,  -0.56000,
,,,0.000049520000,  -0.56000,
,,,0.000049560000,  -0.48000,
,,,0.000049600000,  -0.40000,
,,,0.000049640000,  -0.32000,
,,,0.000049680000,  -0.24000,
,,,0.000049720000,  -0.24000,
,,,0.000049760000,  -0.16000,
,,,0.000049800000,  -0.16000,
,,,0.000049840000,  -0.08000,
,,,0.000049880000,   0.00000,
,,,0.000049920000,   0.08000,
,,,0.000049960000,   0.16000,
,,,0.000050000000,   0.16000,
,,,0.000050040000,   0.24000,
,,,0.000050080000,   0.32000,
,,,0.000050120000,   0.32000,
,,,0.000050160000,   0.40000,
,,,0.000050200000,   0.48000,
,,,0.000050240000,   0.48000,
,,,0.000050280000,   0.56000,
,,,0.000050320000,   0.64000,
,,,0.000050360000,   0.72000,
,,,0.000050400000,   0.80000,
,,,0.000050440000,   0.80000,
,,,0.000050480000,   0.88000,
,,,0.000050520000,   0.96000,
,,,0.000050560000,   0.96000,
,,,0.000050600000,   1.04000,
,,,0.000050640000,   1.12000,
,,,0.000050680000,   1.12000,
,,,0.000050720000,   1.20000,
,,,0.000050760000,   1.28000,
,,,0.000050800000,   1.28000,
,,,0.000050840000,   1.36000,
,,,0.000050880000,   1.36000,
,,,0.000050920000,   1.44000,
,,,0.000050960000,   1.52000,
,,,0.000051000000,   1.52000,
,,,0.000051040000,   1.60000,
,,,0.000051080000,   1.60000,
,,,0.000051120000,   1.68000,
,,,0.000051160000,   1.68000,
,,,0.000051200000,   1.76000,
,,,0.000051240000,   1.76000,
,,,0.000051280000,   1.84000,
,,,0.000051320000,   1.84000,
,,,0.000051360000,   1.92000,
,,,0.000051400000,   1.92000,
,,,0.000051440000,   1.92000,
,,,0.000051480000,   2.00000,
,,,0.000051520000,   2.00000,
,,,0.000051560000,   2.08000,
,,,0.000051600000,   2.08000,
,,,0.000051640000,   2.08000,
,,,0.000051680000,   2.16000,
,,,0.000051720000,   2.16000,
,,,0.000051760000,   2.16000,
,,,0.000051800000,   2.24000,
,,,0.000051840000,   2.24000,
,,,0.000051880000,   2.24000,
,,,0.000051920000,   2.32000,
,,,0.000051960000,   2.32000,
,,,0.000052000000,   2.32000,
,,,0.000052040000,   2.32000,
,,,0.000052080000,   2.32000,
,,,0.000052120000,   2.32000,
,,,0.000052160000,   2.32000,
,,,0.000052200000,   2.40000,
,,,0.000052240000,   2.40000,
,,,0.000052280000,   2.40000,
,,,0.000052320000,   2.40000,
,,,0.000052360000,   2.40000,
,,,0.000052400000,   2.40000,
,,,0.000052440000,   2.40000,
,,,0.000052480000,   2.40000,
,,,0.000052520000,   2.40000,
,,,0.000052560000,   2.40000,
,,,0.000052600000,   2.40000,
,,,0.000052640000,   2.32000,
,,,0.000052680000,   2.32000,
,,,0.000052720000,   2.32000,
,,,0.000052760000,   2.32000,
,,,0.000052800000,   2.32000,
,,,0.000052840000,   2.32000,
,,,0.000052880000,   2.32000,
,,,0.000052920000,   2.24000,
,,,0.000052960000,   2.24000,
,,,0.000053000000,   2.24000,
,,,0.000053040000,   2.16000,
,,,0.000053080000,   2.16000,
,,,0.000053120000,   2.16000,
,,,0.000053160000,   2.16000,
,,,0.000053200000,   2.08000,
,,,0.000053240000,   2.08000,
,,,0.000053280000,   2.08000,
,,,0.000053320000,   2.00000,
,,,0.000053360000,   2.00000,
,,,0.000053400000,   1.92000,
,,,0.000053440000,   1.92000,
,,,0.000053480000,   1.84000,
,,,0.000053520000,   1.84000,
,,,0.000053560000,   1.76000,
,,,0.000053600000,   1.76000,
,,,0.000053640000,   1.68000,
,,,0.000053680000,   1.68000,
,,,0.000053720000,   1.60000,
,,,0.000053760000,   1.60000,
,,,0.000053800000,   1.52000,
,,,0.000053840000,   1.52000,
,,,0.000053880000,   1.44000,
,,,0.000053920000,   1.36000,
,,,0.000053960000,   1.36000,
,,,0.000054000000,   1.28000,
,,,0.000054040000,   1.28000,
,,,0.000054080000,   1.20000,
,,,0.000054120000,   1.12000,
,,,0.000054160000,   1.12000,
,,,0.000054200000,   1.04000,
,,,0.000054240000,   1.04000,
,,,0.000054280000,   0.96000,
,,,0.000054320000,   0.88000,
,,,0.000054360000,   0.80000,
,,,0.000054400000,   0.80000,
,,,0.000054440000,   0.72000,
,,,0.000054480000,   0.64000,
,,,0.000054520000,   0.64000,
,,,0.000054560000,   0.56000,
,,,0.000054600000,   0.48000,
,,,0.000054640000,   0.40000,
,,,0.000054680000,   0.40000,
,,,0.000054720000,   0.32000,
,,,0.000054760000,   0.24000,
,,,0.000054800000,   0.16000,
,,,0.000054840000,   0.16000,
,,,0.000054880000,   0.08000,
,,,0.000054920000,   0.00000,
,,,0.000054960000,   0.00000,
,,,0.000055000000,  -0.08000,
,,,0.000055040000,  -0.16000,
,,,0.000055080000,  -0.24000,
,,,0.000055120000,  -0.32000,
,,,0.000055160000,  -0.32000,
,,,0.000055200000,  -0.40000,
,,,0.000055240000,  -0.48000,
,,,0.000055280000,  -0.48000,
,,,0.000055320000,  -0.56000,
,,,0.000055360000,  -0.64000,
,,,0.000055400000,  -0.72000,
,,,0.000055440000,  -0.72000,
,,,0.000055480000,  -0.80000,
,,,0.000055520000,  -0.88000,
,,,0.000055560000,  -0.88000,
,,,0.000055600000,  -0.96000,
,,,0.000055640000,  -0.96000,
,,,0.000055680000,  -1.04000,
,,,0.000055720000,  -1.12000,
,,,0.000055760000,  -1.12000,
,,,0.000055800000,  -1.20000,
,,,0.000055840000,  -1.28000,
,,,0.000055880000,  -1.28000,
,,,0.000055920000,  -1.36000,
,,,0.000055960000,  -1.44000,
,,,0.000056000000,  -1.44000,
,,,0.000056040000,  -1.44000,
,,,0.000056080000,  -1.52000,
,,,0.000056120000,  -1.60000,
