G3/data4/ALL0044/F0044CH1.CSV

Record Length,2.500000e+03,,   0.000110000000,   1.40000,
Sample Interval,4.000000e-08,,   0.000110040000,   1.44000,
Trigger Point,-2.750000000000e+03,,   0.000110080000,   1.48000,
,,,   0.000110120000,   1.52000,
,,,   0.000110160000,   1.56000,
,,,   0.000110200000,   1.60000,
Source,CH1,,   0.000110240000,   1.64000,
Vertical Units,V,,   0.000110280000,   1.68000,
Vertical Scale,1.000000e+00,,   0.000110320000,   1.72000,
Vertical Offset,0.000000e+00,,   0.000110360000,   1.76000,
Horizontal Units,s,,   0.000110400000,   1.80000,
Horizontal Scale,1.000000e-05,,   0.000110440000,   1.84000,
Pt Fmt,Y,,   0.000110480000,   1.88000,
Yzero,0.000000e+00,,   0.000110520000,   1.92000,
Probe Atten,1.000000e+00,,   0.000110560000,   1.92000,
Model Number,TBS1052B-EDU,,   0.000110600000,   1.96000,
Serial Number,C017060,,   0.000110640000,   2.00000,
Firmware Version,FV:v3.25,,   0.000110680000,   2.00000,
,,,0.000110720000,   2.04000,
,,,0.000110760000,   2.08000,
,,,0.000110800000,   2.12000,
,,,0.000110840000,   2.12000,
,,,0.000110880000,   2.16000,
,,,0.000110920000,   2.16000,
,,,0.000110960000,   2.20000,
,,,0.000111000000,   2.20000,
,,,0.000111040000,   2.20000,
,,,0.000111080000,   2.24000,
,,,0.000111120000,   2.24000,
,,,0.000111160000,   2.28000,
,,,0.000111200000,   2.28000,
,,,0.000111240000,   2.28000,
,,,0.000111280000,   2.28000,
,,,0.000111320000,   2.32000,
,,,0.000111360000,   2.28000,
,,,0.000111400000,   2.32000,
,,,0.000111440000,   2.32000,
,,,0.000111480000,   2.32000,
,,,0.000111520000,   2.32000,
,,,0.000111560000,   2.32000,
,,,0.000111600000,   2.32000,
,,,0.000111640000,   2.32000,
,,,0.000111680000,   2.32000,
,,,0.000111720000,   2.32000,
,,,0.000111760000,   2.28000,
,,,0.000111800000,   2.28000,
,,,0.000111840000,   2.28000,
,,,0.000111880000,   2.28000,
,,,0.000111920000,   2.24000,
,,,0.000111960000,   2.24000,
,,,0.000112000000,   2.24000,
,,,0.000112040000,   2.20000,
,,,0.000112080000,   2.20000,
,,,0.000112120000,   2.16000,
,,,0.000112160000,   2.12000,
,,,0.000112200000,   2.12000,
,,,0.000112240000,   2.12000,
,,,0.000112280000,   2.08000,
,,,0.000112320000,   2.04000,
,,,0.000112360000,   2.00000,
,,,0.000112400000,   1.96000,
,,,0.000112440000,   1.92000,
,,,0.000112480000,   1.92000,
,,,0.000112520000,   1.88000,
,,,0.000112560000,   1.84000,
,,,0.000112600000,   1.80000,
,,,0.000112640000,   1.76000,
,,,0.000112680000,   1.72000,
,,,0.000112720000,   1.68000,
,,,0.000112760000,   1.64000,
,,,0.000112800000,   1.60000,
,,,0.000112840000,   1.56000,
,,,0.000112880000,   1.52000,
,,,0.000112920000,   1.48000,
,,,0.000112960000,   1.44000,
,,,0.000113000000,   1.40000,
,,,0.000113040000,   1.36000,
,,,0.000113080000,   1.28000,
,,,0.000113120000,   1.24000,
,,,0.000113160000,   1.20000,
,,,0.000113200000,   1.12000,
,,,0.000113240000,   1.08000,
,,,0.000113280000,   1.04000,
,,,0.000113320000,   1.00000,
,,,0.000113360000,   0.92000,
,,,0.000113400000,   0.88000,
,,,0.000113440000,   0.80000,
,,,0.000113480000,   0.80000,
,,,0.000113520000,   0.72000,
,,,0.000113560000,   0.64000,
,,,0.000113600000,   0.60000,
,,,0.000113640000,   0.56000,
,,,0.000113680000,   0.52000,
,,,0.000113720000,   0.44000,
,,,0.000113760000,   0.36000,
,,,0.000113800000,   0.32000,
,,,0.000113840000,   0.28000,
,,,0.000113880000,   0.20000,
,,,0.000113920000,   0.16000,
,,,0.000113960000,   0.08000,
,,,0.000114000000,   0.04000,
,,,0.000114040000,  -0.04000,
,,,0.000114080000,  -0.08000,
,,,0.000114120000,  -0.16000,
,,,0.000114160000,  -0.20000,
,,,0.000114200000,  -0.28000,
,,,0.000114240000,  -0.32000,
,,,0.000114280000,  -0.36000,
,,,0.000114320000,  -0.44000,
,,,0.000114360000,  -0.48000,
,,,0.000114400000,  -0.56000,
,,,0.000114440000,  -0.60000,
,,,0.000114480000,  -0.64000,
,,,0.000114520000,  -0.72000,
,,,0.000114560000,  -0.80000,
,,,0.000114600000,  -0.84000,
,,,0.000114640000,  -0.88000,
,,,0.000114680000,  -0.92000,
,,,0.000114720000,  -1.00000,
,,,0.000114760000,  -1.04000,
,,,0.000114800000,  -1.08000,
,,,0.000114840000,  -1.16000,
,,,0.000114880000,  -1.20000,
,,,0.000114920000,  -1.24000,
,,,0.000114960000,  -1.28000,
,,,0.000115000000,  -1.36000,
,,,0.000115040000,  -1.40000,
,,,0.000115080000,  -1.44000,
,,,0.000115120000,  -1.48000,
,,,0.000115160000,  -1.52000,
,,,0.000115200000,  -1.56000,
,,,0.000115240000,  -1.60000,
,,,0.000115280000,  -1.68000,
,,,0.000115320000,  -1.68000,
,,,0.000115360000,  -1.72000,
,,,0.000115400000,  -1.76000,
,,,0.000115440000,  -1.80000,
,,,0.000115480000,  -1.84000,
,,,0.000115520000,  -1.88000,
,,,0.000115560000,  -1.88000,
,,,0.000115600000,  -1.92000,
,,,0.000115640000,  -1.96000,
,,,0.000115680000,  -2.00000,
,,,0.000115720000,  -2.04000,
,,,0.000115760000,  -2.04000,
,,,0.000115800000,  -2.08000,
,,,0.000115840000,  -2.08000,
,,,0.000115880000,  -2.16000,
,,,0.000115920000,  -2.20000,
,,,0.000115960000,  -2.16000,
,,,0.000116000000,  -2.20000,
,,,0.000116040000,  -2.20000,
,,,0.000116080000,  -2.24000,
,,,0.000116120000,  -2.24000,
,,,0.000116160000,  -2.24000,
,,,0.000116200000,  -2.28000,
,,,0.000116240000,  -2.28000,
,,,0.000116280000,  -2.28000,
,,,0.000116320000,  -2.28000,
,,,0.000116360000,  -2.28000,
,,,0.000116400000,  -2.28000,
,,,0.000116440000,  -2.32000,
,,,0.000116480000,  -2.28000,
,,,0.000116520000,  -2.32000,
,,,0.000116560000,  -2.28000,
,,,0.000116600000,  -2.28000,
,,,0.000116640000,  -2.28000,
,,,0.000116680000,  -2.28000,
,,,0.000116720000,  -2.28000,
,,,0.000116760000,  -2.28000,
,,,0.000116800000,  -2.24000,
,,,0.000116840000,  -2.24000,
,,,0.000116880000,  -2.24000,
,,,0.000116920000,  -2.20000,
,,,0.000116960000,  -2.20000,
,,,0.000117000000,  -2.20000,
,,,0.000117040000,  -2.20000,
,,,0.000117080000,  -2.16000,
,,,0.000117120000,  -2.12000,
,,,0.000117160000,  -2.12000,
,,,0.000117200000,  -2.08000,
,,,0.000117240000,  -2.04000,
,,,0.000117280000,  -2.04000,
,,,0.000117320000,  -2.00000,
,,,0.000117360000,  -1.96000,
,,,0.000117400000,  -1.96000,
,,,0.000117440000,  -1.92000,
,,,0.000117480000,  -1.88000,
,,,0.000117520000,  -1.84000,
,,,0.000117560000,  -1.80000,
,,,0.000117600000,  -1.80000,
,,,0.000117640000,  -1.72000,
,,,0.000117680000,  -1.68000,
,,,0.000117720000,  -1.68000,
,,,0.000117760000,  -1.64000,
,,,0.000117800000,  -1.56000,
,,,0.000117840000,  -1.52000,
,,,0.000117880000,  -1.48000,
,,,0.000117920000,  -1.44000,
,,,0.000117960000,  -1.40000,
,,,0.000118000000,  -1.36000,
,,,0.000118040000,  -1.28000,
,,,0.000118080000,  -1.24000,
,,,0.000118120000,  -1.20000,
,,,0.000118160000,  -1.16000,
,,,0.000118200000,  -1.12000,
,,,0.000118240000,  -1.08000,
,,,0.000118280000,  -1.00000,
,,,0.000118320000,  -0.96000,
,,,0.000118360000,  -0.92000,
,,,0.000118400000,  -0.84000,
,,,0.000118440000,  -0.80000,
,,,0.000118480000,  -0.72000,
,,,0.000118520000,  -0.68000,
,,,0.000118560000,  -0.60000,
,,,0.000118600000,  -0.56000,
,,,0.000118640000,  -0.52000,
,,,0.000118680000,  -0.44000,
,,,0.000118720000,  -0.40000,
,,,0.000118760000,  -0.32000,
,,,0.000118800000,  -0.28000,
,,,0.000118840000,  -0.20000,
,,,0.000118880000,  -0.16000,
,,,0.000118920000,  -0.12000,
,,,0.000118960000,  -0.04000,
,,,0.000119000000,   0.04000,
,,,0.000119040000,   0.08000,
,,,0.000119080000,   0.12000,
,,,0.000119120000,   0.20000,
,,,0.000119160000,   0.28000,
,,,0.000119200000,   0.32000,
,,,0.000119240000,   0.36000,
,,,0.000119280000,   0.40000,
,,,0.000119320000,   0.48000,
,,,0.000119360000,   0.56000,
,,,0.000119400000,   0.60000,
,,,0.000119440000,   0.64000,
,,,0.000119480000,   0.76000,
,,,0.000119520000,   0.76000,
,,,0.000119560000,   0.84000,
,,,0.000119600000,   0.88000,
,,,0.000119640000,   0.92000,
,,,0.000119680000,   1.00000,
,,,0.000119720000,   1.04000,
,,,0.000119760000,   1.08000,
,,,0.000119800000,   1.12000,
,,,0.000119840000,   1.20000,
,,,0.000119880000,   1.24000,
,,,0.000119920000,   1.28000,
,,,0.000119960000,   1.32000,
,,,0.000120000000,   1.36000,
,,,0.000120040000,   1.44000,
,,,0.000120080000,   1.48000,
,,,0.000120120000,   1.52000,
,,,0.000120160000,   1.56000,
,,,0.000120200000,   1.60000,
,,,0.000120240000,   1.64000,
,,,0.000120280000,   1.68000,
,,,0.000120320000,   1.72000,
,,,0.000120360000,   1.76000,
,,,0.000120400000,   1.80000,
,,,0.000120440000,   1.84000,
,,,0.000120480000,   1.88000,
,,,0.000120520000,   1.88000,
,,,0.000120560000,   1.96000,
,,,0.000120600000,   1.96000,
,,,0.000120640000,   2.00000,
,,,0.000120680000,   2.00000,
,,,0.000120720000,   2.04000,
,,,0.000120760000,   2.08000,
,,,0.000120800000,   2.12000,
,,,0.000120840000,   2.12000,
,,,0.000120880000,   2.16000,
,,,0.000120920000,   2.16000,
,,,0.000120960000,   2.16000,
,,,0.000121000000,   2.20000,
,,,0.000121040000,   2.24000,
,,,0.000121080000,   2.24000,
,,,0.000121120000,   2.28000,
,,,0.000121160000,   2.24000,
,,,0.000121200000,   2.28000,
,,,0.000121240000,   2.28000,
,,,0.000121280000,   2.28000,
,,,0.000121320000,   2.32000,
,,,0.000121360000,   2.32000,
,,,0.000121400000,   2.32000,
,,,0.000121440000,   2.32000,
,,,0.000121480000,   2.32000,
,,,0.000121520000,   2.32000,
,,,0.000121560000,   2.32000,
,,,0.000121600000,   2.32000,
,,,0.000121640000,   2.32000,
,,,0.000121680000,   2.32000,
,,,0.000121720000,   2.28000,
,,,0.000121760000,   2.28000,
,,,0.000121800000,   2.28000,
,,,0.000121840000,   2.28000,
,,,0.000121880000,   2.28000,
,,,0.000121920000,   2.24000,
,,,0.000121960000,   2.24000,
,,,0.000122000000,   2.20000,
,,,0.000122040000,   2.20000,
,,,0.000122080000,   2.16000,
,,,0.000122120000,   2.16000,
,,,0.000122160000,   2.16000,
,,,0.000122200000,   2.08000,
,,,0.000122240000,   2.08000,
,,,0.000122280000,   2.04000,
,,,0.000122320000,   2.00000,
,,,0.000122360000,   2.00000,
,,,0.000122400000,   1.96000,
,,,0.000122440000,   1.96000,
,,,0.000122480000,   1.92000,
,,,0.000122520000,   1.88000,
,,,0.000122560000,   1.84000,
,,,0.000122600000,   1.80000,
,,,0.000122640000,   1.76000,
,,,0.000122680000,   1.72000,
,,,0.000122720000,   1.68000,
,,,0.000122760000,   1.64000,
,,,0.000122800000,   1.60000,
,,,0.000122840000,   1.56000,
,,,0.000122880000,   1.52000,
,,,0.000122920000,   1.48000,
,,,0.000122960000,   1.44000,
,,,0.000123000000,   1.40000,
,,,0.000123040000,   1.32000,
,,,0.000123080000,   1.32000,
,,,0.000123120000,   1.24000,
,,,0.000123160000,   1.20000,
,,,0.000123200000,   1.16000,
,,,0.000123240000,   1.08000,
,,,0.000123280000,   1.04000,
,,,0.000123320000,   1.00000,
,,,0.000123360000,   0.96000,
,,,0.000123400000,   0.88000,
,,,0.000123440000,   0.84000,
,,,0.000123480000,   0.76000,
,,,0.000123520000,   0.72000,
,,,0.000123560000,   0.68000,
,,,0.000123600000,   0.64000,
,,,0.000123640000,   0.52000,
,,,0.000123680000,   0.48000,
,,,0.000123720000,   0.44000,
,,,0.000123760000,   0.36000,
,,,0.000123800000,   0.32000,
,,,0.000123840000,   0.28000,
,,,0.000123880000,   0.20000,
,,,0.000123920000,   0.16000,
,,,0.000123960000,   0.08000,
,,,0.000124000000,   0.04000,
,,,0.000124040000,  -0.04000,
,,,0.000124080000,  -0.08000,
,,,0.000124120000,  -0.16000,
,,,0.000124160000,  -0.20000,
,,,0.000124200000,  -0.28000,
,,,0.000124240000,  -0.32000,
,,,0.000124280000,  -0.36000,
,,,0.000124320000,  -0.44000,
,,,0.000124360000,  -0.52000,
,,,0.000124400000,  -0.56000,
,,,0.000124440000,  -0.60000,
,,,0.000124480000,  -0.64000,
,,,0.000124520000,  -0.72000,
,,,0.000124560000,  -0.76000,
,,,0.000124600000,  -0.84000,
,,,0.000124640000,  -0.88000,
,,,0.000124680000,  -0.96000,
,,,0.000124720000,  -1.00000,
,,,0.000124760000,  -1.04000,
,,,0.000124800000,  -1.08000,
,,,0.000124840000,  -1.16000,
,,,0.000124880000,  -1.20000,
,,,0.000124920000,  -1.24000,
,,,0.000124960000,  -1.28000,
,,,0.000125000000,  -1.32000,
,,,0.000125040000,  -1.40000,
,,,0.000125080000,  -1.44000,
,,,0.000125120000,  -1.48000,
,,,0.000125160000,  -1.52000,
,,,0.000125200000,  -1.56000,
,,,0.000125240000,  -1.64000,
,,,0.000125280000,  -1.64000,
,,,0.000125320000,  -1.68000,
,,,0.000125360000,  -1.72000,
,,,0.000125400000,  -1.76000,
,,,0.000125440000,  -1.80000,
,,,0.000125480000,  -1.84000,
,,,0.000125520000,  -1.88000,
,,,0.000125560000,  -1.88000,
,,,0.000125600000,  -1.92000,
,,,0.000125640000,  -1.96000,
,,,0.000125680000,  -2.00000,
,,,0.000125720000,  -2.04000,
,,,0.000125760000,  -2.04000,
,,,0.000125800000,  -2.08000,
,,,0.000125840000,  -2.12000,
,,,0.000125880000,  -2.12000,
,,,0.000125920000,  -2.16000,
,,,0.000125960000,  -2.16000,
,,,0.000126000000,  -2.20000,
,,,0.000126040000,  -2.24000,
,,,0.000126080000,  -2.20000,
,,,0.000126120000,  -2.24000,
,,,0.000126160000,  -2.24000,
,,,0.000126200000,  -2.28000,
,,,0.000126240000,  -2.28000,
,,,0.000126280000,  -2.28000,
,,,0.000126320000,  -2.28000,
,,,0.000126360000,  -2.32000,
,,,0.000126400000,  -2.32000,
,,,0.000126440000,  -2.32000,
,,,0.000126480000,  -2.32000,
,,,0.000126520000,  -2.32000,
,,,0.000126560000,  -2.28000,
,,,0.000126600000,  -2.28000,
,,,0.000126640000,  -2.28000,
,,,0.000126680000,  -2.28000,
,,,0.000126720000,  -2.28000,
,,,0.000126760000,  -2.28000,
,,,0.000126800000,  -2.28000,
,,,0.000126840000,  -2.24000,
,,,0.000126880000,  -2.24000,
,,,0.000126920000,  -2.20000,
,,,0.000126960000,  -2.20000,
,,,0.000127000000,  -2.20000,
,,,0.000127040000,  -2.16000,
,,,0.000127080000,  -2.12000,
,,,0.000127120000,  -2.12000,
,,,0.000127160000,  -2.12000,
,,,0.000127200000,  -2.08000,
,,,0.000127240000,  -2.08000,
,,,0.000127280000,  -2.04000,
,,,0.000127320000,  -2.00000,
,,,0.000127360000,  -1.96000,
,,,0.000127400000,  -1.92000,
,,,0.000127440000,  -1.92000,
,,,0.000127480000,  -1.88000,
,,,0.000127520000,  -1.84000,
,,,0.000127560000,  -1.80000,
,,,0.000127600000,  -1.76000,
,,,0.000127640000,  -1.72000,
,,,0.000127680000,  -1.68000,
,,,0.000127720000,  -1.64000,
,,,0.000127760000,  -1.64000,
,,,0.000127800000,  -1.56000,
,,,0.000127840000,  -1.56000,
,,,0.000127880000,  -1.48000,
,,,0.000127920000,  -1.44000,
,,,0.000127960000,  -1.40000,
,,,0.000128000000,  -1.36000,
,,,0.000128040000,  -1.32000,
,,,0.000128080000,  -1.24000,
,,,0.000128120000,  -1.20000,
,,,0.000128160000,  -1.16000,
,,,0.000128200000,  -1.12000,
,,,0.000128240000,  -1.04000,
,,,0.000128280000,  -1.00000,
,,,0.000128320000,  -0.96000,
,,,0.000128360000,  -0.88000,
,,,0.000128400000,  -0.84000,
,,,0.000128440000,  -0.76000,
,,,0.000128480000,  -0.72000,
,,,0.000128520000,  -0.68000,
,,,0.000128560000,  -0.64000,
,,,0.000128600000,  -0.56000,
,,,0.000128640000,  -0.52000,
,,,0.000128680000,  -0.44000,
,,,0.000128720000,  -0.40000,
,,,0.000128760000,  -0.32000,
,,,0.000128800000,  -0.28000,
,,,0.000128840000,  -0.24000,
,,,0.000128880000,  -0.16000,
,,,0.000128920000,  -0.12000,
,,,0.000128960000,  -0.04000,
,,,0.000129000000,   0.00000,
,,,0.000129040000,   0.08000,
,,,0.000129080000,   0.12000,
,,,0.000129120000,   0.20000,
,,,0.000129160000,   0.24000,
,,,0.000129200000,   0.32000,
,,,0.000129240000,   0.36000,
,,,0.000129280000,   0.44000,
,,,0.000129320000,   0.48000,
,,,0.000129360000,   0.56000,
,,,0.000129400000,   0.60000,
,,,0.000129440000,   0.64000,
,,,0.000129480000,   0.68000,
,,,0.000129520000,   0.76000,
,,,0.000129560000,   0.80000,
,,,0.000129600000,   0.84000,
,,,0.000129640000,   0.92000,
,,,0.000129680000,   1.00000,
,,,0.000129720000,   1.04000,
,,,0.000129760000,   1.08000,
,,,0.000129800000,   1.16000,
,,,0.000129840000,   1.20000,
,,,0.000129880000,   1.24000,
,,,0.000129920000,   1.28000,
,,,0.000129960000,   1.32000,
,,,0.000130000000,   1.40000,
,,,0.000130040000,   1.44000,
,,,0.000130080000,   1.48000,
,,,0.000130120000,   1.52000,
,,,0.000130160000,   1.56000,
,,,0.000130200000,   1.60000,
,,,0.000130240000,   1.64000,
,,,0.000130280000,   1.68000,
,,,0.000130320000,   1.72000,
,,,0.000130360000,   1.76000,
,,,0.000130400000,   1.80000,
,,,0.000130440000,   1.80000,
,,,0.000130480000,   1.84000,
,,,0.000130520000,   1.88000,
,,,0.000130560000,   1.92000,
,,,0.000130600000,   1.96000,
,,,0.000130640000,   1.96000,
,,,0.000130680000,   2.04000,
,,,0.000130720000,   2.04000,
,,,0.000130760000,   2.08000,
,,,0.000130800000,   2.12000,
,,,0.000130840000,   2.12000,
,,,0.000130880000,   2.16000,
,,,0.000130920000,   2.16000,
,,,0.000130960000,   2.20000,
,,,0.000131000000,   2.20000,
,,,0.000131040000,   2.20000,
,,,0.000131080000,   2.24000,
,,,0.000131120000,   2.24000,
,,,0.000131160000,   2.28000,
,,,0.000131200000,   2.28000,
,,,0.000131240000,   2.32000,
,,,0.000131280000,   2.32000,
,,,0.000131320000,   2.28000,
,,,0.000131360000,   2.32000,
,,,0.000131400000,   2.36000,
,,,0.000131440000,   2.32000,
,,,0.000131480000,   2.36000,
,,,0.000131520000,   2.32000,
,,,0.000131560000,   2.32000,
,,,0.000131600000,   2.32000,
,,,0.000131640000,   2.32000,
,,,0.000131680000,   2.32000,
,,,0.000131720000,   2.28000,
,,,0.000131760000,   2.28000,
,,,0.000131800000,   2.28000,
,,,0.000131840000,   2.28000,
,,,0.000131880000,   2.28000,
,,,0.000131920000,   2.24000,
,,,0.000131960000,   2.24000,
,,,0.000132000000,   2.20000,
,,,0.000132040000,   2.20000,
,,,0.000132080000,   2.16000,
,,,0.000132120000,   2.12000,
,,,0.000132160000,   2.12000,
,,,0.000132200000,   2.12000,
,,,0.000132240000,   2.08000,
,,,0.000132280000,   2.04000,
,,,0.000132320000,   2.04000,
,,,0.000132360000,   2.00000,
,,,0.000132400000,   2.00000,
,,,0.000132440000,   1.96000,
,,,0.000132480000,   1.88000,
,,,0.000132520000,   1.88000,
,,,0.000132560000,   1.84000,
,,,0.000132600000,   1.76000,
,,,0.000132640000,   1.76000,
,,,0.000132680000,   1.72000,
,,,0.000132720000,   1.68000,
,,,0.000132760000,   1.64000,
,,,0.000132800000,   1.60000,
,,,0.000132840000,   1.60000,
,,,0.000132880000,   1.52000,
,,,0.000132920000,   1.48000,
,,,0.000132960000,   1.44000,
,,,0.000133000000,   1.40000,
,,,0.000133040000,   1.36000,
,,,0.000133080000,   1.32000,
,,,0.000133120000,   1.24000,
,,,0.000133160000,   1.20000,
,,,0.000133200000,   1.16000,
,,,0.000133240000,   1.08000,
,,,0.000133280000,   1.04000,
,,,0.000133320000,   1.00000,
,,,0.000133360000,   0.92000,
,,,0.000133400000,   0.88000,
,,,0.000133440000,   0.84000,
,,,0.000133480000,   0.76000,
,,,0.000133520000,   0.72000,
,,,0.000133560000,   0.68000,
,,,0.000133600000,   0.60000,
,,,0.000133640000,   0.56000,
,,,0.000133680000,   0.48000,
,,,0.000133720000,   0.44000,
,,,0.000133760000,   0.40000,
,,,0.000133800000,   0.32000,
,,,0.000133840000,   0.28000,
,,,0.000133880000,   0.20000,
,,,0.000133920000,   0.16000,
,,,0.000133960000,   0.08000,
,,,0.000134000000,   0.04000,
,,,0.000134040000,   0.00000,
,,,0.000134080000,  -0.08000,
,,,0.000134120000,  -0.16000,
,,,0.000134160000,  -0.20000,
,,,0.000134200000,  -0.28000,
,,,0.000134240000,  -0.32000,
,,,0.000134280000,  -0.36000,
,,,0.000134320000,  -0.44000,
,,,0.000134360000,  -0.48000,
,,,0.000134400000,  -0.56000,
,,,0.000134440000,  -0.60000,
,,,0.000134480000,  -0.68000,
,,,0.000134520000,  -0.72000,
,,,0.000134560000,  -0.80000,
,,,0.000134600000,  -0.84000,
,,,0.000134640000,  -0.88000,
,,,0.000134680000,  -0.96000,
,,,0.000134720000,  -0.96000,
,,,0.000134760000,  -1.04000,
,,,0.000134800000,  -1.12000,
,,,0.000134840000,  -1.12000,
,,,0.000134880000,  -1.20000,
,,,0.000134920000,  -1.24000,
,,,0.000134960000,  -1.28000,
,,,0.000135000000,  -1.36000,
,,,0.000135040000,  -1.36000,
,,,0.000135080000,  -1.44000,
,,,0.000135120000,  -1.48000,
,,,0.000135160000,  -1.52000,
,,,0.000135200000,  -1.56000,
,,,0.000135240000,  -1.60000,
,,,0.000135280000,  -1.64000,
,,,0.000135320000,  -1.68000,
,,,0.000135360000,  -1.72000,
,,,0.000135400000,  -1.76000,
,,,0.000135440000,  -1.80000,
,,,0.000135480000,  -1.84000,
,,,0.000135520000,  -1.88000,
,,,0.000135560000,  -1.92000,
,,,0.000135600000,  -1.96000,
,,,0.000135640000,  -1.96000,
,,,0.000135680000,  -2.00000,
,,,0.000135720000,  -2.04000,
,,,0.000135760000,  -2.04000,
,,,0.000135800000,  -2.08000,
,,,0.000135840000,  -2.12000,
,,,0.000135880000,  -2.12000,
,,,0.000135920000,  -2.16000,
,,,0.000135960000,  -2.16000,
,,,0.000136000000,  -2.20000,
,,,0.000136040000,  -2.20000,
,,,0.000136080000,  -2.24000,
,,,0.000136120000,  -2.24000,
