G3/data3/ALL0097/F0097CH1.CSV

Record Length,2.500000e+03,,   0.000050000000,   0.16800,
Sample Interval,4.000000e-08,,   0.000050040000,   0.18400,
Trigger Point,-1.250000000000e+03,,   0.000050080000,   0.20000,
,,,   0.000050120000,   0.22400,
,,,   0.000050160000,   0.23200,
,,,   0.000050200000,   0.24800,
Source,CH1,,   0.000050240000,   0.26400,
Vertical Units,V,,   0.000050280000,   0.28000,
Vertical Scale,2.000000e-01,,   0.000050320000,   0.29600,
Vertical Offset,0.000000e+00,,   0.000050360000,   0.31200,
Horizontal Units,s,,   0.000050400000,   0.32000,
Horizontal Scale,1.000000e-05,,   0.000050440000,   0.33600,
Pt Fmt,Y,,   0.000050480000,   0.34400,
Yzero,0.000000e+00,,   0.000050520000,   0.36000,
Probe Atten,1.000000e+00,,   0.000050560000,   0.36800,
Model Number,TBS1052B-EDU,,   0.000050600000,   0.37600,
Serial Number,C017060,,   0.000050640000,   0.38400,
Firmware Version,FV:v3.25,,   0.000050680000,   0.40000,
,,,0.000050720000,   0.40800,
,,,0.000050760000,   0.41600,
,,,0.000050800000,   0.42400,
,,,0.000050840000,   0.42400,
,,,0.000050880000,   0.43200,
,,,0.000050920000,   0.44000,
,,,0.000050960000,   0.44000,
,,,0.000051000000,   0.44800,
,,,0.000051040000,   0.45600,
,,,0.000051080000,   0.45600,
,,,0.000051120000,   0.45600,
,,,0.000051160000,   0.45600,
,,,0.000051200000,   0.45600,
,,,0.000051240000,   0.45600,
,,,0.000051280000,   0.45600,
,,,0.000051320000,   0.45600,
,,,0.000051360000,   0.44800,
,,,0.000051400000,   0.44800,
,,,0.000051440000,   0.44000,
,,,0.000051480000,   0.44000,
,,,0.000051520000,   0.43200,
,,,0.000051560000,   0.42400,
,,,0.000051600000,   0.41600,
,,,0.000051640000,   0.41600,
,,,0.000051680000,   0.40000,
,,,0.000051720000,   0.39200,
,,,0.000051760000,   0.38400,
,,,0.000051800000,   0.37600,
,,,0.000051840000,   0.36000,
,,,0.000051880000,   0.35200,
,,,0.000051920000,   0.34400,
,,,0.000051960000,   0.32800,
,,,0.000052000000,   0.31200,
,,,0.000052040000,   0.30400,
,,,0.000052080000,   0.28800,
,,,0.000052120000,   0.27200,
,,,0.000052160000,   0.26400,
,,,0.000052200000,   0.24800,
,,,0.000052240000,   0.23200,
,,,0.000052280000,   0.21600,
,,,0.000052320000,   0.19200,
,,,0.000052360000,   0.17600,
,,,0.000052400000,   0.16000,
,,,0.000052440000,   0.14400,
,,,0.000052480000,   0.12800,
,,,0.000052520000,   0.10400,
,,,0.000052560000,   0.08800,
,,,0.000052600000,   0.07200,
,,,0.000052640000,   0.05600,
,,,0.000052680000,   0.04000,
,,,0.000052720000,   0.01600,
,,,0.000052760000,   0.00000,
,,,0.000052800000,  -0.02400,
,,,0.000052840000,  -0.04000,
,,,0.000052880000,  -0.05600,
,,,0.000052920000,  -0.08000,
,,,0.000052960000,  -0.09600,
,,,0.000053000000,  -0.11200,
,,,0.000053040000,  -0.12800,
,,,0.000053080000,  -0.14400,
,,,0.000053120000,  -0.16800,
,,,0.000053160000,  -0.18400,
,,,0.000053200000,  -0.20000,
,,,0.000053240000,  -0.21600,
,,,0.000053280000,  -0.23200,
,,,0.000053320000,  -0.24800,
,,,0.000053360000,  -0.26400,
,,,0.000053400000,  -0.28000,
,,,0.000053440000,  -0.28800,
,,,0.000053480000,  -0.30400,
,,,0.000053520000,  -0.32000,
,,,0.000053560000,  -0.33600,
,,,0.000053600000,  -0.34400,
,,,0.000053640000,  -0.35200,
,,,0.000053680000,  -0.36800,
,,,0.000053720000,  -0.37600,
,,,0.000053760000,  -0.39200,
,,,0.000053800000,  -0.40000,
,,,0.000053840000,  -0.40800,
,,,0.000053880000,  -0.41600,
,,,0.000053920000,  -0.42400,
,,,0.000053960000,  -0.43200,
,,,0.000054000000,  -0.44000,
,,,0.000054040000,  -0.44000,
,,,0.000054080000,  -0.44800,
,,,0.000054120000,  -0.44800,
,,,0.000054160000,  -0.45600,
,,,0.000054200000,  -0.45600,
,,,0.000054240000,  -0.46400,
,,,0.000054280000,  -0.45600,
,,,0.000054320000,  -0.45600,
,,,0.000054360000,  -0.45600,
,,,0.000054400000,  -0.45600,
,,,0.000054440000,  -0.45600,
,,,0.000054480000,  -0.45600,
,,,0.000054520000,  -0.45600,
,,,0.000054560000,  -0.44800,
,,,0.000054600000,  -0.44000,
,,,0.000054640000,  -0.43200,
,,,0.000054680000,  -0.43200,
,,,0.000054720000,  -0.42400,
,,,0.000054760000,  -0.41600,
,,,0.000054800000,  -0.40800,
,,,0.000054840000,  -0.40000,
,,,0.000054880000,  -0.39200,
,,,0.000054920000,  -0.38400,
,,,0.000054960000,  -0.36800,
,,,0.000055000000,  -0.36000,
,,,0.000055040000,  -0.34400,
,,,0.000055080000,  -0.33600,
,,,0.000055120000,  -0.32000,
,,,0.000055160000,  -0.30400,
,,,0.000055200000,  -0.29600,
,,,0.000055240000,  -0.28000,
,,,0.000055280000,  -0.26400,
,,,0.000055320000,  -0.24800,
,,,0.000055360000,  -0.23200,
,,,0.000055400000,  -0.21600,
,,,0.000055440000,  -0.20000,
,,,0.000055480000,  -0.18400,
,,,0.000055520000,  -0.16800,
,,,0.000055560000,  -0.14400,
,,,0.000055600000,  -0.12800,
,,,0.000055640000,  -0.11200,
,,,0.000055680000,  -0.09600,
,,,0.000055720000,  -0.07200,
,,,0.000055760000,  -0.05600,
,,,0.000055800000,  -0.04000,
,,,0.000055840000,  -0.01600,
,,,0.000055880000,   0.00000,
,,,0.000055920000,   0.01600,
,,,0.000055960000,   0.04000,
,,,0.000056000000,   0.05600,
,,,0.000056040000,   0.07200,
,,,0.000056080000,   0.09600,
,,,0.000056120000,   0.11200,
,,,0.000056160000,   0.12800,
,,,0.000056200000,   0.14400,
,,,0.000056240000,   0.16000,
,,,0.000056280000,   0.18400,
,,,0.000056320000,   0.20000,
,,,0.000056360000,   0.21600,
,,,0.000056400000,   0.23200,
,,,0.000056440000,   0.24800,
,,,0.000056480000,   0.25600,
,,,0.000056520000,   0.28000,
,,,0.000056560000,   0.28800,
,,,0.000056600000,   0.30400,
,,,0.000056640000,   0.31200,
,,,0.000056680000,   0.32800,
,,,0.000056720000,   0.34400,
,,,0.000056760000,   0.35200,
,,,0.000056800000,   0.36800,
,,,0.000056840000,   0.37600,
,,,0.000056880000,   0.38400,
,,,0.000056920000,   0.39200,
,,,0.000056960000,   0.40000,
,,,0.000057000000,   0.41600,
,,,0.000057040000,   0.42400,
,,,0.000057080000,   0.42400,
,,,0.000057120000,   0.43200,
,,,0.000057160000,   0.44000,
,,,0.000057200000,   0.44000,
,,,0.000057240000,   0.44800,
,,,0.000057280000,   0.44800,
,,,0.000057320000,   0.45600,
,,,0.000057360000,   0.45600,
,,,0.000057400000,   0.45600,
,,,0.000057440000,   0.45600,
,,,0.000057480000,   0.45600,
,,,0.000057520000,   0.45600,
,,,0.000057560000,   0.45600,
,,,0.000057600000,   0.44800,
,,,0.000057640000,   0.44800,
,,,0.000057680000,   0.44000,
,,,0.000057720000,   0.44000,
,,,0.000057760000,   0.43200,
,,,0.000057800000,   0.42400,
,,,0.000057840000,   0.42400,
,,,0.000057880000,   0.41600,
,,,0.000057920000,   0.40800,
,,,0.000057960000,   0.40000,
,,,0.000058000000,   0.39200,
,,,0.000058040000,   0.37600,
,,,0.000058080000,   0.36800,
,,,0.000058120000,   0.36000,
,,,0.000058160000,   0.34400,
,,,0.000058200000,   0.33600,
,,,0.000058240000,   0.32000,
,,,0.000058280000,   0.30400,
,,,0.000058320000,   0.29600,
,,,0.000058360000,   0.28000,
,,,0.000058400000,   0.26400,
,,,0.000058440000,   0.24800,
,,,0.000058480000,   0.23200,
,,,0.000058520000,   0.21600,
,,,0.000058560000,   0.20000,
,,,0.000058600000,   0.18400,
,,,0.000058640000,   0.16000,
,,,0.000058680000,   0.15200,
,,,0.000058720000,   0.12800,
,,,0.000058760000,   0.11200,
,,,0.000058800000,   0.09600,
,,,0.000058840000,   0.08000,
,,,0.000058880000,   0.05600,
,,,0.000058920000,   0.04000,
,,,0.000058960000,   0.02400,
,,,0.000059000000,   0.00000,
,,,0.000059040000,  -0.01600,
,,,0.000059080000,  -0.03200,
,,,0.000059120000,  -0.05600,
,,,0.000059160000,  -0.07200,
,,,0.000059200000,  -0.08800,
,,,0.000059240000,  -0.11200,
,,,0.000059280000,  -0.12000,
,,,0.000059320000,  -0.14400,
,,,0.000059360000,  -0.16000,
,,,0.000059400000,  -0.17600,
,,,0.000059440000,  -0.19200,
,,,0.000059480000,  -0.20800,
,,,0.000059520000,  -0.22400,
,,,0.000059560000,  -0.24800,
,,,0.000059600000,  -0.25600,
,,,0.000059640000,  -0.28000,
,,,0.000059680000,  -0.28800,
,,,0.000059720000,  -0.30400,
,,,0.000059760000,  -0.32000,
,,,0.000059800000,  -0.32800,
,,,0.000059840000,  -0.34400,
,,,0.000059880000,  -0.36000,
,,,0.000059920000,  -0.36800,
,,,0.000059960000,  -0.37600,
,,,0.000060000000,  -0.38400,
,,,0.000060040000,  -0.40000,
,,,0.000060080000,  -0.40800,
,,,0.000060120000,  -0.41600,
,,,0.000060160000,  -0.42400,
,,,0.000060200000,  -0.43200,
,,,0.000060240000,  -0.44000,
,,,0.000060280000,  -0.44000,
,,,0.000060320000,  -0.44800,
,,,0.000060360000,  -0.44800,
,,,0.000060400000,  -0.45600,
,,,0.000060440000,  -0.45600,
,,,0.000060480000,  -0.45600,
,,,0.000060520000,  -0.46400,
,,,0.000060560000,  -0.45600,
,,,0.000060600000,  -0.45600,
,,,0.000060640000,  -0.45600,
,,,0.000060680000,  -0.45600,
,,,0.000060720000,  -0.45600,
,,,0.000060760000,  -0.44800,
,,,0.000060800000,  -0.44800,
,,,0.000060840000,  -0.44800,
,,,0.000060880000,  -0.44000,
,,,0.000060920000,  -0.43200,
,,,0.000060960000,  -0.42400,
,,,0.000061000000,  -0.41600,
,,,0.000061040000,  -0.40800,
,,,0.000061080000,  -0.40000,
,,,0.000061120000,  -0.39200,
,,,0.000061160000,  -0.37600,
,,,0.000061200000,  -0.36800,
,,,0.000061240000,  -0.36000,
,,,0.000061280000,  -0.35200,
,,,0.000061320000,  -0.33600,
,,,0.000061360000,  -0.32000,
,,,0.000061400000,  -0.31200,
,,,0.000061440000,  -0.29600,
,,,0.000061480000,  -0.28000,
,,,0.000061520000,  -0.26400,
,,,0.000061560000,  -0.24800,
,,,0.000061600000,  -0.23200,
,,,0.000061640000,  -0.21600,
,,,0.000061680000,  -0.20000,
,,,0.000061720000,  -0.18400,
,,,0.000061760000,  -0.16800,
,,,0.000061800000,  -0.15200,
,,,0.000061840000,  -0.12800,
,,,0.000061880000,  -0.11200,
,,,0.000061920000,  -0.09600,
,,,0.000061960000,  -0.08000,
,,,0.000062000000,  -0.05600,
,,,0.000062040000,  -0.04000,
,,,0.000062080000,  -0.02400,
,,,0.000062120000,  -0.00800,
,,,0.000062160000,   0.01600,
,,,0.000062200000,   0.03200,
,,,0.000062240000,   0.05600,
,,,0.000062280000,   0.07200,
,,,0.000062320000,   0.08800,
,,,0.000062360000,   0.10400,
,,,0.000062400000,   0.12000,
,,,0.000062440000,   0.14400,
,,,0.000062480000,   0.16000,
,,,0.000062520000,   0.17600,
,,,0.000062560000,   0.19200,
,,,0.000062600000,   0.20800,
,,,0.000062640000,   0.22400,
,,,0.000062680000,   0.24000,
,,,0.000062720000,   0.25600,
,,,0.000062760000,   0.27200,
,,,0.000062800000,   0.28800,
,,,0.000062840000,   0.29600,
,,,0.000062880000,   0.31200,
,,,0.000062920000,   0.32800,
,,,0.000062960000,   0.33600,
,,,0.000063000000,   0.35200,
,,,0.000063040000,   0.36000,
,,,0.000063080000,   0.37600,
,,,0.000063120000,   0.38400,
,,,0.000063160000,   0.39200,
,,,0.000063200000,   0.40000,
,,,0.000063240000,   0.40800,
,,,0.000063280000,   0.41600,
,,,0.000063320000,   0.42400,
,,,0.000063360000,   0.43200,
,,,0.000063400000,   0.44000,
,,,0.000063440000,   0.44000,
,,,0.000063480000,   0.44800,
,,,0.000063520000,   0.44800,
,,,0.000063560000,   0.44800,
,,,0.000063600000,   0.45600,
,,,0.000063640000,   0.45600,
,,,0.000063680000,   0.45600,
,,,0.000063720000,   0.45600,
,,,0.000063760000,   0.45600,
,,,0.000063800000,   0.45600,
,,,0.000063840000,   0.45600,
,,,0.000063880000,   0.44800,
,,,0.000063920000,   0.44800,
,,,0.000063960000,   0.44000,
,,,0.000064000000,   0.43200,
,,,0.000064040000,   0.42400,
,,,0.000064080000,   0.42400,
,,,0.000064120000,   0.41600,
,,,0.000064160000,   0.40800,
,,,0.000064200000,   0.40000,
,,,0.000064240000,   0.39200,
,,,0.000064280000,   0.37600,
,,,0.000064320000,   0.36800,
,,,0.000064360000,   0.36000,
,,,0.000064400000,   0.34400,
,,,0.000064440000,   0.33600,
,,,0.000064480000,   0.32000,
,,,0.000064520000,   0.31200,
,,,0.000064560000,   0.29600,
,,,0.000064600000,   0.28000,
,,,0.000064640000,   0.27200,
,,,0.000064680000,   0.25600,
,,,0.000064720000,   0.24000,
,,,0.000064760000,   0.22400,
,,,0.000064800000,   0.20000,
,,,0.000064840000,   0.19200,
,,,0.000064880000,   0.16800,
,,,0.000064920000,   0.15200,
,,,0.000064960000,   0.13600,
,,,0.000065000000,   0.12000,
,,,0.000065040000,   0.09600,
,,,0.000065080000,   0.08800,
,,,0.000065120000,   0.06400,
,,,0.000065160000,   0.04800,
,,,0.000065200000,   0.02400,
,,,0.000065240000,   0.00800,
,,,0.000065280000,  -0.00800,
,,,0.000065320000,  -0.02400,
,,,0.000065360000,  -0.04800,
,,,0.000065400000,  -0.06400,
,,,0.000065440000,  -0.08000,
,,,0.000065480000,  -0.10400,
,,,0.000065520000,  -0.12000,
,,,0.000065560000,  -0.13600,
,,,0.000065600000,  -0.15200,
,,,0.000065640000,  -0.17600,
,,,0.000065680000,  -0.19200,
,,,0.000065720000,  -0.20800,
,,,0.000065760000,  -0.22400,
,,,0.000065800000,  -0.24000,
,,,0.000065840000,  -0.25600,
,,,0.000065880000,  -0.27200,
,,,0.000065920000,  -0.28800,
,,,0.000065960000,  -0.29600,
,,,0.000066000000,  -0.31200,
,,,0.000066040000,  -0.32800,
,,,0.000066080000,  -0.33600,
,,,0.000066120000,  -0.35200,
,,,0.000066160000,  -0.36800,
,,,0.000066200000,  -0.37600,
,,,0.000066240000,  -0.38400,
,,,0.000066280000,  -0.39200,
,,,0.000066320000,  -0.40000,
,,,0.000066360000,  -0.41600,
,,,0.000066400000,  -0.42400,
,,,0.000066440000,  -0.43200,
,,,0.000066480000,  -0.43200,
,,,0.000066520000,  -0.44000,
,,,0.000066560000,  -0.44800,
,,,0.000066600000,  -0.44800,
,,,0.000066640000,  -0.45600,
,,,0.000066680000,  -0.45600,
,,,0.000066720000,  -0.45600,
,,,0.000066760000,  -0.46400,
,,,0.000066800000,  -0.46400,
,,,0.000066840000,  -0.46400,
,,,0.000066880000,  -0.45600,
,,,0.000066920000,  -0.45600,
,,,0.000066960000,  -0.45600,
,,,0.000067000000,  -0.45600,
,,,0.000067040000,  -0.44800,
,,,0.000067080000,  -0.44000,
,,,0.000067120000,  -0.44000,
,,,0.000067160000,  -0.43200,
,,,0.000067200000,  -0.42400,
,,,0.000067240000,  -0.41600,
,,,0.000067280000,  -0.40800,
,,,0.000067320000,  -0.40000,
,,,0.000067360000,  -0.40000,
,,,0.000067400000,  -0.38400,
,,,0.000067440000,  -0.37600,
,,,0.000067480000,  -0.36000,
,,,0.000067520000,  -0.35200,
,,,0.000067560000,  -0.34400,
,,,0.000067600000,  -0.32800,
,,,0.000067640000,  -0.31200,
,,,0.000067680000,  -0.30400,
,,,0.000067720000,  -0.28000,
,,,0.000067760000,  -0.27200,
,,,0.000067800000,  -0.25600,
,,,0.000067840000,  -0.24000,
,,,0.000067880000,  -0.22400,
,,,0.000067920000,  -0.20800,
,,,0.000067960000,  -0.19200,
,,,0.000068000000,  -0.17600,
,,,0.000068040000,  -0.15200,
,,,0.000068080000,  -0.13600,
,,,0.000068120000,  -0.12000,
,,,0.000068160000,  -0.09600,
,,,0.000068200000,  -0.08000,
,,,0.000068240000,  -0.06400,
,,,0.000068280000,  -0.04800,
,,,0.000068320000,  -0.02400,
,,,0.000068360000,  -0.00800,
,,,0.000068400000,   0.00800,
,,,0.000068440000,   0.02400,
,,,0.000068480000,   0.04800,
,,,0.000068520000,   0.06400,
,,,0.000068560000,   0.08800,
,,,0.000068600000,   0.10400,
,,,0.000068640000,   0.12000,
,,,0.000068680000,   0.13600,
,,,0.000068720000,   0.15200,
,,,0.000068760000,   0.16800,
,,,0.000068800000,   0.19200,
,,,0.000068840000,   0.20000,
,,,0.000068880000,   0.22400,
,,,0.000068920000,   0.24000,
,,,0.000068960000,   0.25600,
,,,0.000069000000,   0.26400,
,,,0.000069040000,   0.28000,
,,,0.000069080000,   0.29600,
,,,0.000069120000,   0.31200,
,,,0.000069160000,   0.32000,
,,,0.000069200000,   0.33600,
,,,0.000069240000,   0.34400,
,,,0.000069280000,   0.36000,
,,,0.000069320000,   0.37600,
,,,0.000069360000,   0.38400,
,,,0.000069400000,   0.39200,
,,,0.000069440000,   0.40000,
,,,0.000069480000,   0.40800,
,,,0.000069520000,   0.41600,
,,,0.000069560000,   0.42400,
,,,0.000069600000,   0.43200,
,,,0.000069640000,   0.43200,
,,,0.000069680000,   0.44000,
,,,0.000069720000,   0.44800,
,,,0.000069760000,   0.44800,
,,,0.000069800000,   0.45600,
,,,0.000069840000,   0.44800,
,,,0.000069880000,   0.45600,
,,,0.000069920000,   0.45600,
,,,0.000069960000,   0.45600,
,,,0.000070000000,   0.45600,
,,,0.000070040000,   0.45600,
,,,0.000070080000,   0.44800,
,,,0.000070120000,   0.44800,
,,,0.000070160000,   0.44000,
,,,0.000070200000,   0.44000,
,,,0.000070240000,   0.44000,
,,,0.000070280000,   0.43200,
,,,0.000070320000,   0.42400,
,,,0.000070360000,   0.41600,
,,,0.000070400000,   0.40800,
,,,0.000070440000,   0.40000,
,,,0.000070480000,   0.39200,
,,,0.000070520000,   0.38400,
,,,0.000070560000,   0.37600,
,,,0.000070600000,   0.36000,
,,,0.000070640000,   0.35200,
,,,0.000070680000,   0.33600,
,,,0.000070720000,   0.32800,
,,,0.000070760000,   0.31200,
,,,0.000070800000,   0.30400,
,,,0.000070840000,   0.28000,
,,,0.000070880000,   0.27200,
,,,0.000070920000,   0.25600,
,,,0.000070960000,   0.24000,
,,,0.000071000000,   0.22400,
,,,0.000071040000,   0.20800,
,,,0.000071080000,   0.19200,
,,,0.000071120000,   0.17600,
,,,0.000071160000,   0.16000,
,,,0.000071200000,   0.14400,
,,,0.000071240000,   0.12000,
,,,0.000071280000,   0.10400,
,,,0.000071320000,   0.08800,
,,,0.000071360000,   0.07200,
,,,0.000071400000,   0.05600,
,,,0.000071440000,   0.03200,
,,,0.000071480000,   0.01600,
,,,0.000071520000,  -0.00800,
,,,0.000071560000,  -0.02400,
,,,0.000071600000,  -0.04000,
,,,0.000071640000,  -0.06400,
,,,0.000071680000,  -0.08000,
,,,0.000071720000,  -0.09600,
,,,0.000071760000,  -0.11200,
,,,0.000071800000,  -0.13600,
,,,0.000071840000,  -0.15200,
,,,0.000071880000,  -0.16800,
,,,0.000071920000,  -0.19200,
,,,0.000071960000,  -0.20800,
,,,0.000072000000,  -0.21600,
,,,0.000072040000,  -0.23200,
,,,0.000072080000,  -0.25600,
,,,0.000072120000,  -0.27200,
,,,0.000072160000,  -0.28000,
,,,0.000072200000,  -0.29600,
,,,0.000072240000,  -0.31200,
,,,0.000072280000,  -0.32800,
,,,0.000072320000,  -0.33600,
,,,0.000072360000,  -0.35200,
,,,0.000072400000,  -0.36000,
,,,0.000072440000,  -0.36800,
,,,0.000072480000,  -0.38400,
,,,0.000072520000,  -0.39200,
,,,0.000072560000,  -0.40000,
,,,0.000072600000,  -0.40800,
,,,0.000072640000,  -0.41600,
,,,0.000072680000,  -0.42400,
,,,0.000072720000,  -0.43200,
,,,0.000072760000,  -0.44000,
,,,0.000072800000,  -0.44000,
,,,0.000072840000,  -0.44800,
,,,0.000072880000,  -0.44800,
,,,0.000072920000,  -0.45600,
,,,0.000072960000,  -0.45600,
,,,0.000073000000,  -0.45600,
,,,0.000073040000,  -0.46400,
,,,0.000073080000,  -0.46400,
,,,0.000073120000,  -0.46400,
,,,0.000073160000,  -0.46400,
,,,0.000073200000,  -0.45600,
,,,0.000073240000,  -0.45600,
,,,0.000073280000,  -0.44800,
,,,0.000073320000,  -0.44800,
,,,0.000073360000,  -0.44000,
,,,0.000073400000,  -0.43200,
,,,0.000073440000,  -0.42400,
,,,0.000073480000,  -0.42400,
,,,0.000073520000,  -0.41600,
,,,0.000073560000,  -0.40800,
,,,0.000073600000,  -0.40000,
,,,0.000073640000,  -0.38400,
,,,0.000073680000,  -0.37600,
,,,0.000073720000,  -0.36800,
,,,0.000073760000,  -0.35200,
,,,0.000073800000,  -0.34400,
,,,0.000073840000,  -0.32800,
,,,0.000073880000,  -0.31200,
,,,0.000073920000,  -0.30400,
,,,0.000073960000,  -0.29600,
,,,0.000074000000,  -0.27200,
,,,0.000074040000,  -0.25600,
,,,0.000074080000,  -0.24000,
,,,0.000074120000,  -0.23200,
,,,0.000074160000,  -0.20800,
,,,0.000074200000,  -0.19200,
,,,0.000074240000,  -0.17600,
,,,0.000074280000,  -0.16000,
,,,0.000074320000,  -0.14400,
,,,0.000074360000,  -0.12800,
,,,0.000074400000,  -0.10400,
,,,0.000074440000,  -0.08800,
,,,0.000074480000,  -0.07200,
,,,0.000074520000,  -0.04800,
,,,0.000074560000,  -0.03200,
,,,0.000074600000,  -0.01600,
,,,0.000074640000,   0.00800,
,,,0.000074680000,   0.02400,
,,,0.000074720000,   0.04000,
,,,0.000074760000,   0.06400,
,,,0.000074800000,   0.08000,
,,,0.000074840000,   0.09600,
,,,0.000074880000,   0.11200,
,,,0.000074920000,   0.13600,
,,,0.000074960000,   0.15200,
,,,0.000075000000,   0.16800,
,,,0.000075040000,   0.18400,
,,,0.000075080000,   0.20000,
,,,0.000075120000,   0.21600,
,,,0.000075160000,   0.23200,
,,,0.000075200000,   0.24800,
,,,0.000075240000,   0.26400,
,,,0.000075280000,   0.28000,
,,,0.000075320000,   0.29600,
,,,0.000075360000,   0.30400,
,,,0.000075400000,   0.32000,
,,,0.000075440000,   0.33600,
,,,0.000075480000,   0.34400,
,,,0.000075520000,   0.36000,
,,,0.000075560000,   0.36800,
,,,0.000075600000,   0.37600,
,,,0.000075640000,   0.38400,
,,,0.000075680000,   0.39200,
,,,0.000075720000,   0.40800,
,,,0.000075760000,   0.41600,
,,,0.000075800000,   0.42400,
,,,0.000075840000,   0.43200,
,,,0.000075880000,   0.43200,
,,,0.000075920000,   0.44000,
,,,0.000075960000,   0.44800,
,,,0.000076000000,   0.44800,
,,,0.000076040000,   0.45600,
,,,0.000076080000,   0.45600,
,,,0.000076120000,   0.45600,
