G3/data4/ALL0045/F0045CH1.CSV

Record Length,2.500000e+03,,   0.000135000000,   1.40000,
Sample Interval,2.000000e-08,,   0.000135020000,   1.44000,
Trigger Point,-6.750000000000e+03,,   0.000135040000,   1.48000,
,,,   0.000135060000,   1.52000,
,,,   0.000135080000,   1.56000,
,,,   0.000135100000,   1.64000,
Source,CH1,,   0.000135120000,   1.64000,
Vertical Units,V,,   0.000135140000,   1.68000,
Vertical Scale,1.000000e+00,,   0.000135160000,   1.72000,
Vertical Offset,0.000000e+00,,   0.000135180000,   1.76000,
Horizontal Units,s,,   0.000135200000,   1.80000,
Horizontal Scale,5.000000e-06,,   0.000135220000,   1.80000,
Pt Fmt,Y,,   0.000135240000,   1.88000,
Yzero,0.000000e+00,,   0.000135260000,   1.88000,
Probe Atten,1.000000e+00,,   0.000135280000,   1.92000,
Model Number,TBS1052B-EDU,,   0.000135300000,   1.96000,
Serial Number,C017060,,   0.000135320000,   1.96000,
Firmware Version,FV:v3.25,,   0.000135340000,   2.00000,
,,,0.000135360000,   2.04000,
,,,0.000135380000,   2.04000,
,,,0.000135400000,   2.04000,
,,,0.000135420000,   2.12000,
,,,0.000135440000,   2.12000,
,,,0.000135460000,   2.12000,
,,,0.000135480000,   2.16000,
,,,0.000135500000,   2.20000,
,,,0.000135520000,   2.20000,
,,,0.000135540000,   2.20000,
,,,0.000135560000,   2.24000,
,,,0.000135580000,   2.24000,
,,,0.000135600000,   2.28000,
,,,0.000135620000,   2.28000,
,,,0.000135640000,   2.32000,
,,,0.000135660000,   2.32000,
,,,0.000135680000,   2.28000,
,,,0.000135700000,   2.32000,
,,,0.000135720000,   2.32000,
,,,0.000135740000,   2.32000,
,,,0.000135760000,   2.36000,
,,,0.000135780000,   2.36000,
,,,0.000135800000,   2.32000,
,,,0.000135820000,   2.36000,
,,,0.000135840000,   2.36000,
,,,0.000135860000,   2.36000,
,,,0.000135880000,   2.36000,
,,,0.000135900000,   2.36000,
,,,0.000135920000,   2.32000,
,,,0.000135940000,   2.32000,
,,,0.000135960000,   2.32000,
,,,0.000135980000,   2.32000,
,,,0.000136000000,   2.32000,
,,,0.000136020000,   2.28000,
,,,0.000136040000,   2.28000,
,,,0.000136060000,   2.28000,
,,,0.000136080000,   2.28000,
,,,0.000136100000,   2.24000,
,,,0.000136120000,   2.24000,
,,,0.000136140000,   2.20000,
,,,0.000136160000,   2.20000,
,,,0.000136180000,   2.16000,
,,,0.000136200000,   2.16000,
,,,0.000136220000,   2.16000,
,,,0.000136240000,   2.12000,
,,,0.000136260000,   2.12000,
,,,0.000136280000,   2.08000,
,,,0.000136300000,   2.04000,
,,,0.000136320000,   2.04000,
,,,0.000136340000,   2.00000,
,,,0.000136360000,   1.96000,
,,,0.000136380000,   1.96000,
,,,0.000136400000,   1.92000,
,,,0.000136420000,   1.88000,
,,,0.000136440000,   1.84000,
,,,0.000136460000,   1.80000,
,,,0.000136480000,   1.80000,
,,,0.000136500000,   1.72000,
,,,0.000136520000,   1.72000,
,,,0.000136540000,   1.68000,
,,,0.000136560000,   1.64000,
,,,0.000136580000,   1.60000,
,,,0.000136600000,   1.56000,
,,,0.000136620000,   1.52000,
,,,0.000136640000,   1.48000,
,,,0.000136660000,   1.44000,
,,,0.000136680000,   1.40000,
,,,0.000136700000,   1.36000,
,,,0.000136720000,   1.32000,
,,,0.000136740000,   1.28000,
,,,0.000136760000,   1.24000,
,,,0.000136780000,   1.20000,
,,,0.000136800000,   1.16000,
,,,0.000136820000,   1.08000,
,,,0.000136840000,   1.04000,
,,,0.000136860000,   1.00000,
,,,0.000136880000,   0.96000,
,,,0.000136900000,   0.92000,
,,,0.000136920000,   0.84000,
,,,0.000136940000,   0.80000,
,,,0.000136960000,   0.76000,
,,,0.000136980000,   0.72000,
,,,0.000137000000,   0.68000,
,,,0.000137020000,   0.60000,
,,,0.000137040000,   0.56000,
,,,0.000137060000,   0.52000,
,,,0.000137080000,   0.44000,
,,,0.000137100000,   0.40000,
,,,0.000137120000,   0.36000,
,,,0.000137140000,   0.28000,
,,,0.000137160000,   0.24000,
,,,0.000137180000,   0.20000,
,,,0.000137200000,   0.12000,
,,,0.000137220000,   0.08000,
,,,0.000137240000,   0.04000,
,,,0.000137260000,   0.00000,
,,,0.000137280000,  -0.08000,
,,,0.000137300000,  -0.12000,
,,,0.000137320000,  -0.16000,
,,,0.000137340000,  -0.24000,
,,,0.000137360000,  -0.28000,
,,,0.000137380000,  -0.32000,
,,,0.000137400000,  -0.40000,
,,,0.000137420000,  -0.44000,
,,,0.000137440000,  -0.48000,
,,,0.000137460000,  -0.52000,
,,,0.000137480000,  -0.56000,
,,,0.000137500000,  -0.60000,
,,,0.000137520000,  -0.68000,
,,,0.000137540000,  -0.72000,
,,,0.000137560000,  -0.80000,
,,,0.000137580000,  -0.84000,
,,,0.000137600000,  -0.88000,
,,,0.000137620000,  -0.92000,
,,,0.000137640000,  -1.00000,
,,,0.000137660000,  -1.04000,
,,,0.000137680000,  -1.08000,
,,,0.000137700000,  -1.12000,
,,,0.000137720000,  -1.20000,
,,,0.000137740000,  -1.20000,
,,,0.000137760000,  -1.24000,
,,,0.000137780000,  -1.32000,
,,,0.000137800000,  -1.36000,
,,,0.000137820000,  -1.40000,
,,,0.000137840000,  -1.44000,
,,,0.000137860000,  -1.48000,
,,,0.000137880000,  -1.52000,
,,,0.000137900000,  -1.56000,
,,,0.000137920000,  -1.60000,
,,,0.000137940000,  -1.64000,
,,,0.000137960000,  -1.68000,
,,,0.000137980000,  -1.68000,
,,,0.000138000000,  -1.72000,
,,,0.000138020000,  -1.76000,
,,,0.000138040000,  -1.80000,
,,,0.000138060000,  -1.84000,
,,,0.000138080000,  -1.88000,
,,,0.000138100000,  -1.88000,
,,,0.000138120000,  -1.92000,
,,,0.000138140000,  -1.96000,
,,,0.000138160000,  -2.00000,
,,,0.000138180000,  -2.00000,
,,,0.000138200000,  -2.04000,
,,,0.000138220000,  -2.08000,
,,,0.000138240000,  -2.08000,
,,,0.000138260000,  -2.12000,
,,,0.000138280000,  -2.12000,
,,,0.000138300000,  -2.16000,
,,,0.000138320000,  -2.16000,
,,,0.000138340000,  -2.20000,
,,,0.000138360000,  -2.20000,
,,,0.000138380000,  -2.24000,
,,,0.000138400000,  -2.24000,
,,,0.000138420000,  -2.28000,
,,,0.000138440000,  -2.28000,
,,,0.000138460000,  -2.28000,
,,,0.000138480000,  -2.28000,
,,,0.000138500000,  -2.28000,
,,,0.000138520000,  -2.32000,
,,,0.000138540000,  -2.32000,
,,,0.000138560000,  -2.32000,
,,,0.000138580000,  -2.32000,
,,,0.000138600000,  -2.32000,
,,,0.000138620000,  -2.32000,
,,,0.000138640000,  -2.32000,
,,,0.000138660000,  -2.32000,
,,,0.000138680000,  -2.32000,
,,,0.000138700000,  -2.32000,
,,,0.000138720000,  -2.32000,
,,,0.000138740000,  -2.32000,
,,,0.000138760000,  -2.32000,
,,,0.000138780000,  -2.32000,
,,,0.000138800000,  -2.32000,
,,,0.000138820000,  -2.28000,
,,,0.000138840000,  -2.28000,
,,,0.000138860000,  -2.28000,
,,,0.000138880000,  -2.24000,
,,,0.000138900000,  -2.24000,
,,,0.000138920000,  -2.24000,
,,,0.000138940000,  -2.20000,
,,,0.000138960000,  -2.20000,
,,,0.000138980000,  -2.16000,
,,,0.000139000000,  -2.16000,
,,,0.000139020000,  -2.12000,
,,,0.000139040000,  -2.12000,
,,,0.000139060000,  -2.08000,
,,,0.000139080000,  -2.04000,
,,,0.000139100000,  -2.04000,
,,,0.000139120000,  -2.00000,
,,,0.000139140000,  -1.96000,
,,,0.000139160000,  -1.96000,
,,,0.000139180000,  -1.92000,
,,,0.000139200000,  -1.92000,
,,,0.000139220000,  -1.88000,
,,,0.000139240000,  -1.84000,
,,,0.000139260000,  -1.80000,
,,,0.000139280000,  -1.76000,
,,,0.000139300000,  -1.76000,
,,,0.000139320000,  -1.72000,
,,,0.000139340000,  -1.68000,
,,,0.000139360000,  -1.64000,
,,,0.000139380000,  -1.60000,
,,,0.000139400000,  -1.56000,
,,,0.000139420000,  -1.52000,
,,,0.000139440000,  -1.48000,
,,,0.000139460000,  -1.44000,
,,,0.000139480000,  -1.40000,
,,,0.000139500000,  -1.32000,
,,,0.000139520000,  -1.32000,
,,,0.000139540000,  -1.28000,
,,,0.000139560000,  -1.20000,
,,,0.000139580000,  -1.16000,
,,,0.000139600000,  -1.12000,
,,,0.000139620000,  -1.12000,
,,,0.000139640000,  -1.04000,
,,,0.000139660000,  -1.00000,
,,,0.000139680000,  -0.92000,
,,,0.000139700000,  -0.88000,
,,,0.000139720000,  -0.84000,
,,,0.000139740000,  -0.80000,
,,,0.000139760000,  -0.76000,
,,,0.000139780000,  -0.68000,
,,,0.000139800000,  -0.64000,
,,,0.000139820000,  -0.60000,
,,,0.000139840000,  -0.56000,
,,,0.000139860000,  -0.48000,
,,,0.000139880000,  -0.44000,
,,,0.000139900000,  -0.40000,
,,,0.000139920000,  -0.32000,
,,,0.000139940000,  -0.28000,
,,,0.000139960000,  -0.24000,
,,,0.000139980000,  -0.16000,
,,,0.000140000000,  -0.12000,
,,,0.000140020000,  -0.08000,
,,,0.000140040000,   0.00000,
,,,0.000140060000,   0.04000,
,,,0.000140080000,   0.12000,
,,,0.000140100000,   0.16000,
,,,0.000140120000,   0.20000,
,,,0.000140140000,   0.24000,
,,,0.000140160000,   0.28000,
,,,0.000140180000,   0.36000,
,,,0.000140200000,   0.40000,
,,,0.000140220000,   0.44000,
,,,0.000140240000,   0.52000,
,,,0.000140260000,   0.56000,
,,,0.000140280000,   0.60000,
,,,0.000140300000,   0.64000,
,,,0.000140320000,   0.72000,
,,,0.000140340000,   0.76000,
,,,0.000140360000,   0.80000,
,,,0.000140380000,   0.84000,
,,,0.000140400000,   0.92000,
,,,0.000140420000,   0.92000,
,,,0.000140440000,   1.00000,
,,,0.000140460000,   1.04000,
,,,0.000140480000,   1.08000,
,,,0.000140500000,   1.16000,
,,,0.000140520000,   1.20000,
,,,0.000140540000,   1.20000,
,,,0.000140560000,   1.24000,
,,,0.000140580000,   1.32000,
,,,0.000140600000,   1.36000,
,,,0.000140620000,   1.40000,
,,,0.000140640000,   1.44000,
,,,0.000140660000,   1.48000,
,,,0.000140680000,   1.52000,
,,,0.000140700000,   1.56000,
,,,0.000140720000,   1.60000,
,,,0.000140740000,   1.64000,
,,,0.000140760000,   1.68000,
,,,0.000140780000,   1.72000,
,,,0.000140800000,   1.76000,
,,,0.000140820000,   1.76000,
,,,0.000140840000,   1.80000,
,,,0.000140860000,   1.84000,
,,,0.000140880000,   1.88000,
,,,0.000140900000,   1.92000,
,,,0.000140920000,   1.92000,
,,,0.000140940000,   1.96000,
,,,0.000140960000,   2.00000,
,,,0.000140980000,   2.04000,
,,,0.000141000000,   2.04000,
,,,0.000141020000,   2.08000,
,,,0.000141040000,   2.08000,
,,,0.000141060000,   2.12000,
,,,0.000141080000,   2.12000,
,,,0.000141100000,   2.16000,
,,,0.000141120000,   2.20000,
,,,0.000141140000,   2.20000,
,,,0.000141160000,   2.24000,
,,,0.000141180000,   2.24000,
,,,0.000141200000,   2.24000,
,,,0.000141220000,   2.28000,
,,,0.000141240000,   2.24000,
,,,0.000141260000,   2.28000,
,,,0.000141280000,   2.28000,
,,,0.000141300000,   2.32000,
,,,0.000141320000,   2.32000,
,,,0.000141340000,   2.32000,
,,,0.000141360000,   2.32000,
,,,0.000141380000,   2.32000,
,,,0.000141400000,   2.36000,
,,,0.000141420000,   2.36000,
,,,0.000141440000,   2.36000,
,,,0.000141460000,   2.36000,
,,,0.000141480000,   2.36000,
,,,0.000141500000,   2.36000,
,,,0.000141520000,   2.32000,
,,,0.000141540000,   2.32000,
,,,0.000141560000,   2.32000,
,,,0.000141580000,   2.32000,
,,,0.000141600000,   2.32000,
,,,0.000141620000,   2.32000,
,,,0.000141640000,   2.28000,
,,,0.000141660000,   2.28000,
,,,0.000141680000,   2.28000,
,,,0.000141700000,   2.28000,
,,,0.000141720000,   2.24000,
,,,0.000141740000,   2.24000,
,,,0.000141760000,   2.20000,
,,,0.000141780000,   2.20000,
,,,0.000141800000,   2.20000,
,,,0.000141820000,   2.16000,
,,,0.000141840000,   2.12000,
,,,0.000141860000,   2.12000,
,,,0.000141880000,   2.12000,
,,,0.000141900000,   2.08000,
,,,0.000141920000,   2.04000,
,,,0.000141940000,   2.04000,
,,,0.000141960000,   2.00000,
,,,0.000141980000,   1.96000,
,,,0.000142000000,   1.92000,
,,,0.000142020000,   1.92000,
,,,0.000142040000,   1.88000,
,,,0.000142060000,   1.84000,
,,,0.000142080000,   1.80000,
,,,0.000142100000,   1.80000,
,,,0.000142120000,   1.76000,
,,,0.000142140000,   1.72000,
,,,0.000142160000,   1.68000,
,,,0.000142180000,   1.64000,
,,,0.000142200000,   1.60000,
,,,0.000142220000,   1.60000,
,,,0.000142240000,   1.56000,
,,,0.000142260000,   1.52000,
,,,0.000142280000,   1.44000,
,,,0.000142300000,   1.40000,
,,,0.000142320000,   1.36000,
,,,0.000142340000,   1.32000,
,,,0.000142360000,   1.28000,
,,,0.000142380000,   1.24000,
,,,0.000142400000,   1.20000,
,,,0.000142420000,   1.16000,
,,,0.000142440000,   1.12000,
,,,0.000142460000,   1.04000,
,,,0.000142480000,   1.00000,
,,,0.000142500000,   0.96000,
,,,0.000142520000,   0.92000,
,,,0.000142540000,   0.84000,
,,,0.000142560000,   0.80000,
,,,0.000142580000,   0.76000,
,,,0.000142600000,   0.72000,
,,,0.000142620000,   0.64000,
,,,0.000142640000,   0.64000,
,,,0.000142660000,   0.56000,
,,,0.000142680000,   0.52000,
,,,0.000142700000,   0.44000,
,,,0.000142720000,   0.40000,
,,,0.000142740000,   0.36000,
,,,0.000142760000,   0.32000,
,,,0.000142780000,   0.24000,
,,,0.000142800000,   0.20000,
,,,0.000142820000,   0.16000,
,,,0.000142840000,   0.08000,
,,,0.000142860000,   0.04000,
,,,0.000142880000,   0.00000,
,,,0.000142900000,  -0.04000,
,,,0.000142920000,  -0.12000,
,,,0.000142940000,  -0.16000,
,,,0.000142960000,  -0.20000,
,,,0.000142980000,  -0.28000,
,,,0.000143000000,  -0.28000,
,,,0.000143020000,  -0.36000,
,,,0.000143040000,  -0.40000,
,,,0.000143060000,  -0.48000,
,,,0.000143080000,  -0.52000,
,,,0.000143100000,  -0.56000,
,,,0.000143120000,  -0.64000,
,,,0.000143140000,  -0.68000,
,,,0.000143160000,  -0.72000,
,,,0.000143180000,  -0.80000,
,,,0.000143200000,  -0.84000,
,,,0.000143220000,  -0.88000,
,,,0.000143240000,  -0.92000,
,,,0.000143260000,  -1.00000,
,,,0.000143280000,  -1.04000,
,,,0.000143300000,  -1.08000,
,,,0.000143320000,  -1.12000,
,,,0.000143340000,  -1.16000,
,,,0.000143360000,  -1.20000,
,,,0.000143380000,  -1.24000,
,,,0.000143400000,  -1.32000,
,,,0.000143420000,  -1.36000,
,,,0.000143440000,  -1.40000,
,,,0.000143460000,  -1.44000,
,,,0.000143480000,  -1.44000,
,,,0.000143500000,  -1.52000,
,,,0.000143520000,  -1.52000,
,,,0.000143540000,  -1.60000,
,,,0.000143560000,  -1.64000,
,,,0.000143580000,  -1.64000,
,,,0.000143600000,  -1.68000,
,,,0.000143620000,  -1.72000,
,,,0.000143640000,  -1.76000,
,,,0.000143660000,  -1.80000,
,,,0.000143680000,  -1.84000,
,,,0.000143700000,  -1.88000,
,,,0.000143720000,  -1.88000,
,,,0.000143740000,  -1.92000,
,,,0.000143760000,  -1.96000,
,,,0.000143780000,  -2.00000,
,,,0.000143800000,  -2.00000,
,,,0.000143820000,  -2.04000,
,,,0.000143840000,  -2.08000,
,,,0.000143860000,  -2.08000,
,,,0.000143880000,  -2.12000,
,,,0.000143900000,  -2.12000,
,,,0.000143920000,  -2.12000,
,,,0.000143940000,  -2.16000,
,,,0.000143960000,  -2.20000,
,,,0.000143980000,  -2.20000,
,,,0.000144000000,  -2.20000,
,,,0.000144020000,  -2.28000,
,,,0.000144040000,  -2.24000,
,,,0.000144060000,  -2.24000,
,,,0.000144080000,  -2.28000,
,,,0.000144100000,  -2.28000,
,,,0.000144120000,  -2.32000,
,,,0.000144140000,  -2.32000,
,,,0.000144160000,  -2.32000,
,,,0.000144180000,  -2.32000,
,,,0.000144200000,  -2.32000,
,,,0.000144220000,  -2.32000,
,,,0.000144240000,  -2.32000,
,,,0.000144260000,  -2.36000,
,,,0.000144280000,  -2.32000,
,,,0.000144300000,  -2.32000,
,,,0.000144320000,  -2.32000,
,,,0.000144340000,  -2.32000,
,,,0.000144360000,  -2.32000,
,,,0.000144380000,  -2.32000,
,,,0.000144400000,  -2.32000,
,,,0.000144420000,  -2.28000,
,,,0.000144440000,  -2.28000,
,,,0.000144460000,  -2.28000,
,,,0.000144480000,  -2.28000,
,,,0.000144500000,  -2.28000,
,,,0.000144520000,  -2.24000,
,,,0.000144540000,  -2.24000,
,,,0.000144560000,  -2.20000,
,,,0.000144580000,  -2.20000,
,,,0.000144600000,  -2.16000,
,,,0.000144620000,  -2.16000,
,,,0.000144640000,  -2.12000,
,,,0.000144660000,  -2.12000,
,,,0.000144680000,  -2.08000,
,,,0.000144700000,  -2.08000,
,,,0.000144720000,  -2.04000,
,,,0.000144740000,  -2.00000,
,,,0.000144760000,  -2.00000,
,,,0.000144780000,  -1.96000,
,,,0.000144800000,  -1.92000,
,,,0.000144820000,  -1.92000,
,,,0.000144840000,  -1.88000,
,,,0.000144860000,  -1.84000,
,,,0.000144880000,  -1.80000,
,,,0.000144900000,  -1.80000,
,,,0.000144920000,  -1.76000,
,,,0.000144940000,  -1.68000,
,,,0.000144960000,  -1.68000,
,,,0.000144980000,  -1.64000,
,,,0.000145000000,  -1.60000,
,,,0.000145020000,  -1.56000,
,,,0.000145040000,  -1.52000,
,,,0.000145060000,  -1.48000,
,,,0.000145080000,  -1.44000,
,,,0.000145100000,  -1.40000,
,,,0.000145120000,  -1.36000,
,,,0.000145140000,  -1.32000,
,,,0.000145160000,  -1.28000,
,,,0.000145180000,  -1.20000,
,,,0.000145200000,  -1.20000,
,,,0.000145220000,  -1.12000,
,,,0.000145240000,  -1.08000,
,,,0.000145260000,  -1.04000,
,,,0.000145280000,  -1.00000,
,,,0.000145300000,  -0.96000,
,,,0.000145320000,  -0.88000,
,,,0.000145340000,  -0.84000,
,,,0.000145360000,  -0.80000,
,,,0.000145380000,  -0.76000,
,,,0.000145400000,  -0.72000,
,,,0.000145420000,  -0.64000,
,,,0.000145440000,  -0.60000,
,,,0.000145460000,  -0.56000,
,,,0.000145480000,  -0.48000,
,,,0.000145500000,  -0.44000,
,,,0.000145520000,  -0.40000,
,,,0.000145540000,  -0.36000,
,,,0.000145560000,  -0.28000,
,,,0.000145580000,  -0.24000,
,,,0.000145600000,  -0.20000,
,,,0.000145620000,  -0.16000,
,,,0.000145640000,  -0.08000,
,,,0.000145660000,  -0.04000,
,,,0.000145680000,   0.04000,
,,,0.000145700000,   0.12000,
,,,0.000145720000,   0.12000,
,,,0.000145740000,   0.16000,
,,,0.000145760000,   0.24000,
,,,0.000145780000,   0.28000,
,,,0.000145800000,   0.36000,
,,,0.000145820000,   0.40000,
,,,0.000145840000,   0.44000,
,,,0.000145860000,   0.48000,
,,,0.000145880000,   0.52000,
,,,0.000145900000,   0.60000,
,,,0.000145920000,   0.64000,
,,,0.000145940000,   0.72000,
,,,0.000145960000,   0.76000,
,,,0.000145980000,   0.80000,
,,,0.000146000000,   0.84000,
,,,0.000146020000,   0.88000,
,,,0.000146040000,   0.92000,
,,,0.000146060000,   1.00000,
,,,0.000146080000,   1.04000,
,,,0.000146100000,   1.08000,
,,,0.000146120000,   1.12000,
,,,0.000146140000,   1.16000,
,,,0.000146160000,   1.24000,
,,,0.000146180000,   1.28000,
,,,0.000146200000,   1.32000,
,,,0.000146220000,   1.36000,
,,,0.000146240000,   1.36000,
,,,0.000146260000,   1.44000,
,,,0.000146280000,   1.48000,
,,,0.000146300000,   1.52000,
,,,0.000146320000,   1.56000,
,,,0.000146340000,   1.60000,
,,,0.000146360000,   1.60000,
,,,0.000146380000,   1.68000,
,,,0.000146400000,   1.72000,
,,,0.000146420000,   1.72000,
,,,0.000146440000,   1.76000,
,,,0.000146460000,   1.80000,
,,,0.000146480000,   1.84000,
,,,0.000146500000,   1.88000,
,,,0.000146520000,   1.88000,
,,,0.000146540000,   1.92000,
,,,0.000146560000,   1.96000,
,,,0.000146580000,   2.00000,
,,,0.000146600000,   2.04000,
,,,0.000146620000,   2.04000,
,,,0.000146640000,   2.04000,
,,,0.000146660000,   2.08000,
,,,0.000146680000,   2.12000,
,,,0.000146700000,   2.12000,
,,,0.000146720000,   2.16000,
,,,0.000146740000,   2.16000,
,,,0.000146760000,   2.20000,
,,,0.000146780000,   2.24000,
,,,0.000146800000,   2.24000,
,,,0.000146820000,   2.24000,
,,,0.000146840000,   2.24000,
,,,0.000146860000,   2.28000,
,,,0.000146880000,   2.28000,
,,,0.000146900000,   2.28000,
,,,0.000146920000,   2.32000,
,,,0.000146940000,   2.32000,
,,,0.000146960000,   2.32000,
,,,0.000146980000,   2.32000,
,,,0.000147000000,   2.32000,
,,,0.000147020000,   2.32000,
,,,0.000147040000,   2.36000,
,,,0.000147060000,   2.32000,
,,,0.000147080000,   2.36000,
,,,0.000147100000,   2.36000,
,,,0.000147120000,   2.32000,
,,,0.000147140000,   2.32000,
,,,0.000147160000,   2.36000,
,,,0.000147180000,   2.32000,
,,,0.000147200000,   2.36000,
,,,0.000147220000,   2.32000,
,,,0.000147240000,   2.32000,
,,,0.000147260000,   2.32000,
,,,0.000147280000,   2.32000,
,,,0.000147300000,   2.28000,
,,,0.000147320000,   2.28000,
,,,0.000147340000,   2.24000,
,,,0.000147360000,   2.24000,
,,,0.000147380000,   2.24000,
,,,0.000147400000,   2.20000,
,,,0.000147420000,   2.16000,
,,,0.000147440000,   2.16000,
,,,0.000147460000,   2.16000,
,,,0.000147480000,   2.12000,
,,,0.000147500000,   2.12000,
,,,0.000147520000,   2.08000,
,,,0.000147540000,   2.08000,
,,,0.000147560000,   2.04000,
,,,0.000147580000,   2.00000,
,,,0.000147600000,   1.96000,
,,,0.000147620000,   1.96000,
,,,0.000147640000,   1.92000,
,,,0.000147660000,   1.88000,
,,,0.000147680000,   1.84000,
,,,0.000147700000,   1.84000,
,,,0.000147720000,   1.80000,
,,,0.000147740000,   1.76000,
,,,0.000147760000,   1.72000,
,,,0.000147780000,   1.72000,
,,,0.000147800000,   1.64000,
,,,0.000147820000,   1.60000,
,,,0.000147840000,   1.56000,
,,,0.000147860000,   1.56000,
,,,0.000147880000,   1.52000,
,,,0.000147900000,   1.44000,
,,,0.000147920000,   1.40000,
,,,0.000147940000,   1.36000,
,,,0.000147960000,   1.32000,
,,,0.000147980000,   1.28000,
,,,0.000148000000,   1.24000,
,,,0.000148020000,   1.20000,
,,,0.000148040000,   1.16000,
,,,0.000148060000,   1.12000,
